{
  "ekatte": "10135",
  "page": 2,
  "totalPages": 4,
  "count": 195,
  "companies": [
    {
      "slug": "Геосфарма-ООД",
      "displayName": "Геосфарма ООД",
      "registeredOffice": "Варна",
      "mps": [
        {
          "mpId": 2706,
          "mpName": "Веселин Найденов Марешки",
          "role": "declared_stake",
          "isCurrent": true
        }
      ]
    },
    {
      "slug": "Гранд-Олд-Тийм",
      "displayName": "Гранд Олд Тийм",
      "registeredOffice": "БЪЛГАРИЯ, гр. Варна, 9000",
      "mps": [
        {
          "mpId": 4728,
          "mpName": "Светослав Тодоров Тодоров",
          "role": "manager",
          "isCurrent": true
        },
        {
          "mpId": 4728,
          "mpName": "Светослав Тодоров Тодоров",
          "role": "partner",
          "isCurrent": false
        }
      ]
    },
    {
      "slug": "ДАР-ТРАНС-17",
      "displayName": "ДАР ТРАНС 17",
      "registeredOffice": "БЪЛГАРИЯ, гр. Варна, 9000",
      "mps": [
        {
          "mpId": 5113,
          "mpName": "Георги Иванов Георгиев",
          "role": "manager",
          "isCurrent": true
        },
        {
          "mpId": 5113,
          "mpName": "Георги Иванов Георгиев",
          "role": "sole_owner",
          "isCurrent": true
        }
      ]
    },
    {
      "slug": "ДВИЖЕНИЕ-ЗА-ДОСТОЙНИ-СТАРИНИ",
      "displayName": "ДВИЖЕНИЕ ЗА ДОСТОЙНИ СТАРИНИ",
      "registeredOffice": "БЪЛГАРИЯ, Варна, 9000",
      "mps": [
        {
          "mpId": 2768,
          "mpName": "Андон Димов Дончев",
          "role": "ngo_representative",
          "isCurrent": true
        },
        {
          "mpId": 2768,
          "mpName": "Андон Димов Дончев",
          "role": "ngo_board",
          "isCurrent": true
        }
      ]
    },
    {
      "slug": "Движение-мила-родино",
      "displayName": "Движение мила родино",
      "registeredOffice": "БЪЛГАРИЯ, гр. Варна, 9000",
      "mps": [
        {
          "mpId": 2768,
          "mpName": "Андон Димов Дончев",
          "role": "ngo_representative",
          "isCurrent": true
        },
        {
          "mpId": 2768,
          "mpName": "Андон Димов Дончев",
          "role": "ngo_board",
          "isCurrent": true
        }
      ]
    },
    {
      "slug": "ДВИЖЕНИЕ-НА-ГРАЖДАНИТЕ-ЗАЕДНО",
      "displayName": "ДВИЖЕНИЕ НА ГРАЖДАНИТЕ ЗАЕДНО",
      "registeredOffice": "БЪЛГАРИЯ, гр. Варна, 9020",
      "mps": [
        {
          "mpId": 2706,
          "mpName": "Веселин Найденов Марешки",
          "role": "ngo_representative",
          "isCurrent": true
        },
        {
          "mpId": 2706,
          "mpName": "Веселин Найденов Марешки",
          "role": "ngo_board",
          "isCurrent": true
        }
      ]
    },
    {
      "slug": "ДИС-БИЛДИНГ",
      "displayName": "ДИС БИЛДИНГ",
      "registeredOffice": "БЪЛГАРИЯ, гр. Варна, 9000",
      "mps": [
        {
          "mpId": 585,
          "mpName": "Димитър Иванов Стефанов",
          "role": "manager",
          "isCurrent": true
        },
        {
          "mpId": 585,
          "mpName": "Димитър Иванов Стефанов",
          "role": "sole_owner",
          "isCurrent": true
        }
      ]
    },
    {
      "slug": "ДОБРИ-ИМОТИ-ВАРНА",
      "displayName": "ДОБРИ ИМОТИ ВАРНА",
      "registeredOffice": "БЪЛГАРИЯ, гр. Варна, 9000",
      "mps": [
        {
          "mpId": 2757,
          "mpName": "Стоян Христов Пасев",
          "role": "manager",
          "isCurrent": true
        },
        {
          "mpId": 2757,
          "mpName": "Стоян Христов Пасев",
          "role": "partner",
          "isCurrent": true
        }
      ]
    },
    {
      "slug": "Европейски-Институт-за-професионално-обучение",
      "displayName": "Европейски Институт за професионално обучение",
      "registeredOffice": "Варна",
      "mps": [
        {
          "mpId": 5067,
          "mpName": "ИЛИН ПАВЛИНОВ ДИМИТРОВ",
          "role": "declared_stake",
          "isCurrent": true
        }
      ]
    },
    {
      "slug": "ЕЙНДЖЪЛ-ТИНКС",
      "displayName": "ЕЙНДЖЪЛ ТИНКС",
      "registeredOffice": "БЪЛГАРИЯ, гр. Варна, 9000",
      "mps": [
        {
          "mpId": 5113,
          "mpName": "Георги Иванов Георгиев",
          "role": "manager",
          "isCurrent": true
        },
        {
          "mpId": 5113,
          "mpName": "Георги Иванов Георгиев",
          "role": "partner",
          "isCurrent": true
        }
      ]
    },
    {
      "slug": "ЕКО-ДРАЙВ-БЪЛГАРИЯ",
      "displayName": "ЕКО ДРАЙВ БЪЛГАРИЯ",
      "registeredOffice": "БЪЛГАРИЯ, гр. Варна, 9000",
      "mps": [
        {
          "mpId": 3993,
          "mpName": "Георги Станчев Георгиев",
          "role": "manager",
          "isCurrent": true
        },
        {
          "mpId": 3993,
          "mpName": "Георги Станчев Георгиев",
          "role": "sole_owner",
          "isCurrent": true
        }
      ]
    },
    {
      "slug": "ЕМ-ПИКСЕЛ",
      "displayName": "ЕМ ПИКСЕЛ",
      "registeredOffice": "БЪЛГАРИЯ, гр. Варна, 9000",
      "mps": [
        {
          "mpId": 585,
          "mpName": "Димитър Иванов Стефанов",
          "role": "manager",
          "isCurrent": true
        },
        {
          "mpId": 585,
          "mpName": "Димитър Иванов Стефанов",
          "role": "sole_owner",
          "isCurrent": true
        }
      ]
    },
    {
      "slug": "Есенца-Беладжио",
      "displayName": "Есенца Беладжио",
      "registeredOffice": "БЪЛГАРИЯ, гр. Варна, 9000",
      "mps": [
        {
          "mpId": 5113,
          "mpName": "Георги Иванов Георгиев",
          "role": "manager",
          "isCurrent": true
        },
        {
          "mpId": 5113,
          "mpName": "Георги Иванов Георгиев",
          "role": "sole_owner",
          "isCurrent": true
        }
      ]
    },
    {
      "slug": "ИКОН-ГРУП-99",
      "displayName": "ИКОН ГРУП 99",
      "registeredOffice": "БЪЛГАРИЯ, гр. Варна, 9000",
      "mps": [
        {
          "mpId": 5111,
          "mpName": "Калоян Тошков Иванов",
          "role": "partner",
          "isCurrent": true
        },
        {
          "mpId": 5111,
          "mpName": "Калоян Тошков Иванов",
          "role": "manager",
          "isCurrent": true
        }
      ]
    },
    {
      "slug": "ИКОН-ТАУЪРС",
      "displayName": "ИКОН ТАУЪРС",
      "registeredOffice": "БЪЛГАРИЯ, гр. Варна, 9002",
      "mps": [
        {
          "mpId": 5111,
          "mpName": "Калоян Тошков Иванов",
          "role": "manager",
          "isCurrent": true
        },
        {
          "mpId": 5111,
          "mpName": "Калоян Тошков Иванов",
          "role": "partner",
          "isCurrent": false
        }
      ]
    },
    {
      "slug": "Импекс-Варна-ЕООД",
      "displayName": "Импекс Варна ЕООД",
      "registeredOffice": "Варна",
      "mps": [
        {
          "mpId": 3288,
          "mpName": "МАРТИН ПЕТРОВ АНДОНОВ",
          "role": "declared_stake",
          "isCurrent": true
        }
      ]
    },
    {
      "slug": "ИН-Трейд-2009-ООД",
      "displayName": "ИН Трейд 2009 ООД",
      "registeredOffice": "Варна",
      "mps": [
        {
          "mpId": 3871,
          "mpName": "Николай Кръстев Костадинов",
          "role": "partner",
          "isCurrent": true
        },
        {
          "mpId": 3871,
          "mpName": "Николай Кръстав Костадинов",
          "role": "declared_stake",
          "isCurrent": true
        }
      ]
    },
    {
      "slug": "ИНТЕРНЕШЪНЪЛ-ПРОПЕЛЪР-КЛУБ,-ПОРТ-ВАРНА",
      "displayName": "ИНТЕРНЕШЪНЪЛ ПРОПЕЛЪР КЛУБ, ПОРТ ВАРНА",
      "registeredOffice": "БЪЛГАРИЯ, гр. Варна, 9000",
      "mps": [
        {
          "mpId": 5121,
          "mpName": "Атанас Петров Атанасов",
          "role": "ngo_board",
          "isCurrent": true
        },
        {
          "mpId": 5121,
          "mpName": "Атанас Петров Атанасов",
          "role": "ngo_representative",
          "isCurrent": true
        }
      ]
    },
    {
      "slug": "интернобмен-България-ЕООД",
      "displayName": "интернобмен България ЕООД",
      "registeredOffice": "Варна",
      "mps": [
        {
          "mpId": 5067,
          "mpName": "ИЛИН ПАВЛИНОВ ДИМИТРОВ",
          "role": "declared_stake",
          "isCurrent": true
        }
      ]
    },
    {
      "slug": "Интернобмен-ООД",
      "displayName": "Интернобмен ООД",
      "registeredOffice": "Варна",
      "mps": [
        {
          "mpId": 5067,
          "mpName": "ИЛИН ПАВЛИНОВ ДИМИТРОВ",
          "role": "declared_stake",
          "isCurrent": true
        }
      ]
    },
    {
      "slug": "КАДАМБА",
      "displayName": "КАДАМБА",
      "registeredOffice": "БЪЛГАРИЯ, гр. Варна, 9000",
      "mps": [
        {
          "mpId": 5113,
          "mpName": "Георги Иванов Георгиев",
          "role": "manager",
          "isCurrent": true
        },
        {
          "mpId": 5113,
          "mpName": "Георги Иванов Георгиев",
          "role": "sole_owner",
          "isCurrent": true
        }
      ]
    },
    {
      "slug": "КАМЧИЯ-ПРОПЪРТИС",
      "displayName": "КАМЧИЯ ПРОПЪРТИС",
      "registeredOffice": "БЪЛГАРИЯ, гр. Варна, 9000",
      "mps": [
        {
          "mpId": 51,
          "mpName": "Станчо Николов Тодоров",
          "role": "manager",
          "isCurrent": true
        },
        {
          "mpId": 51,
          "mpName": "Станчо Николов Тодоров",
          "role": "partner",
          "isCurrent": true
        }
      ]
    },
    {
      "slug": "КЕЙ-КЕЙ-СИ-КОНСУЛТ",
      "displayName": "КЕЙ КЕЙ СИ КОНСУЛТ",
      "registeredOffice": "БЪЛГАРИЯ, гр. Варна, 9000",
      "mps": [
        {
          "mpId": 4190,
          "mpName": "Калоян Тонев Икономов",
          "role": "manager",
          "isCurrent": true
        },
        {
          "mpId": 4190,
          "mpName": "Калоян Тонев Икономов",
          "role": "partner",
          "isCurrent": true
        }
      ]
    },
    {
      "slug": "КЛУБ-ПРИЯТЕЛИ-НА-ЕВРОПА",
      "displayName": "КЛУБ ПРИЯТЕЛИ НА ЕВРОПА",
      "registeredOffice": "БЪЛГАРИЯ, гр. Варна, 9000",
      "mps": [
        {
          "mpId": 21,
          "mpName": "Анелия Христова Атанасова",
          "role": "ngo_board",
          "isCurrent": true
        },
        {
          "mpId": 22,
          "mpName": "Яни Димитров Янев",
          "role": "ngo_board",
          "isCurrent": true
        }
      ]
    },
    {
      "slug": "КОНСИСТО-АЧИЙВМЪНТ-Р",
      "displayName": "КОНСИСТО АЧИЙВМЪНТ Р",
      "registeredOffice": "БЪЛГАРИЯ, гр. Варна, 9009",
      "mps": [
        {
          "mpId": 4871,
          "mpName": "Владимир Владимиров Георгиев",
          "role": "manager",
          "isCurrent": true
        },
        {
          "mpId": 4871,
          "mpName": "Владимир Владимиров Георгиев",
          "role": "partner",
          "isCurrent": true
        }
      ]
    },
    {
      "slug": "Кроули-инвест-ООД",
      "displayName": "Кроули инвест ООД",
      "registeredOffice": "ВАРНА",
      "mps": [
        {
          "mpId": 4190,
          "mpName": "КАЛОЯН ТОНЕВ ИКОНОМОВ",
          "role": "declared_stake",
          "isCurrent": true
        }
      ]
    },
    {
      "slug": "ЛАКОТА-ГЕЙМ",
      "displayName": "ЛАКОТА ГЕЙМ",
      "registeredOffice": "БЪЛГАРИЯ, гр. Варна, 9006",
      "mps": [
        {
          "mpId": 5152,
          "mpName": "Румен Димитров Христов",
          "role": "manager",
          "isCurrent": true
        },
        {
          "mpId": 5152,
          "mpName": "Румен Димитров Христов",
          "role": "sole_owner",
          "isCurrent": true
        }
      ]
    },
    {
      "slug": "МАКРО-ТРЕЙД-ГРУП",
      "displayName": "МАКРО ТРЕЙД ГРУП",
      "registeredOffice": "БЪЛГАРИЯ, гр. Варна, 9000",
      "mps": [
        {
          "mpId": 585,
          "mpName": "Димитър Иванов Стефанов",
          "role": "manager",
          "isCurrent": true
        },
        {
          "mpId": 585,
          "mpName": "Димитър Иванов Стефанов",
          "role": "sole_owner",
          "isCurrent": true
        }
      ]
    },
    {
      "slug": "Макситрейд-2014-ООД",
      "displayName": "Макситрейд 2014 ООД",
      "registeredOffice": "Варна",
      "mps": [
        {
          "mpId": 2706,
          "mpName": "Веселин Найденов Марешки",
          "role": "declared_stake",
          "isCurrent": true
        }
      ]
    },
    {
      "slug": "Маримекс-2003-ООД",
      "displayName": "Маримекс 2003 ООД",
      "registeredOffice": "Варна",
      "mps": [
        {
          "mpId": 2706,
          "mpName": "Веселин Найденов Марешки",
          "role": "declared_stake",
          "isCurrent": true
        }
      ]
    },
    {
      "slug": "Мимотек",
      "displayName": "Мимотек",
      "registeredOffice": "БЪЛГАРИЯ, гр. Варна, 9000",
      "mps": [
        {
          "mpId": 5245,
          "mpName": "Мартин Димитров Димитров",
          "role": "manager",
          "isCurrent": true
        },
        {
          "mpId": 5245,
          "mpName": "Мартин Димитров Димитров",
          "role": "sole_owner",
          "isCurrent": true
        }
      ]
    },
    {
      "slug": "МИНИ-ШОП",
      "displayName": "МИНИ ШОП",
      "registeredOffice": "БЪЛГАРИЯ, гр. Варна, 9000",
      "mps": [
        {
          "mpId": 5113,
          "mpName": "Георги Иванов Георгиев",
          "role": "manager",
          "isCurrent": true
        },
        {
          "mpId": 5113,
          "mpName": "Георги Иванов Георгиев",
          "role": "sole_owner",
          "isCurrent": true
        }
      ]
    },
    {
      "slug": "Младежки-дейности-и-спорт-Аспарухово",
      "displayName": "Младежки дейности и спорт Аспарухово",
      "registeredOffice": "БЪЛГАРИЯ, гр. Варна, 9003",
      "mps": [
        {
          "mpId": 4733,
          "mpName": "Кристиан Божидаров Ганчев",
          "role": "ngo_representative",
          "isCurrent": true
        },
        {
          "mpId": 4733,
          "mpName": "Кристиан Божидаров Ганчев",
          "role": "ngo_board",
          "isCurrent": true
        }
      ]
    },
    {
      "slug": "МОКРО",
      "displayName": "МОКРО",
      "registeredOffice": "БЪЛГАРИЯ, гр. Варна, 9003",
      "mps": [
        {
          "mpId": 639,
          "mpName": "Радослав Николов Коев",
          "role": "manager",
          "isCurrent": true
        },
        {
          "mpId": 639,
          "mpName": "Радослав Николов Коев",
          "role": "sole_owner",
          "isCurrent": true
        }
      ]
    },
    {
      "slug": "МОКРО-8",
      "displayName": "МОКРО 8",
      "registeredOffice": "БЪЛГАРИЯ, гр. Варна, 9000",
      "mps": [
        {
          "mpId": 639,
          "mpName": "Радослав Николов Коев",
          "role": "manager",
          "isCurrent": true
        },
        {
          "mpId": 639,
          "mpName": "Радослав Николов Коев",
          "role": "sole_owner",
          "isCurrent": true
        }
      ]
    },
    {
      "slug": "Море-2020-ООД",
      "displayName": "Море 2020 ООД",
      "registeredOffice": "Варна",
      "mps": [
        {
          "mpId": 2760,
          "mpName": "Иван Димов Иванов",
          "role": "declared_stake",
          "isCurrent": true
        }
      ]
    },
    {
      "slug": "МУЛТИХИТ",
      "displayName": "МУЛТИХИТ",
      "registeredOffice": "БЪЛГАРИЯ, гр. Варна, 9000",
      "mps": [
        {
          "mpId": 5113,
          "mpName": "Георги Иванов Георгиев",
          "role": "manager",
          "isCurrent": true
        },
        {
          "mpId": 5113,
          "mpName": "Георги Иванов Георгиев",
          "role": "sole_owner",
          "isCurrent": true
        }
      ]
    },
    {
      "slug": "Национална-коалиция-освобождение",
      "displayName": "Национална коалиция освобождение",
      "registeredOffice": "БЪЛГАРИЯ, гр. Варна, 9000",
      "mps": [
        {
          "mpId": 2768,
          "mpName": "Андон Димов Дончев",
          "role": "ngo_representative",
          "isCurrent": true
        },
        {
          "mpId": 2768,
          "mpName": "Андон Димов Дончев",
          "role": "ngo_board",
          "isCurrent": true
        }
      ]
    },
    {
      "slug": "НАЦИОНАЛНО-ОБЕДИНЕНИЕ-ГЛАСЪТ-НА-ГРАЖДАНИТЕ",
      "displayName": "НАЦИОНАЛНО ОБЕДИНЕНИЕ ГЛАСЪТ НА ГРАЖДАНИТЕ",
      "registeredOffice": "БЪЛГАРИЯ, гр. Варна, 9009",
      "mps": [
        {
          "mpId": 2768,
          "mpName": "Андон Димов Дончев",
          "role": "ngo_representative",
          "isCurrent": true
        },
        {
          "mpId": 2768,
          "mpName": "Андон Димов Дончев",
          "role": "ngo_board",
          "isCurrent": true
        }
      ]
    },
    {
      "slug": "НАЦИОНАЛНО-ОСВОБОДИТЕЛНО-ДВИЖЕНИЕ-ЗА-ЧИСТА-И-СВЯТА-РЕПУБЛИКА",
      "displayName": "НАЦИОНАЛНО ОСВОБОДИТЕЛНО ДВИЖЕНИЕ ЗА ЧИСТА И СВЯТА РЕПУБЛИКА",
      "registeredOffice": "БЪЛГАРИЯ, гр. Варна, 9010",
      "mps": [
        {
          "mpId": 2706,
          "mpName": "Веселин Найденов Марешки",
          "role": "ngo_representative",
          "isCurrent": true
        },
        {
          "mpId": 2706,
          "mpName": "Веселин Найденов Марешки",
          "role": "ngo_board",
          "isCurrent": true
        }
      ]
    },
    {
      "slug": "Обединена-България",
      "displayName": "Обединена България",
      "registeredOffice": "БЪЛГАРИЯ, гр. Варна, 9000",
      "mps": [
        {
          "mpId": 2768,
          "mpName": "Андон Димов Дончев",
          "role": "ngo_representative",
          "isCurrent": true
        },
        {
          "mpId": 2768,
          "mpName": "Андон Димов Дончев",
          "role": "ngo_board",
          "isCurrent": true
        }
      ]
    },
    {
      "slug": "Обединение-за-социални-искания",
      "displayName": "Обединение за социални искания",
      "registeredOffice": "БЪЛГАРИЯ, гр. Варна, 9000",
      "mps": [
        {
          "mpId": 2768,
          "mpName": "Андон Димов Дончев",
          "role": "ngo_representative",
          "isCurrent": true
        },
        {
          "mpId": 2768,
          "mpName": "Андон Димов Дончев",
          "role": "ngo_board",
          "isCurrent": true
        }
      ]
    },
    {
      "slug": "ОНЛАЙН-КЛОУТИНГ",
      "displayName": "ОНЛАЙН КЛОУТИНГ",
      "registeredOffice": "БЪЛГАРИЯ, гр. Варна, 9005",
      "mps": [
        {
          "mpId": 5245,
          "mpName": "Мартин Димитров Димитров",
          "role": "manager",
          "isCurrent": true
        },
        {
          "mpId": 5245,
          "mpName": "Мартин Димитров Димитров",
          "role": "partner",
          "isCurrent": true
        }
      ]
    },
    {
      "slug": "ОТ-ИЗТОК-НА-ЗАПАД",
      "displayName": "ОТ ИЗТОК НА ЗАПАД",
      "registeredOffice": "БЪЛГАРИЯ, гр. Варна, 9000",
      "mps": [
        {
          "mpId": 5113,
          "mpName": "Георги Иванов Георгиев",
          "role": "manager",
          "isCurrent": true
        },
        {
          "mpId": 5113,
          "mpName": "Георги Иванов Георгиев",
          "role": "sole_owner",
          "isCurrent": true
        }
      ]
    },
    {
      "slug": "Отговорно-управление",
      "displayName": "Отговорно управление",
      "registeredOffice": "БЪЛГАРИЯ, гр. Варна, 9000",
      "mps": [
        {
          "mpId": 2768,
          "mpName": "Андон Димов Дончев",
          "role": "ngo_representative",
          "isCurrent": true
        },
        {
          "mpId": 2768,
          "mpName": "Андон Димов Дончев",
          "role": "ngo_board",
          "isCurrent": true
        }
      ]
    },
    {
      "slug": "ПРОТРЕЙДЪР",
      "displayName": "ПРОТРЕЙДЪР",
      "registeredOffice": "БЪЛГАРИЯ, гр. Варна, 9010",
      "mps": [
        {
          "mpId": 5113,
          "mpName": "Георги Иванов Георгиев",
          "role": "manager",
          "isCurrent": true
        },
        {
          "mpId": 5113,
          "mpName": "Георги Иванов Георгиев",
          "role": "sole_owner",
          "isCurrent": true
        }
      ]
    },
    {
      "slug": "Регионална-агенция-за-предприемачество-и-иновации-Варна",
      "displayName": "Регионална агенция за предприемачество и иновации - Варна",
      "registeredOffice": "БЪЛГАРИЯ, гр. Варна, 9000",
      "mps": [
        {
          "mpId": 22,
          "mpName": "Яни Димитров Янев",
          "role": "ngo_representative",
          "isCurrent": true
        },
        {
          "mpId": 22,
          "mpName": "Яни Димитров Янев",
          "role": "ngo_board",
          "isCurrent": true
        }
      ]
    },
    {
      "slug": "РЕМАР-ТРЕЙД",
      "displayName": "РЕМАР ТРЕЙД",
      "registeredOffice": "БЪЛГАРИЯ, гр. Варна, 9000",
      "mps": [
        {
          "mpId": 3160,
          "mpName": "Рушен Мехмед Риза",
          "role": "manager",
          "isCurrent": true
        },
        {
          "mpId": 3160,
          "mpName": "Рушен Мехмед Риза",
          "role": "sole_owner",
          "isCurrent": true
        }
      ]
    },
    {
      "slug": "Сбобал-2000",
      "displayName": "Сбобал 2000",
      "registeredOffice": "Варна",
      "mps": [
        {
          "mpId": 2934,
          "mpName": "Руслан Здравков Тошев",
          "role": "declared_stake",
          "isCurrent": true
        }
      ]
    },
    {
      "slug": "Светъл-Строй-ГИ",
      "displayName": "Светъл Строй ГИ",
      "registeredOffice": "БЪЛГАРИЯ, гр. Варна, 9000",
      "mps": [
        {
          "mpId": 2505,
          "mpName": "Георги Иванов Андонов",
          "role": "manager",
          "isCurrent": true
        },
        {
          "mpId": 2505,
          "mpName": "Георги Иванов Андонов",
          "role": "sole_owner",
          "isCurrent": true
        }
      ]
    }
  ]
}