{
  "ekatte": "10135",
  "page": 4,
  "totalPages": 4,
  "count": 195,
  "companies": [
    {
      "slug": "ИКО-2010",
      "displayName": "ИКО 2010",
      "registeredOffice": "Варна",
      "mps": [
        {
          "mpId": 3899,
          "mpName": "Йорданка Яникова Костадинова",
          "role": "declared_stake",
          "isCurrent": true
        }
      ]
    },
    {
      "slug": "ИКОН-ГРУП",
      "displayName": "ИКОН ГРУП",
      "registeredOffice": "БЪЛГАРИЯ, гр. Варна, 9010",
      "mps": [
        {
          "mpId": 5111,
          "mpName": "Калоян Тошков Иванов",
          "role": "partner",
          "isCurrent": true
        }
      ]
    },
    {
      "slug": "Импакт-ин",
      "displayName": "Импакт ин",
      "registeredOffice": "БЪЛГАРИЯ, гр. Варна, 9000",
      "mps": [
        {
          "mpId": 4813,
          "mpName": "Драгомир Стефанов Петров",
          "role": "manager",
          "isCurrent": true
        }
      ]
    },
    {
      "slug": "Инвест-Нова-Диджитал",
      "displayName": "Инвест Нова Диджитал",
      "registeredOffice": "БЪЛГАРИЯ, гр. Варна, 9000",
      "mps": [
        {
          "mpId": 3443,
          "mpName": "Александър Благовестов Тодоров",
          "role": "sole_owner",
          "isCurrent": true
        }
      ]
    },
    {
      "slug": "Историческо-селище-АД",
      "displayName": "Историческо селище АД",
      "registeredOffice": "ВАРНА",
      "mps": [
        {
          "mpId": 5007,
          "mpName": "Красимира Петкова Нинова-Катинчарова",
          "role": "declared_stake",
          "isCurrent": true
        }
      ]
    },
    {
      "slug": "КРИСТАЛ-2005",
      "displayName": "КРИСТАЛ 2005",
      "registeredOffice": "БЪЛГАРИЯ, гр. Варна, 9000",
      "mps": [
        {
          "mpId": 3160,
          "mpName": "Рушен Мехмед Риза",
          "role": "manager",
          "isCurrent": true
        }
      ]
    },
    {
      "slug": "ЛИМ-КОРЕКТ",
      "displayName": "ЛИМ КОРЕКТ",
      "registeredOffice": "БЪЛГАРИЯ, гр. Варна, 9000",
      "mps": [
        {
          "mpId": 860,
          "mpName": "Димитър Йорданов Атанасов",
          "role": "partner",
          "isCurrent": true
        }
      ]
    },
    {
      "slug": "Магия-Лорели",
      "displayName": "Магия-Лорели",
      "registeredOffice": "БЪЛГАРИЯ, гр. Варна, 9000",
      "mps": [
        {
          "mpId": 2759,
          "mpName": "Нели Рускова Петрова",
          "role": "manager",
          "isCurrent": true
        }
      ]
    },
    {
      "slug": "Малки-човеци-ООД",
      "displayName": "Малки човеци ООД",
      "registeredOffice": "Варна",
      "mps": [
        {
          "mpId": 4106,
          "mpName": "ИЛИНА СИМЕОНОВА МУТАФЧИЕВА",
          "role": "declared_stake",
          "isCurrent": true
        }
      ]
    },
    {
      "slug": "МДА-ИНВЕСТ",
      "displayName": "МДА ИНВЕСТ",
      "registeredOffice": "БЪЛГАРИЯ, гр. Варна, 9000",
      "mps": [
        {
          "mpId": 5071,
          "mpName": "Миролюб Адамов Адамов",
          "role": "manager",
          "isCurrent": true
        }
      ]
    },
    {
      "slug": "МЕДИЦИНСКИ-ЦЕНТЪР-МЛАДОСТ-ВАРНА",
      "displayName": "МЕДИЦИНСКИ ЦЕНТЪР МЛАДОСТ ВАРНА",
      "registeredOffice": "БЪЛГАРИЯ, гр. Варна, 9020",
      "mps": [
        {
          "mpId": 2853,
          "mpName": "Дора Стоянова Христова",
          "role": "partner",
          "isCurrent": true
        }
      ]
    },
    {
      "slug": "Народно-читалище-ТЮРКОАЗ-2025",
      "displayName": "Народно читалище ТЮРКОАЗ 2025",
      "registeredOffice": "БЪЛГАРИЯ, гр. Варна, 9000",
      "mps": [
        {
          "mpId": 5332,
          "mpName": "Месут Ердинч Рушид",
          "role": "verifier",
          "isCurrent": true
        }
      ]
    },
    {
      "slug": "Национален-съвет-движение-напред",
      "displayName": "Национален съвет движение напред",
      "registeredOffice": "БЪЛГАРИЯ, гр. Варна, 9000",
      "mps": [
        {
          "mpId": 2768,
          "mpName": "Андон Димов Дончев",
          "role": "ngo_representative",
          "isCurrent": true
        }
      ]
    },
    {
      "slug": "Национално-движение-за-гласност-и-устойчиво-развитие",
      "displayName": "Национално движение за гласност и устойчиво развитие",
      "registeredOffice": "БЪЛГАРИЯ, гр. Варна, 9000",
      "mps": [
        {
          "mpId": 2768,
          "mpName": "Андон Димов Дончев",
          "role": "ngo_representative",
          "isCurrent": true
        }
      ]
    },
    {
      "slug": "Национално-движение-за-морал-и-ред",
      "displayName": "Национално движение за морал и ред",
      "registeredOffice": "БЪЛГАРИЯ, гр. Варна, 9000",
      "mps": [
        {
          "mpId": 2768,
          "mpName": "Андон Димов Дончев",
          "role": "ngo_representative",
          "isCurrent": true
        }
      ]
    },
    {
      "slug": "НБС-ДрайвИт",
      "displayName": "НБС ДрайвИт",
      "registeredOffice": "БЪЛГАРИЯ, гр. Варна, 9000",
      "mps": [
        {
          "mpId": 4663,
          "mpName": "Александър Атанасов Александров",
          "role": "manager",
          "isCurrent": true
        }
      ]
    },
    {
      "slug": "Палачола-ООД",
      "displayName": "Палачола ООД",
      "registeredOffice": "Варна",
      "mps": [
        {
          "mpId": 3871,
          "mpName": "Николай Кръстав Костадинов",
          "role": "declared_stake",
          "isCurrent": true
        }
      ]
    },
    {
      "slug": "Поло-спорт-Варна-ЕООД",
      "displayName": "Поло спорт Варна ЕООД",
      "registeredOffice": "Варна",
      "mps": [
        {
          "mpId": 2760,
          "mpName": "Иван Димов Иванов",
          "role": "declared_stake",
          "isCurrent": true
        }
      ]
    },
    {
      "slug": "Пригрес-13-ООД",
      "displayName": "Пригрес 13 ООД",
      "registeredOffice": "Варна",
      "mps": [
        {
          "mpId": 3871,
          "mpName": "Николай Кръстав Костадинов",
          "role": "declared_stake",
          "isCurrent": true
        }
      ]
    },
    {
      "slug": "Про-Марин-14-ЕООД",
      "displayName": "Про Марин 14 ЕООД",
      "registeredOffice": "Варна",
      "mps": [
        {
          "mpId": 2768,
          "mpName": "Андон Димов Дончев",
          "role": "declared_stake",
          "isCurrent": true
        }
      ]
    },
    {
      "slug": "РЕВИЗИТ",
      "displayName": "РЕВИЗИТ",
      "registeredOffice": "БЪЛГАРИЯ, гр. Варна, 9000",
      "mps": [
        {
          "mpId": 4996,
          "mpName": "Ивайло Симеонов Костадинов",
          "role": "partner",
          "isCurrent": false
        }
      ]
    },
    {
      "slug": "Риали-Про",
      "displayName": "Риали Про",
      "registeredOffice": "БЪЛГАРИЯ, гр. Варна, 9009",
      "mps": [
        {
          "mpId": 42,
          "mpName": "Йордан Димитров Костадинов",
          "role": "manager",
          "isCurrent": true
        }
      ]
    },
    {
      "slug": "РСВ-14-ЕООД",
      "displayName": "РСВ 14 ЕООД",
      "registeredOffice": "Варна",
      "mps": [
        {
          "mpId": 2760,
          "mpName": "Иван Димов Иванов",
          "role": "declared_stake",
          "isCurrent": true
        }
      ]
    },
    {
      "slug": "С.И.КАР",
      "displayName": "С.И.КАР",
      "registeredOffice": "БЪЛГАРИЯ, гр. Варна, 9023",
      "mps": [
        {
          "mpId": 3537,
          "mpName": "Иван Йорданов Димитров",
          "role": "ngo_representative",
          "isCurrent": true
        }
      ]
    },
    {
      "slug": "СДРУЖЕНИЕ-НАЦИОНАЛНА-АСОЦИАЦИЯ-БЪЛГАРСКИ-ТРЮФЕЛ",
      "displayName": "СДРУЖЕНИЕ \"НАЦИОНАЛНА АСОЦИАЦИЯ БЪЛГАРСКИ ТРЮФЕЛ\"",
      "registeredOffice": "БЪЛГАРИЯ, гр. Варна, 9025",
      "mps": [
        {
          "mpId": 2501,
          "mpName": "Димитър Спасов Димитров",
          "role": "ngo_representative",
          "isCurrent": true
        }
      ]
    },
    {
      "slug": "СДРУЖЕНИЕ-&quot;ВАРНЕНСКА-ТУРИСТИЧЕСКА-КАМАРА&quot;",
      "displayName": "СДРУЖЕНИЕ &quot;ВАРНЕНСКА ТУРИСТИЧЕСКА КАМАРА&quot;",
      "registeredOffice": "БЪЛГАРИЯ, гр. Варна, 9000",
      "mps": [
        {
          "mpId": 5067,
          "mpName": "Илин Павлинов Димитров",
          "role": "ngo_board",
          "isCurrent": true
        }
      ]
    },
    {
      "slug": "Сдружение-&quot;Гражданско-движение-независимост&quot;",
      "displayName": "Сдружение &quot;Гражданско движение независимост&quot;",
      "registeredOffice": "БЪЛГАРИЯ, гр. Варна, 9000",
      "mps": [
        {
          "mpId": 2768,
          "mpName": "Андон Димов Дончев",
          "role": "ngo_representative",
          "isCurrent": true
        }
      ]
    },
    {
      "slug": "Сдружение-&quot;Движение-светло-бъдеще&quot;",
      "displayName": "Сдружение &quot;Движение светло бъдеще&quot;",
      "registeredOffice": "БЪЛГАРИЯ, гр. Варна, 9000",
      "mps": [
        {
          "mpId": 2768,
          "mpName": "Андон Димов Дончев",
          "role": "ngo_representative",
          "isCurrent": true
        }
      ]
    },
    {
      "slug": "Сдружение-&quot;Национален-съвет-Европа-ни-подкрепя&quot;",
      "displayName": "Сдружение &quot;Национален съвет Европа ни подкрепя&quot;",
      "registeredOffice": "БЪЛГАРИЯ, Варна, 9000",
      "mps": [
        {
          "mpId": 2768,
          "mpName": "Андон Димов Дончев",
          "role": "ngo_representative",
          "isCurrent": true
        }
      ]
    },
    {
      "slug": "Сдружиние-&quot;Коалиция-втори-юни&quot;",
      "displayName": "Сдружиние &quot;Коалиция втори юни&quot;",
      "registeredOffice": "БЪЛГАРИЯ, гр. Варна, 9000",
      "mps": [
        {
          "mpId": 2768,
          "mpName": "Андон Димов Дончев",
          "role": "ngo_representative",
          "isCurrent": true
        }
      ]
    },
    {
      "slug": "СИТИ",
      "displayName": "СИТИ",
      "registeredOffice": "БЪЛГАРИЯ, гр. Варна, 9020",
      "mps": [
        {
          "mpId": 2853,
          "mpName": "Дора Стоянова Христова",
          "role": "manager",
          "isCurrent": true
        }
      ]
    },
    {
      "slug": "СКОРПИОН-63",
      "displayName": "СКОРПИОН 63",
      "registeredOffice": "БЪЛГАРИЯ, гр. Варна, 9000",
      "mps": [
        {
          "mpId": 5121,
          "mpName": "Атанас Петров Атанасов",
          "role": "partner",
          "isCurrent": false
        }
      ]
    },
    {
      "slug": "СМАЙЛИ-ХОУМ-КАСИЕР",
      "displayName": "СМАЙЛИ ХОУМ КАСИЕР",
      "registeredOffice": "БЪЛГАРИЯ, гр. Варна, 9000",
      "mps": [
        {
          "mpId": 5113,
          "mpName": "Георги Иванов Георгиев",
          "role": "partner",
          "isCurrent": true
        }
      ]
    },
    {
      "slug": "Стар-спорт",
      "displayName": "Стар спорт",
      "registeredOffice": "Варна",
      "mps": [
        {
          "mpId": 3899,
          "mpName": "Йорданка Яникова Костадинова",
          "role": "declared_stake",
          "isCurrent": true
        }
      ]
    },
    {
      "slug": "Стария-чинар-София-ООД",
      "displayName": "Стария чинар София ООД",
      "registeredOffice": "Варна",
      "mps": [
        {
          "mpId": 2760,
          "mpName": "Иван Димов Иванов",
          "role": "declared_stake",
          "isCurrent": true
        }
      ]
    },
    {
      "slug": "СЪВМЕСТНА-ОНКОЛОГИЧНА-НАЦИОНАЛНА-МРЕЖА",
      "displayName": "СЪВМЕСТНА ОНКОЛОГИЧНА НАЦИОНАЛНА МРЕЖА",
      "registeredOffice": "БЪЛГАРИЯ, гр. Варна, 9009",
      "mps": [
        {
          "mpId": 3185,
          "mpName": "Григор Ангелов Горчев",
          "role": "ngo_board",
          "isCurrent": true
        }
      ]
    },
    {
      "slug": "УЛТРА-ВАРНА-1993",
      "displayName": "УЛТРА ВАРНА 1993",
      "registeredOffice": "БЪЛГАРИЯ, гр. Варна, 9000",
      "mps": [
        {
          "mpId": 4991,
          "mpName": "Десислав Петров Тасков",
          "role": "ngo_board",
          "isCurrent": true
        }
      ]
    },
    {
      "slug": "ФЕМИЛИ-ГАРДЪН",
      "displayName": "ФЕМИЛИ ГАРДЪН",
      "registeredOffice": "БЪЛГАРИЯ, гр. Варна, 9009",
      "mps": [
        {
          "mpId": 148,
          "mpName": "Нено Ненов Димов",
          "role": "manager",
          "isCurrent": true
        }
      ]
    },
    {
      "slug": "Хай-Уей-Спорт-ООД",
      "displayName": "Хай Уей Спорт ООД",
      "registeredOffice": "Варна",
      "mps": [
        {
          "mpId": 3725,
          "mpName": "Марин Шишев Шишев",
          "role": "declared_stake",
          "isCurrent": true
        }
      ]
    },
    {
      "slug": "ХИПО-ТРАНС",
      "displayName": "ХИПО ТРАНС",
      "registeredOffice": "БЪЛГАРИЯ, гр. Варна, 9027",
      "mps": [
        {
          "mpId": 5113,
          "mpName": "Георги Иванов Георгиев",
          "role": "director",
          "isCurrent": true
        }
      ]
    },
    {
      "slug": "ЦЕНТИФОЛИЯ",
      "displayName": "ЦЕНТИФОЛИЯ",
      "registeredOffice": "БЪЛГАРИЯ, гр. Варна, 9000",
      "mps": [
        {
          "mpId": 3725,
          "mpName": "Марин Шишев Шишев",
          "role": "manager",
          "isCurrent": true
        }
      ]
    },
    {
      "slug": "Четири-ООД",
      "displayName": "Четири ООД",
      "registeredOffice": "Варна",
      "mps": [
        {
          "mpId": 3725,
          "mpName": "Марин Шишев Шишев",
          "role": "declared_stake",
          "isCurrent": true
        }
      ]
    },
    {
      "slug": "Чинар-София-ООД",
      "displayName": "Чинар София ООД",
      "registeredOffice": "Варна",
      "mps": [
        {
          "mpId": 2760,
          "mpName": "Иван Димов Иванов",
          "role": "declared_stake",
          "isCurrent": true
        }
      ]
    },
    {
      "slug": "Чинар-хаус-ООД",
      "displayName": "Чинар хаус ООД",
      "registeredOffice": "Варна",
      "mps": [
        {
          "mpId": 2760,
          "mpName": "Иван Димов Иванов",
          "role": "declared_stake",
          "isCurrent": true
        }
      ]
    },
    {
      "slug": "Чифлика-БГ-ООД",
      "displayName": "Чифлика БГ ООД",
      "registeredOffice": "Варна",
      "mps": [
        {
          "mpId": 3871,
          "mpName": "Николай Кръстав Костадинов",
          "role": "declared_stake",
          "isCurrent": true
        }
      ]
    }
  ]
}