{
  "ekatte": "10135",
  "page": 1,
  "totalPages": 4,
  "count": 195,
  "companies": [
    {
      "slug": "Наба-Йистгруп-ООД",
      "displayName": "Наба Йистгруп ООД",
      "registeredOffice": "Варна",
      "mps": [
        {
          "mpId": 4734,
          "mpName": "Бранимир Николаев Балачев",
          "role": "partner",
          "isCurrent": true
        },
        {
          "mpId": 4734,
          "mpName": "Бранимир Николаев Балачев",
          "role": "declared_stake",
          "isCurrent": true
        }
      ]
    },
    {
      "slug": "Наба-Геймс-ООД",
      "displayName": "Наба Геймс ООД",
      "registeredOffice": "Варна",
      "mps": [
        {
          "mpId": 4734,
          "mpName": "Бранимир Николаев Балачев",
          "role": "declared_stake",
          "isCurrent": true
        }
      ]
    },
    {
      "slug": "Наба-Електроник-ООД",
      "displayName": "Наба Електроник ООД",
      "registeredOffice": "Варна",
      "mps": [
        {
          "mpId": 4734,
          "mpName": "Бранимир Николаев Балачев",
          "role": "declared_stake",
          "isCurrent": true
        }
      ]
    },
    {
      "slug": "Брадърс-Трейд-Тим-ООД",
      "displayName": "Брадърс Трейд Тим ООД",
      "registeredOffice": "Варна",
      "mps": [
        {
          "mpId": 4734,
          "mpName": "Бранимир Николаев Балачев",
          "role": "declared_stake",
          "isCurrent": true
        }
      ]
    },
    {
      "slug": "Горичански-път-ООД",
      "displayName": "Горичански път ООД",
      "registeredOffice": "ВАРНА",
      "mps": [
        {
          "mpId": 4190,
          "mpName": "КАЛОЯН ТОНЕВ ИКОНОМОВ",
          "role": "declared_stake",
          "isCurrent": true
        }
      ]
    },
    {
      "slug": "Жидимекс-Акаунтинг-ООД",
      "displayName": "Жидимекс Акаунтинг ООД",
      "registeredOffice": "Варна",
      "mps": [
        {
          "mpId": 3415,
          "mpName": "Живка Михалева Железова",
          "role": "manager",
          "isCurrent": true
        },
        {
          "mpId": 3415,
          "mpName": "Живка Михалева Железова",
          "role": "partner",
          "isCurrent": true
        },
        {
          "mpId": 3415,
          "mpName": "Живка Михалева Железова",
          "role": "declared_stake",
          "isCurrent": true
        }
      ]
    },
    {
      "slug": "Жидимекс-ООД",
      "displayName": "Жидимекс ООД",
      "registeredOffice": "Варна",
      "mps": [
        {
          "mpId": 3415,
          "mpName": "Живка Михалева Железова",
          "role": "manager",
          "isCurrent": true
        },
        {
          "mpId": 3415,
          "mpName": "Живка Михалева Железова",
          "role": "partner",
          "isCurrent": true
        },
        {
          "mpId": 3415,
          "mpName": "Живка Михалева Железова",
          "role": "declared_stake",
          "isCurrent": true
        }
      ]
    },
    {
      "slug": "Минерва-БГ-ООД",
      "displayName": "Минерва БГ ООД",
      "registeredOffice": "Варна",
      "mps": [
        {
          "mpId": 4738,
          "mpName": "Борислав Гуцанов Гуцанов",
          "role": "declared_stake",
          "isCurrent": true
        }
      ]
    },
    {
      "slug": "Перинея-ООД",
      "displayName": "Перинея ООД",
      "registeredOffice": "ВАРНА",
      "mps": [
        {
          "mpId": 4190,
          "mpName": "КАЛОЯН ТОНЕВ ИКОНОМОВ",
          "role": "declared_stake",
          "isCurrent": true
        }
      ]
    },
    {
      "slug": "Перинея-Балчик-ООД",
      "displayName": "Перинея-Балчик ООД",
      "registeredOffice": "ВАРНА",
      "mps": [
        {
          "mpId": 4190,
          "mpName": "КАЛОЯН ТОНЕВ ИКОНОМОВ",
          "role": "declared_stake",
          "isCurrent": true
        }
      ]
    },
    {
      "slug": "Приз-Комерс-ООД",
      "displayName": "Приз Комерс ООД",
      "registeredOffice": "Варна",
      "mps": [
        {
          "mpId": 4734,
          "mpName": "Бранимир Николаев Балачев",
          "role": "declared_stake",
          "isCurrent": true
        }
      ]
    },
    {
      "slug": "Факла-ЕАД",
      "displayName": "Факла ЕАД",
      "registeredOffice": "ВАРНА",
      "mps": [
        {
          "mpId": 5006,
          "mpName": "Ивелин Людмилов Михайлов",
          "role": "director",
          "isCurrent": true
        },
        {
          "mpId": 5006,
          "mpName": "Ивелин Людмилов Михайлов",
          "role": "actual_owner",
          "isCurrent": true
        },
        {
          "mpId": 5006,
          "mpName": "Ивелин Людмилов Михайлов",
          "role": "representative",
          "isCurrent": false
        },
        {
          "mpId": 5006,
          "mpName": "Ивелин Людмилов Михайлов",
          "role": "sole_owner",
          "isCurrent": false
        },
        {
          "mpId": 5007,
          "mpName": "Красимира Петкова Нинова-Катинчарова",
          "role": "declared_stake",
          "isCurrent": true
        }
      ]
    },
    {
      "slug": "Тризнаци",
      "displayName": "\"Тризнаци\"",
      "registeredOffice": "Варна",
      "mps": [
        {
          "mpId": 3373,
          "mpName": "Тодор Стаматов Тодоров",
          "role": "declared_stake",
          "isCurrent": true
        }
      ]
    },
    {
      "slug": "БЛЯК-СИЙ-СЪРВИСЕС",
      "displayName": "БЛЯК СИЙ СЪРВИСЕС",
      "registeredOffice": "БЪЛГАРИЯ, гр. Варна, 9000",
      "mps": [
        {
          "mpId": 3565,
          "mpName": "Благовест Чанев Белев",
          "role": "liquidator",
          "isCurrent": true
        },
        {
          "mpId": 3565,
          "mpName": "Благовест Чанев Белев",
          "role": "manager",
          "isCurrent": true
        },
        {
          "mpId": 3565,
          "mpName": "Благовест Чанев Белев",
          "role": "sole_owner",
          "isCurrent": true
        },
        {
          "mpId": 3565,
          "mpName": "Благовест Чанев Белев",
          "role": "partner",
          "isCurrent": false
        }
      ]
    },
    {
      "slug": "ВЕРНИТЕ-ПРИЯТЕЛИ-95",
      "displayName": "ВЕРНИТЕ ПРИЯТЕЛИ 95",
      "registeredOffice": "БЪЛГАРИЯ, гр. Варна, 9000",
      "mps": [
        {
          "mpId": 2528,
          "mpName": "Георги Недков Кючуков",
          "role": "ngo_representative",
          "isCurrent": true
        },
        {
          "mpId": 2528,
          "mpName": "Георги Недков Кючуков",
          "role": "ngo_board",
          "isCurrent": true
        },
        {
          "mpId": 5329,
          "mpName": "Юлиан Георгиев Димитров",
          "role": "ngo_representative",
          "isCurrent": true
        },
        {
          "mpId": 5329,
          "mpName": "Юлиан Георгиев Димитров",
          "role": "ngo_board",
          "isCurrent": true
        }
      ]
    },
    {
      "slug": "Вешев-ЕООД",
      "displayName": "Вешев ЕООД",
      "registeredOffice": "Варна",
      "mps": [
        {
          "mpId": 4887,
          "mpName": "Веселин Миленов Вешев",
          "role": "sole_owner",
          "isCurrent": true
        },
        {
          "mpId": 4887,
          "mpName": "Веселин Миленов Вешев",
          "role": "declared_stake",
          "isCurrent": true
        }
      ]
    },
    {
      "slug": "Дарба-Бъдеще",
      "displayName": "Дарба Бъдеще",
      "registeredOffice": "Варна",
      "mps": [
        {
          "mpId": 5258,
          "mpName": "Костадин Тодоров Костадинов",
          "role": "declared_stake",
          "isCurrent": true
        }
      ]
    },
    {
      "slug": "Лоза-БГ",
      "displayName": "Лоза БГ",
      "registeredOffice": "Варна",
      "mps": [
        {
          "mpId": 4732,
          "mpName": "Даниел Максим Лорер",
          "role": "sole_owner",
          "isCurrent": true
        },
        {
          "mpId": 4732,
          "mpName": "Даниел Максим Лорер",
          "role": "declared_stake",
          "isCurrent": true
        }
      ]
    },
    {
      "slug": "ТСМ-Инвест-2018",
      "displayName": "ТСМ Инвест 2018",
      "registeredOffice": "Варна",
      "mps": [
        {
          "mpId": 4147,
          "mpName": "СЛАВЕНА ДИМИТРОВА ТОЧЕВА",
          "role": "declared_stake",
          "isCurrent": true
        }
      ]
    },
    {
      "slug": "Аарон-ООД",
      "displayName": "Аарон ООД",
      "registeredOffice": "Русе",
      "mps": [
        {
          "mpId": 3914,
          "mpName": "Инна Владимирова Иванова",
          "role": "declared_stake",
          "isCurrent": true
        }
      ]
    },
    {
      "slug": "АБА-Контакт",
      "displayName": "АБА Контакт",
      "registeredOffice": "БЪЛГАРИЯ, гр. Варна, 9000",
      "mps": [
        {
          "mpId": 1706,
          "mpName": "Хами Ибрахимов Хамиев",
          "role": "sole_owner",
          "isCurrent": true
        },
        {
          "mpId": 1706,
          "mpName": "Хами Ибрахимов Хамиев",
          "role": "manager",
          "isCurrent": true
        },
        {
          "mpId": 1706,
          "mpName": "Хами Ибрахимов Хамиев",
          "role": "partner",
          "isCurrent": false
        }
      ]
    },
    {
      "slug": "Варна-стар-ООД",
      "displayName": "Варна стар ООД",
      "registeredOffice": "Варна",
      "mps": [
        {
          "mpId": 2679,
          "mpName": "Боряна Любенова Георгиева",
          "role": "declared_stake",
          "isCurrent": true
        }
      ]
    },
    {
      "slug": "Плодекс-ЕООД",
      "displayName": "Плодекс ЕООД",
      "registeredOffice": "Варна",
      "mps": [
        {
          "mpId": 2768,
          "mpName": "Андон Димов Дончев",
          "role": "manager",
          "isCurrent": true
        },
        {
          "mpId": 2768,
          "mpName": "Андон Димов Дончев",
          "role": "partner",
          "isCurrent": true
        },
        {
          "mpId": 2768,
          "mpName": "Андон Димов Дончев",
          "role": "declared_stake",
          "isCurrent": true
        }
      ]
    },
    {
      "slug": "Т-логистик-ООД",
      "displayName": "Т логистик ООД",
      "registeredOffice": "Варна",
      "mps": [
        {
          "mpId": 3871,
          "mpName": "Николай Кръстев Костадинов",
          "role": "manager",
          "isCurrent": true
        },
        {
          "mpId": 3871,
          "mpName": "Николай Кръстев Костадинов",
          "role": "partner",
          "isCurrent": true
        },
        {
          "mpId": 3871,
          "mpName": "Николай Кръстав Костадинов",
          "role": "declared_stake",
          "isCurrent": true
        }
      ]
    },
    {
      "slug": "Чан-2013-ООД",
      "displayName": "Чан 2013 ООД",
      "registeredOffice": "Варна",
      "mps": [
        {
          "mpId": 4887,
          "mpName": "Веселин Миленов Вешев",
          "role": "declared_stake",
          "isCurrent": true
        }
      ]
    },
    {
      "slug": "Вива-РА-ООД",
      "displayName": "\"Вива РА\" ООД",
      "registeredOffice": "Варна",
      "mps": [
        {
          "mpId": 3443,
          "mpName": "Александър Благовестов Тодоров",
          "role": "declared_stake",
          "isCurrent": true
        }
      ]
    },
    {
      "slug": "Инвест-солар-груп-ООД",
      "displayName": "\"Инвест солар груп\" ООД",
      "registeredOffice": "Варна",
      "mps": [
        {
          "mpId": 3443,
          "mpName": "Александър Благовестов Тодоров",
          "role": "declared_stake",
          "isCurrent": true
        }
      ]
    },
    {
      "slug": "Моят-спорт-ООД",
      "displayName": "\"Моят спорт\" ООД",
      "registeredOffice": "Варна",
      "mps": [
        {
          "mpId": 3443,
          "mpName": "Александър Благовестов Тодоров",
          "role": "declared_stake",
          "isCurrent": true
        }
      ]
    },
    {
      "slug": "Ник-консулт-2016-ЕООД",
      "displayName": "\"Ник консулт 2016\" ЕООД",
      "registeredOffice": "Варна",
      "mps": [
        {
          "mpId": 4384,
          "mpName": "Милена Славова Димова",
          "role": "declared_stake",
          "isCurrent": true
        }
      ]
    },
    {
      "slug": "Театро-варна-ООД",
      "displayName": "\"Театро варна\" ООД",
      "registeredOffice": "Варна",
      "mps": [
        {
          "mpId": 3026,
          "mpName": "Антон Йорданов Адамов",
          "role": "partner",
          "isCurrent": true
        },
        {
          "mpId": 3026,
          "mpName": "Антон Йорданов Адамов",
          "role": "declared_stake",
          "isCurrent": true
        }
      ]
    },
    {
      "slug": "&quot;СДРУЖЕНИЕ-АВТОМОБИЛЕН-СПОРТЕН-КЛУБ-ВАРНА-РЕЙСИНГ&quot;",
      "displayName": "&quot;СДРУЖЕНИЕ АВТОМОБИЛЕН СПОРТЕН КЛУБ ВАРНА РЕЙСИНГ&quot;",
      "registeredOffice": "БЪЛГАРИЯ, Варна, 9020",
      "mps": [
        {
          "mpId": 2679,
          "mpName": "Боряна Любенова Георгиева",
          "role": "ngo_representative",
          "isCurrent": true
        },
        {
          "mpId": 2679,
          "mpName": "Боряна Любенова Георгиева",
          "role": "ngo_board",
          "isCurrent": true
        }
      ]
    },
    {
      "slug": "Адв.дружество-Балачев-и-Ко",
      "displayName": "Адв.дружество Балачев и Ко",
      "registeredOffice": "Варна",
      "mps": [
        {
          "mpId": 4734,
          "mpName": "Бранимир Николаев Балачев",
          "role": "declared_stake",
          "isCurrent": true
        }
      ]
    },
    {
      "slug": "Адвокатско-друество-Балачев-и-Ко",
      "displayName": "Адвокатско друество Балачев и Ко",
      "registeredOffice": "Варна",
      "mps": [
        {
          "mpId": 4734,
          "mpName": "Бранимир Николаев Балачев",
          "role": "declared_stake",
          "isCurrent": true
        }
      ]
    },
    {
      "slug": "Адвокатско-дружество-Балачев-и-Ко",
      "displayName": "Адвокатско дружество Балачев и Ко",
      "registeredOffice": "Варна",
      "mps": [
        {
          "mpId": 4734,
          "mpName": "Бранимир Николаев Балачев",
          "role": "declared_stake",
          "isCurrent": true
        }
      ]
    },
    {
      "slug": "АМБУЛАТОРИЯ-ЗА-СПЕЦИАЛИЗИРАНА-МЕДИЦИНСКА-ПОМОЩ-МЕДИЦИНСКИ-ЦЕНТЪР-МЕДЕКСПРЕС-2022",
      "displayName": "АМБУЛАТОРИЯ ЗА СПЕЦИАЛИЗИРАНА МЕДИЦИНСКА ПОМОЩ-МЕДИЦИНСКИ ЦЕНТЪР МЕДЕКСПРЕС 2022",
      "registeredOffice": "БЪЛГАРИЯ, гр. Варна, 9000",
      "mps": [
        {
          "mpId": 5009,
          "mpName": "Любиша   Блажевски",
          "role": "partner",
          "isCurrent": true
        },
        {
          "mpId": 5009,
          "mpName": "Любиша   Блажевски",
          "role": "manager",
          "isCurrent": true
        }
      ]
    },
    {
      "slug": "АПТА-Ко.",
      "displayName": "АПТА Ко.",
      "registeredOffice": "БЪЛГАРИЯ, гр. Варна, 9000",
      "mps": [
        {
          "mpId": 4632,
          "mpName": "Павел Алексеев Христов",
          "role": "manager",
          "isCurrent": true
        },
        {
          "mpId": 4632,
          "mpName": "Павел Алексеев Христов",
          "role": "partner",
          "isCurrent": true
        }
      ]
    },
    {
      "slug": "АСОЦИАЦИЯ-ЗА-ДЕЦА-И-ЛИЦА-С-УВРЕЖДАНИЯ-СВ.ЙОАН-ЗЛАТОУСТ",
      "displayName": "АСОЦИАЦИЯ ЗА ДЕЦА И ЛИЦА С УВРЕЖДАНИЯ СВ.ЙОАН ЗЛАТОУСТ",
      "registeredOffice": "БЪЛГАРИЯ, гр. Варна, 9000",
      "mps": [
        {
          "mpId": 3308,
          "mpName": "Галина Иванчева Димитрова",
          "role": "ngo_representative",
          "isCurrent": true
        },
        {
          "mpId": 3308,
          "mpName": "Галина Иванчева Димитрова",
          "role": "ngo_board",
          "isCurrent": true
        }
      ]
    },
    {
      "slug": "АУТО-КОРЕКТ-ПАРК-2009",
      "displayName": "АУТО КОРЕКТ ПАРК 2009",
      "registeredOffice": "БЪЛГАРИЯ, гр. Варна, 9010",
      "mps": [
        {
          "mpId": 3537,
          "mpName": "Иван Йорданов Димитров",
          "role": "manager",
          "isCurrent": true
        },
        {
          "mpId": 3537,
          "mpName": "Иван Йорданов Димитров",
          "role": "partner",
          "isCurrent": true
        }
      ]
    },
    {
      "slug": "Бандитс-ООД",
      "displayName": "Бандитс ООД",
      "registeredOffice": "Варна",
      "mps": [
        {
          "mpId": 3871,
          "mpName": "Николай Кръстев Костадинов",
          "role": "partner",
          "isCurrent": true
        },
        {
          "mpId": 3871,
          "mpName": "Николай Кръстав Костадинов",
          "role": "declared_stake",
          "isCurrent": true
        }
      ]
    },
    {
      "slug": "БЕСТМАГ",
      "displayName": "БЕСТМАГ",
      "registeredOffice": "БЪЛГАРИЯ, гр. Варна, 9000",
      "mps": [
        {
          "mpId": 5113,
          "mpName": "Георги Иванов Георгиев",
          "role": "manager",
          "isCurrent": true
        },
        {
          "mpId": 5113,
          "mpName": "Георги Иванов Георгиев",
          "role": "sole_owner",
          "isCurrent": true
        }
      ]
    },
    {
      "slug": "БЕТЪР-ДИСТРИБЮШЪНС",
      "displayName": "БЕТЪР ДИСТРИБЮШЪНС",
      "registeredOffice": "БЪЛГАРИЯ, гр. Варна, 9010",
      "mps": [
        {
          "mpId": 3725,
          "mpName": "Марин Шишев Шишев",
          "role": "partner",
          "isCurrent": true
        },
        {
          "mpId": 3725,
          "mpName": "Марин Шишев Шишев",
          "role": "manager",
          "isCurrent": true
        }
      ]
    },
    {
      "slug": "БМВ-ИНВЕСТ",
      "displayName": "БМВ ИНВЕСТ",
      "registeredOffice": "БЪЛГАРИЯ, гр. Варна, 9004",
      "mps": [
        {
          "mpId": 2679,
          "mpName": "Боряна Любенова Георгиева",
          "role": "partner",
          "isCurrent": true
        },
        {
          "mpId": 2679,
          "mpName": "Боряна Любенова Георгиева",
          "role": "manager",
          "isCurrent": true
        }
      ]
    },
    {
      "slug": "Бургас-Петролеум-Трейд-ЕООД",
      "displayName": "Бургас Петролеум Трейд ЕООД",
      "registeredOffice": "Варна",
      "mps": [
        {
          "mpId": 2659,
          "mpName": "Гергана Желязкова Стефанова",
          "role": "declared_stake",
          "isCurrent": true
        }
      ]
    },
    {
      "slug": "ВЕИЙП-2024",
      "displayName": "ВЕИЙП-2024",
      "registeredOffice": "БЪЛГАРИЯ, гр. Варна, 9000",
      "mps": [
        {
          "mpId": 5113,
          "mpName": "Георги Иванов Георгиев",
          "role": "manager",
          "isCurrent": true
        },
        {
          "mpId": 5113,
          "mpName": "Георги Иванов Георгиев",
          "role": "partner",
          "isCurrent": true
        }
      ]
    },
    {
      "slug": "ВЕЛДАР-КЕРАМИКС",
      "displayName": "ВЕЛДАР КЕРАМИКС",
      "registeredOffice": "БЪЛГАРИЯ, гр. Варна, 9000",
      "mps": [
        {
          "mpId": 5121,
          "mpName": "Атанас Петров Атанасов",
          "role": "manager",
          "isCurrent": true
        },
        {
          "mpId": 5121,
          "mpName": "Атанас Петров Атанасов",
          "role": "sole_owner",
          "isCurrent": true
        }
      ]
    },
    {
      "slug": "Витагер-ЕООД",
      "displayName": "Витагер ЕООД",
      "registeredOffice": "Варна",
      "mps": [
        {
          "mpId": 2659,
          "mpName": "Гергана Желязкова Стефанова",
          "role": "declared_stake",
          "isCurrent": true
        }
      ]
    },
    {
      "slug": "ВМ-Имоти-2015-ООД",
      "displayName": "ВМ Имоти 2015 ООД",
      "registeredOffice": "Варна",
      "mps": [
        {
          "mpId": 2706,
          "mpName": "Веселин Найденов Марешки",
          "role": "declared_stake",
          "isCurrent": true
        }
      ]
    },
    {
      "slug": "ВМ-Ойл-ООД",
      "displayName": "ВМ Ойл ООД",
      "registeredOffice": "Варна",
      "mps": [
        {
          "mpId": 2706,
          "mpName": "Веселин Найденов Марешки",
          "role": "declared_stake",
          "isCurrent": true
        }
      ]
    },
    {
      "slug": "ВМ-Петролеум-ООД",
      "displayName": "ВМ Петролеум ООД",
      "registeredOffice": "Варна",
      "mps": [
        {
          "mpId": 2706,
          "mpName": "Веселин Найденов Марешки",
          "role": "declared_stake",
          "isCurrent": true
        }
      ]
    },
    {
      "slug": "ГЕОРГИ-ГУМАТА-77",
      "displayName": "ГЕОРГИ ГУМАТА 77",
      "registeredOffice": "БЪЛГАРИЯ, гр. Варна, 9000",
      "mps": [
        {
          "mpId": 2522,
          "mpName": "Георги Николов Недев",
          "role": "manager",
          "isCurrent": true
        },
        {
          "mpId": 2522,
          "mpName": "Георги Николов Недев",
          "role": "sole_owner",
          "isCurrent": true
        }
      ]
    }
  ]
}