{
  "ekatte": "10135",
  "page": 3,
  "totalPages": 4,
  "count": 195,
  "companies": [
    {
      "slug": "СДРУЖЕНИЕ-&quot;ФУТБОЛЕН-КЛУБ-ЧЕРНО-МОРЕ&quot;",
      "displayName": "СДРУЖЕНИЕ &quot;ФУТБОЛЕН КЛУБ-ЧЕРНО МОРЕ&quot;",
      "registeredOffice": "БЪЛГАРИЯ, Варна, 9002",
      "mps": [
        {
          "mpId": 4778,
          "mpName": "Красен Кирилов Кралев",
          "role": "ngo_board",
          "isCurrent": true
        },
        {
          "mpId": 4778,
          "mpName": "Красен Кирилов Кралев",
          "role": "ngo_representative",
          "isCurrent": true
        }
      ]
    },
    {
      "slug": "СИГДА-ИНВЕСТМЪНТ",
      "displayName": "СИГДА ИНВЕСТМЪНТ",
      "registeredOffice": "БЪЛГАРИЯ, гр. Варна, 9000",
      "mps": [
        {
          "mpId": 902,
          "mpName": "Ахмед Демир Доган",
          "role": "actual_owner",
          "isCurrent": true
        },
        {
          "mpId": 902,
          "mpName": "Ахмед Демир Доган",
          "role": "director",
          "isCurrent": true
        }
      ]
    },
    {
      "slug": "Сити-ООД",
      "displayName": "Сити ООД",
      "registeredOffice": "Варна",
      "mps": [
        {
          "mpId": 2706,
          "mpName": "Веселин Найденов Марешки",
          "role": "declared_stake",
          "isCurrent": true
        }
      ]
    },
    {
      "slug": "СМАРТМАГ",
      "displayName": "СМАРТМАГ",
      "registeredOffice": "БЪЛГАРИЯ, гр. Варна, 9000",
      "mps": [
        {
          "mpId": 5113,
          "mpName": "Георги Иванов Георгиев",
          "role": "manager",
          "isCurrent": true
        },
        {
          "mpId": 5113,
          "mpName": "Георги Иванов Георгиев",
          "role": "sole_owner",
          "isCurrent": true
        }
      ]
    },
    {
      "slug": "СНД-ПРОДЖЕКТ",
      "displayName": "СНД ПРОДЖЕКТ",
      "registeredOffice": "БЪЛГАРИЯ, гр. Варна, 9009",
      "mps": [
        {
          "mpId": 2444,
          "mpName": "Илия Янков Илиев",
          "role": "manager",
          "isCurrent": true
        },
        {
          "mpId": 2444,
          "mpName": "Илия Янков Илиев",
          "role": "partner",
          "isCurrent": true
        }
      ]
    },
    {
      "slug": "СП-КОНСУЛТ-БГ",
      "displayName": "СП КОНСУЛТ БГ",
      "registeredOffice": "БЪЛГАРИЯ, гр. Варна, 9006",
      "mps": [
        {
          "mpId": 2757,
          "mpName": "Стоян Христов Пасев",
          "role": "manager",
          "isCurrent": true
        },
        {
          "mpId": 2757,
          "mpName": "Стоян Христов Пасев",
          "role": "sole_owner",
          "isCurrent": true
        }
      ]
    },
    {
      "slug": "СПАСОВ-СТРОЙ-74",
      "displayName": "СПАСОВ СТРОЙ 74",
      "registeredOffice": "БЪЛГАРИЯ, гр. Варна, 9000",
      "mps": [
        {
          "mpId": 237,
          "mpName": "Светослав Иванов Спасов",
          "role": "manager",
          "isCurrent": true
        },
        {
          "mpId": 237,
          "mpName": "Светослав Иванов Спасов",
          "role": "sole_owner",
          "isCurrent": true
        }
      ]
    },
    {
      "slug": "Спорт-Баланс-91",
      "displayName": "Спорт Баланс 91",
      "registeredOffice": "БЪЛГАРИЯ, гр. Варна, 9022",
      "mps": [
        {
          "mpId": 42,
          "mpName": "Йордан Димитров Костадинов",
          "role": "manager",
          "isCurrent": true
        },
        {
          "mpId": 42,
          "mpName": "Йордан Димитров Костадинов",
          "role": "sole_owner",
          "isCurrent": true
        }
      ]
    },
    {
      "slug": "Стар-Фокс-Тийм-ЕООД",
      "displayName": "Стар Фокс Тийм ЕООД",
      "registeredOffice": "Варна",
      "mps": [
        {
          "mpId": 5067,
          "mpName": "ИЛИН ПАВЛИНОВ ДИМИТРОВ",
          "role": "declared_stake",
          "isCurrent": true
        }
      ]
    },
    {
      "slug": "СЪН-УОШ",
      "displayName": "СЪН УОШ",
      "registeredOffice": "БЪЛГАРИЯ, гр. Варна, 9004",
      "mps": [
        {
          "mpId": 2679,
          "mpName": "Боряна Любенова Георгиева",
          "role": "manager",
          "isCurrent": true
        },
        {
          "mpId": 2679,
          "mpName": "Боряна Любенова Георгиева",
          "role": "sole_owner",
          "isCurrent": true
        }
      ]
    },
    {
      "slug": "Съюз-за-гражданско-общество",
      "displayName": "Съюз за гражданско общество",
      "registeredOffice": "БЪЛГАРИЯ, гр. Варна, 9000",
      "mps": [
        {
          "mpId": 2768,
          "mpName": "Андон Димов Дончев",
          "role": "ngo_representative",
          "isCurrent": true
        },
        {
          "mpId": 2768,
          "mpName": "Андон Димов Дончев",
          "role": "ngo_board",
          "isCurrent": true
        }
      ]
    },
    {
      "slug": "ТЕКСЛАБ",
      "displayName": "ТЕКСЛАБ",
      "registeredOffice": "БЪЛГАРИЯ, гр. Варна, 9023",
      "mps": [
        {
          "mpId": 5113,
          "mpName": "Георги Иванов Георгиев",
          "role": "sole_owner",
          "isCurrent": true
        },
        {
          "mpId": 5113,
          "mpName": "Георги Иванов Георгиев",
          "role": "manager",
          "isCurrent": true
        }
      ]
    },
    {
      "slug": "ТЕХНОПЛЕЙС-7",
      "displayName": "ТЕХНОПЛЕЙС 7",
      "registeredOffice": "БЪЛГАРИЯ, гр. Варна, 9000",
      "mps": [
        {
          "mpId": 5113,
          "mpName": "Георги Иванов Георгиев",
          "role": "manager",
          "isCurrent": true
        },
        {
          "mpId": 5113,
          "mpName": "Георги Иванов Георгиев",
          "role": "sole_owner",
          "isCurrent": true
        }
      ]
    },
    {
      "slug": "УНИ-ЕЛЕКТРИК",
      "displayName": "УНИ ЕЛЕКТРИК",
      "registeredOffice": "БЪЛГАРИЯ, гр. Варна, 9000",
      "mps": [
        {
          "mpId": 940,
          "mpName": "Ивелин Николаев Николов",
          "role": "manager",
          "isCurrent": true
        },
        {
          "mpId": 940,
          "mpName": "Ивелин Николаев Николов",
          "role": "sole_owner",
          "isCurrent": true
        }
      ]
    },
    {
      "slug": "ФАСТ-ЧАРДЖИНГ",
      "displayName": "ФАСТ ЧАРДЖИНГ",
      "registeredOffice": "БЪЛГАРИЯ, гр. Варна, 9023",
      "mps": [
        {
          "mpId": 5113,
          "mpName": "Георги Иванов Георгиев",
          "role": "actual_owner",
          "isCurrent": true
        },
        {
          "mpId": 5113,
          "mpName": "Георги Иванов Георгиев",
          "role": "manager",
          "isCurrent": true
        }
      ]
    },
    {
      "slug": "Чинар-Варна-ЕООД",
      "displayName": "Чинар Варна ЕООД",
      "registeredOffice": "Варна",
      "mps": [
        {
          "mpId": 2760,
          "mpName": "Иван Димов Иванов",
          "role": "declared_stake",
          "isCurrent": true
        }
      ]
    },
    {
      "slug": "Чинар-Дондуков-ООД",
      "displayName": "Чинар Дондуков ООД",
      "registeredOffice": "Варна",
      "mps": [
        {
          "mpId": 2760,
          "mpName": "Иван Димов Иванов",
          "role": "declared_stake",
          "isCurrent": true
        }
      ]
    },
    {
      "slug": "ЧИФЛИКА-БГ-23",
      "displayName": "ЧИФЛИКА БГ 23",
      "registeredOffice": "БЪЛГАРИЯ, гр. Варна, 9000",
      "mps": [
        {
          "mpId": 3871,
          "mpName": "Николай Кръстев Костадинов",
          "role": "partner",
          "isCurrent": true
        },
        {
          "mpId": 3871,
          "mpName": "Николай Кръстев Костадинов",
          "role": "manager",
          "isCurrent": true
        }
      ]
    },
    {
      "slug": "Вилидж-Фрутс",
      "displayName": "\"Вилидж Фрутс\"",
      "registeredOffice": "Варна",
      "mps": [
        {
          "mpId": 3373,
          "mpName": "Тодор Стаматов Тодоров",
          "role": "declared_stake",
          "isCurrent": true
        }
      ]
    },
    {
      "slug": "АГЕНЦИЯ-УЧИЛИЩЕ-21-ВИ-ВЕК",
      "displayName": "АГЕНЦИЯ-УЧИЛИЩЕ 21-ВИ ВЕК",
      "registeredOffice": "БЪЛГАРИЯ, гр. Варна, 9000",
      "mps": [
        {
          "mpId": 585,
          "mpName": "Димитър Иванов Стефанов",
          "role": "ngo_board",
          "isCurrent": true
        }
      ]
    },
    {
      "slug": "АКЕБИЯ-АМ",
      "displayName": "АКЕБИЯ - АМ",
      "registeredOffice": "БЪЛГАРИЯ, гр. Варна, 9010",
      "mps": [
        {
          "mpId": 5098,
          "mpName": "Стоян Тонев Петров",
          "role": "director",
          "isCurrent": true
        }
      ]
    },
    {
      "slug": "Алпина-фармъси-ООД",
      "displayName": "Алпина фармъси ООД",
      "registeredOffice": "Варна",
      "mps": [
        {
          "mpId": 2760,
          "mpName": "Иван Димов Иванов",
          "role": "declared_stake",
          "isCurrent": true
        }
      ]
    },
    {
      "slug": "БЕРИЯ",
      "displayName": "БЕРИЯ",
      "registeredOffice": "БЪЛГАРИЯ, гр. Варна, 9000",
      "mps": [
        {
          "mpId": 5006,
          "mpName": "Ивелин Людмилов Михайлов",
          "role": "manager",
          "isCurrent": true
        }
      ]
    },
    {
      "slug": "Бета-Фонд",
      "displayName": "Бета Фонд",
      "registeredOffice": "БЪЛГАРИЯ, гр. Варна, 9000",
      "mps": [
        {
          "mpId": 5066,
          "mpName": "Георги Петков Илиев",
          "role": "director",
          "isCurrent": true
        }
      ]
    },
    {
      "slug": "Битов-ресторант-ООД",
      "displayName": "Битов ресторант ООД",
      "registeredOffice": "Варна",
      "mps": [
        {
          "mpId": 2760,
          "mpName": "Иван Димов Иванов",
          "role": "declared_stake",
          "isCurrent": true
        }
      ]
    },
    {
      "slug": "Болярски-ДОМ-АД",
      "displayName": "Болярски ДОМ АД",
      "registeredOffice": "ВАРНА",
      "mps": [
        {
          "mpId": 5007,
          "mpName": "Красимира Петкова Нинова-Катинчарова",
          "role": "declared_stake",
          "isCurrent": true
        }
      ]
    },
    {
      "slug": "Бъдеще-за-нашите-деца",
      "displayName": "Бъдеще за нашите деца",
      "registeredOffice": "БЪЛГАРИЯ, гр. Варна, 9000",
      "mps": [
        {
          "mpId": 2768,
          "mpName": "Андон Димов Дончев",
          "role": "ngo_representative",
          "isCurrent": true
        }
      ]
    },
    {
      "slug": "БЪЛГАРСКА-АСОЦИАЦИЯ-НА-КОРАБНИТЕ-СНАБДИТЕЛИ",
      "displayName": "БЪЛГАРСКА АСОЦИАЦИЯ НА КОРАБНИТЕ СНАБДИТЕЛИ",
      "registeredOffice": "БЪЛГАРИЯ, гр. Варна, 9000",
      "mps": [
        {
          "mpId": 4663,
          "mpName": "Александър Атанасов Александров",
          "role": "ngo_representative",
          "isCurrent": true
        }
      ]
    },
    {
      "slug": "БЪЛГАРСКА-МОРСКА-КАМАРА",
      "displayName": "БЪЛГАРСКА МОРСКА КАМАРА",
      "registeredOffice": "БЪЛГАРИЯ, гр. Варна, 9000",
      "mps": [
        {
          "mpId": 867,
          "mpName": "Свилен Николов Крайчев",
          "role": "ngo_board",
          "isCurrent": true
        }
      ]
    },
    {
      "slug": "Величие-АД",
      "displayName": "Величие АД",
      "registeredOffice": "Варна",
      "mps": [
        {
          "mpId": 5007,
          "mpName": "Красимира Петкова Нинова-Катинчарова",
          "role": "declared_stake",
          "isCurrent": true
        }
      ]
    },
    {
      "slug": "Ви-Ем-Ойл-ООД",
      "displayName": "Ви Ем Ойл ООД",
      "registeredOffice": "Варна",
      "mps": [
        {
          "mpId": 2977,
          "mpName": "Елена Владимирова Ангелинина",
          "role": "declared_stake",
          "isCurrent": true
        }
      ]
    },
    {
      "slug": "ВН-ИМОТИ",
      "displayName": "ВН ИМОТИ",
      "registeredOffice": "БЪЛГАРИЯ, гр. Варна, 9000",
      "mps": [
        {
          "mpId": 141,
          "mpName": "Константин Стефанов Димитров",
          "role": "director",
          "isCurrent": true
        }
      ]
    },
    {
      "slug": "Градина-кетърниг-ООД",
      "displayName": "Градина кетърниг ООД",
      "registeredOffice": "Варна",
      "mps": [
        {
          "mpId": 2760,
          "mpName": "Иван Димов Иванов",
          "role": "declared_stake",
          "isCurrent": true
        }
      ]
    },
    {
      "slug": "Граждани-за-справедлива-България",
      "displayName": "Граждани за справедлива България",
      "registeredOffice": "БЪЛГАРИЯ, гр. Варна, 9000",
      "mps": [
        {
          "mpId": 2768,
          "mpName": "Андон Димов Дончев",
          "role": "ngo_representative",
          "isCurrent": true
        }
      ]
    },
    {
      "slug": "Гражданска-позиция",
      "displayName": "Гражданска позиция",
      "registeredOffice": "БЪЛГАРИЯ, гр. Варна, 9000",
      "mps": [
        {
          "mpId": 2768,
          "mpName": "Андон Димов Дончев",
          "role": "ngo_representative",
          "isCurrent": true
        }
      ]
    },
    {
      "slug": "ДАМСКО-ИНОВАТИВНО-АТЕЛИЕ-ДИВА",
      "displayName": "ДАМСКО ИНОВАТИВНО АТЕЛИЕ ДИВА",
      "registeredOffice": "БЪЛГАРИЯ, Варна, 9010",
      "mps": [
        {
          "mpId": 5064,
          "mpName": "Мария Тодорова Тодорова",
          "role": "ngo_representative",
          "isCurrent": true
        }
      ]
    },
    {
      "slug": "ДЖИ-ПИ",
      "displayName": "ДЖИ ПИ",
      "registeredOffice": "БЪЛГАРИЯ, гр. Варна, 9000",
      "mps": [
        {
          "mpId": 5286,
          "mpName": "Явор Иванов Плашилски",
          "role": "partner",
          "isCurrent": true
        }
      ]
    },
    {
      "slug": "ДИАГНОСТИЧНО-КОНСУЛТАТИВЕН-ЦЕНТЪР-МЛАДОСТ-М-ВАРНА",
      "displayName": "ДИАГНОСТИЧНО-КОНСУЛТАТИВЕН ЦЕНТЪР МЛАДОСТ- М ВАРНА",
      "registeredOffice": "БЪЛГАРИЯ, гр. Варна, 9020",
      "mps": [
        {
          "mpId": 2853,
          "mpName": "Дора Стоянова Христова",
          "role": "partner",
          "isCurrent": true
        }
      ]
    },
    {
      "slug": "Дибо-Варна-ООД",
      "displayName": "Дибо Варна ООД",
      "registeredOffice": "Варна",
      "mps": [
        {
          "mpId": 2760,
          "mpName": "Иван Димов Иванов",
          "role": "declared_stake",
          "isCurrent": true
        }
      ]
    },
    {
      "slug": "Дибо-пропърти-ООД",
      "displayName": "Дибо пропърти ООД",
      "registeredOffice": "Варна",
      "mps": [
        {
          "mpId": 2760,
          "mpName": "Иван Димов Иванов",
          "role": "declared_stake",
          "isCurrent": true
        }
      ]
    },
    {
      "slug": "ДИД-12-ЕООД",
      "displayName": "ДИД 12 ЕООД",
      "registeredOffice": "Варна",
      "mps": [
        {
          "mpId": 2760,
          "mpName": "Иван Димов Иванов",
          "role": "declared_stake",
          "isCurrent": true
        }
      ]
    },
    {
      "slug": "ДИД-15-ЕООД",
      "displayName": "ДИД 15 ЕООД",
      "registeredOffice": "Варна",
      "mps": [
        {
          "mpId": 2760,
          "mpName": "Иван Димов Иванов",
          "role": "declared_stake",
          "isCurrent": true
        }
      ]
    },
    {
      "slug": "ДИД-16-ЕООД",
      "displayName": "ДИД 16 ЕООД",
      "registeredOffice": "Варна",
      "mps": [
        {
          "mpId": 2760,
          "mpName": "Иван Димов Иванов",
          "role": "declared_stake",
          "isCurrent": true
        }
      ]
    },
    {
      "slug": "ДИД-2008-ООД",
      "displayName": "ДИД 2008 ООД",
      "registeredOffice": "Варна",
      "mps": [
        {
          "mpId": 2760,
          "mpName": "Иван Димов Иванов",
          "role": "declared_stake",
          "isCurrent": true
        }
      ]
    },
    {
      "slug": "ДИД-Цвети-ЕООД",
      "displayName": "ДИД Цвети ЕООД",
      "registeredOffice": "Варна",
      "mps": [
        {
          "mpId": 2760,
          "mpName": "Иван Димов Иванов",
          "role": "declared_stake",
          "isCurrent": true
        }
      ]
    },
    {
      "slug": "ДИД-07-ООД",
      "displayName": "ДИД-07 ООД",
      "registeredOffice": "Варна",
      "mps": [
        {
          "mpId": 2760,
          "mpName": "Иван Димов Иванов",
          "role": "declared_stake",
          "isCurrent": true
        }
      ]
    },
    {
      "slug": "Евро-2020-ООД",
      "displayName": "Евро 2020 ООД",
      "registeredOffice": "Варна",
      "mps": [
        {
          "mpId": 2760,
          "mpName": "Иван Димов Иванов",
          "role": "declared_stake",
          "isCurrent": true
        }
      ]
    },
    {
      "slug": "ЕМ-ДЖИ-АСТРАЛ",
      "displayName": "ЕМ ДЖИ АСТРАЛ",
      "registeredOffice": "БЪЛГАРИЯ, гр. Варна, 9000",
      "mps": [
        {
          "mpId": 5113,
          "mpName": "Георги Иванов Георгиев",
          "role": "partner",
          "isCurrent": true
        }
      ]
    },
    {
      "slug": "ЕСП-ЗЛАТНИ-ПЯСЪЦИ",
      "displayName": "ЕСП ЗЛАТНИ ПЯСЪЦИ",
      "registeredOffice": "БЪЛГАРИЯ, гр. Варна, 9007",
      "mps": [
        {
          "mpId": 722,
          "mpName": "Веселин Борисов Черкезов",
          "role": "manager",
          "isCurrent": true
        }
      ]
    },
    {
      "slug": "ИВАНОВИ-КОНСТРУКШЪН",
      "displayName": "ИВАНОВИ КОНСТРУКШЪН",
      "registeredOffice": "БЪЛГАРИЯ, гр. Варна, 9000",
      "mps": [
        {
          "mpId": 5111,
          "mpName": "Калоян Тошков Иванов",
          "role": "partner",
          "isCurrent": true
        }
      ]
    }
  ]
}