{
  "ekatte": "56784",
  "page": 2,
  "totalPages": 3,
  "count": 140,
  "companies": [
    {
      "slug": "Скамандър-ЕООД",
      "displayName": "Скамандър ЕООД",
      "registeredOffice": "Пловдив",
      "mps": [
        {
          "mpId": 4800,
          "mpName": "МАНОЛ КОСТАДИНОВ ПЕЙКОВ",
          "role": "declared_stake",
          "isCurrent": true
        }
      ]
    },
    {
      "slug": "Тракия-ЕДУ",
      "displayName": "Тракия ЕДУ",
      "registeredOffice": "Пловдив",
      "mps": [
        {
          "mpId": 4262,
          "mpName": "Росен Добрев Костурков",
          "role": "declared_stake",
          "isCurrent": true
        }
      ]
    },
    {
      "slug": "СДРУЖЕНИЕ-НА-ОБЩИНСКИТЕ-ПРИЮТИ-ЗА-БЕЗСТОПАНСТВЕНИ-ЖИВОТНИ",
      "displayName": "\"СДРУЖЕНИЕ НА ОБЩИНСКИТЕ ПРИЮТИ ЗА БЕЗСТОПАНСТВЕНИ ЖИВОТНИ\"",
      "registeredOffice": "БЪЛГАРИЯ, гр. Пловдив, 4003",
      "mps": [
        {
          "mpId": 5163,
          "mpName": "Мартин Мариов Жлябинков",
          "role": "ngo_representative",
          "isCurrent": true
        },
        {
          "mpId": 5163,
          "mpName": "Мартин Мариов Жлябинков",
          "role": "ngo_board",
          "isCurrent": true
        }
      ]
    },
    {
      "slug": "Такс-консулт-ООД",
      "displayName": "\"Такс консулт\" ООД",
      "registeredOffice": "Пловдив",
      "mps": [
        {
          "mpId": 2834,
          "mpName": "Менда Кирилова Стоянова",
          "role": "declared_stake",
          "isCurrent": true
        }
      ]
    },
    {
      "slug": "АРХИТИЙМ-ДИЗАЙН",
      "displayName": "АРХИТИЙМ ДИЗАЙН",
      "registeredOffice": "БЪЛГАРИЯ, гр. Пловдив, 4000",
      "mps": [
        {
          "mpId": 5300,
          "mpName": "Мирослав Николаев Иванов",
          "role": "manager",
          "isCurrent": true
        },
        {
          "mpId": 5300,
          "mpName": "Мирослав Николаев Иванов",
          "role": "sole_owner",
          "isCurrent": true
        }
      ]
    },
    {
      "slug": "Браншова-камара-на-месодайното-животновъдство",
      "displayName": "Браншова камара на месодайното животновъдство",
      "registeredOffice": "БЪЛГАРИЯ, гр. Пловдив, 4003",
      "mps": [
        {
          "mpId": 2505,
          "mpName": "Георги Иванов Андонов",
          "role": "ngo_board",
          "isCurrent": true
        },
        {
          "mpId": 2505,
          "mpName": "Георги Иванов Андонов",
          "role": "ngo_representative",
          "isCurrent": true
        }
      ]
    },
    {
      "slug": "БЪЛГАРСКА-АСОЦИАЦИЯ-ЗА-СЕЛСКИ-СПОРТ",
      "displayName": "БЪЛГАРСКА АСОЦИАЦИЯ ЗА СЕЛСКИ СПОРТ",
      "registeredOffice": "БЪЛГАРИЯ, гр. Пловдив, 4004",
      "mps": [
        {
          "mpId": 703,
          "mpName": "Нонка Дечева Матова",
          "role": "ngo_representative",
          "isCurrent": true
        },
        {
          "mpId": 703,
          "mpName": "Нонка Дечева Матова",
          "role": "ngo_board",
          "isCurrent": true
        }
      ]
    },
    {
      "slug": "ВАНЕСА-27",
      "displayName": "ВАНЕСА 27",
      "registeredOffice": "БЪЛГАРИЯ, гр. Пловдив, 4002",
      "mps": [
        {
          "mpId": 2665,
          "mpName": "Мария Йорданова Илиева",
          "role": "manager",
          "isCurrent": true
        },
        {
          "mpId": 2665,
          "mpName": "Мария Йорданова Илиева",
          "role": "partner",
          "isCurrent": true
        }
      ]
    },
    {
      "slug": "Вита-трейдинг-ЕООД",
      "displayName": "Вита трейдинг ЕООД",
      "registeredOffice": "Пловдив",
      "mps": [
        {
          "mpId": 2838,
          "mpName": "ГЕОРГИ ЙОРДАНОВ ЙОРДАНОВ",
          "role": "declared_stake",
          "isCurrent": true
        }
      ]
    },
    {
      "slug": "Вита-фармаси-ЕООД",
      "displayName": "Вита фармаси ЕООД",
      "registeredOffice": "Пловдив",
      "mps": [
        {
          "mpId": 2838,
          "mpName": "ГЕОРГИ ЙОРДАНОВ ЙОРДАНОВ",
          "role": "declared_stake",
          "isCurrent": true
        }
      ]
    },
    {
      "slug": "Глобофарм-ЕООД",
      "displayName": "Глобофарм ЕООД",
      "registeredOffice": "Пловдив",
      "mps": [
        {
          "mpId": 2838,
          "mpName": "ГЕОРГИ ЙОРДАНОВ ЙОРДАНОВ",
          "role": "declared_stake",
          "isCurrent": true
        }
      ]
    },
    {
      "slug": "ГРАЖДАНСКА-ИНИЦИАТИВА-АНТИФАШИСТИ",
      "displayName": "ГРАЖДАНСКА ИНИЦИАТИВА АНТИФАШИСТИ",
      "registeredOffice": "БЪЛГАРИЯ, гр. Пловдив, 4000",
      "mps": [
        {
          "mpId": 2305,
          "mpName": "Атанаска Михаилова Тенева",
          "role": "ngo_representative",
          "isCurrent": true
        },
        {
          "mpId": 2305,
          "mpName": "Атанаска Михаилова Тенева",
          "role": "ngo_board",
          "isCurrent": true
        }
      ]
    },
    {
      "slug": "Донки-Хот-2000",
      "displayName": "Донки Хот 2000",
      "registeredOffice": "БЪЛГАРИЯ, гр. Пловдив, 4000",
      "mps": [
        {
          "mpId": 5064,
          "mpName": "Мария Тодорова Тодорова",
          "role": "manager",
          "isCurrent": true
        },
        {
          "mpId": 5064,
          "mpName": "Мария Тодорова Тодорова",
          "role": "partner",
          "isCurrent": true
        }
      ]
    },
    {
      "slug": "ЗАЛОЖНА-КЪЩА-ФЮЧЪРС-23",
      "displayName": "ЗАЛОЖНА КЪЩА ФЮЧЪРС 23",
      "registeredOffice": "БЪЛГАРИЯ, гр. Пловдив, 4000",
      "mps": [
        {
          "mpId": 1578,
          "mpName": "Златко Димитров Тодоров",
          "role": "manager",
          "isCurrent": true
        },
        {
          "mpId": 1578,
          "mpName": "Златко Димитров Тодоров",
          "role": "sole_owner",
          "isCurrent": true
        }
      ]
    },
    {
      "slug": "ИНСТРУМЕНТАЛ.БГ",
      "displayName": "ИНСТРУМЕНТАЛ.БГ",
      "registeredOffice": "БЪЛГАРИЯ, гр. Пловдив, 4002",
      "mps": [
        {
          "mpId": 2403,
          "mpName": "Любомир Владимиров Владимиров",
          "role": "manager",
          "isCurrent": true
        },
        {
          "mpId": 2403,
          "mpName": "Любомир Владимиров Владимиров",
          "role": "sole_owner",
          "isCurrent": true
        }
      ]
    },
    {
      "slug": "Исит-документи-ООД",
      "displayName": "Исит документи ООД",
      "registeredOffice": "Пловдив",
      "mps": [
        {
          "mpId": 5193,
          "mpName": "Йордан Яворов Иванов",
          "role": "partner",
          "isCurrent": true
        },
        {
          "mpId": 5193,
          "mpName": "Йордан Яворов Иванов",
          "role": "declared_stake",
          "isCurrent": true
        }
      ]
    },
    {
      "slug": "К-и-К-ЕСТЕЙТ",
      "displayName": "К и К ЕСТЕЙТ",
      "registeredOffice": "БЪЛГАРИЯ, гр. Пловдив, 4000",
      "mps": [
        {
          "mpId": 3631,
          "mpName": "Дани Стефанова Каназирева",
          "role": "partner",
          "isCurrent": true
        },
        {
          "mpId": 3631,
          "mpName": "Дани Стефанова Каназирева",
          "role": "sole_owner",
          "isCurrent": false
        }
      ]
    },
    {
      "slug": "К.И.Д.-ФУУД-1926",
      "displayName": "К.И.Д. ФУУД 1926",
      "registeredOffice": "БЪЛГАРИЯ, гр. Пловдив, 4002",
      "mps": [
        {
          "mpId": 3148,
          "mpName": "Красимир Христов Николов",
          "role": "manager",
          "isCurrent": true
        },
        {
          "mpId": 3148,
          "mpName": "Красимир Христов Николов",
          "role": "sole_owner",
          "isCurrent": true
        }
      ]
    },
    {
      "slug": "Каменица-Офис-парк-АД",
      "displayName": "Каменица Офис парк АД",
      "registeredOffice": "Пловдив",
      "mps": [
        {
          "mpId": 3620,
          "mpName": "Иван Борисов Тотев",
          "role": "actual_owner",
          "isCurrent": true
        },
        {
          "mpId": 3620,
          "mpName": "ИВАН БОРИСОВ ТОТЕВ",
          "role": "declared_stake",
          "isCurrent": true
        }
      ]
    },
    {
      "slug": "КЛИМА-ТРЕЙД-ИНЖЕНЕРИНГ",
      "displayName": "КЛИМА ТРЕЙД ИНЖЕНЕРИНГ",
      "registeredOffice": "БЪЛГАРИЯ, гр. Пловдив, 4006",
      "mps": [
        {
          "mpId": 5247,
          "mpName": "Петър Николаев Петров",
          "role": "manager",
          "isCurrent": true
        },
        {
          "mpId": 5247,
          "mpName": "Петър Николаев Петров",
          "role": "partner",
          "isCurrent": true
        }
      ]
    },
    {
      "slug": "МАНОЛ-ПЕЙКОВ-И-ПРИЯТЕЛИ",
      "displayName": "МАНОЛ ПЕЙКОВ И ПРИЯТЕЛИ",
      "registeredOffice": "БЪЛГАРИЯ, гр. Пловдив, 4004",
      "mps": [
        {
          "mpId": 4800,
          "mpName": "Манол Костадинов Пейков",
          "role": "ngo_representative",
          "isCurrent": true
        },
        {
          "mpId": 4800,
          "mpName": "Манол Костадинов Пейков",
          "role": "ngo_board",
          "isCurrent": true
        }
      ]
    },
    {
      "slug": "МАРКОНИ-КАРС",
      "displayName": "МАРКОНИ КАРС",
      "registeredOffice": "БЪЛГАРИЯ, гр. Пловдив, 4004",
      "mps": [
        {
          "mpId": 4465,
          "mpName": "Николай Георгиев Марков",
          "role": "manager",
          "isCurrent": true
        },
        {
          "mpId": 4465,
          "mpName": "Николай Георгиев Марков",
          "role": "partner",
          "isCurrent": true
        }
      ]
    },
    {
      "slug": "МАРТИН-ДИМИТРОВ-2021",
      "displayName": "МАРТИН ДИМИТРОВ 2021",
      "registeredOffice": "БЪЛГАРИЯ, гр. Пловдив, 4000",
      "mps": [
        {
          "mpId": 5245,
          "mpName": "Мартин Димитров Димитров",
          "role": "manager",
          "isCurrent": true
        },
        {
          "mpId": 5245,
          "mpName": "Мартин Димитров Димитров",
          "role": "sole_owner",
          "isCurrent": true
        }
      ]
    },
    {
      "slug": "ММ-93-Изола-ООД",
      "displayName": "ММ 93 Изола ООД",
      "registeredOffice": "Пловдив",
      "mps": [
        {
          "mpId": 2838,
          "mpName": "ГЕОРГИ ЙОРДАНОВ ЙОРДАНОВ",
          "role": "declared_stake",
          "isCurrent": true
        }
      ]
    },
    {
      "slug": "ОБЕДИНЕНИЕ-29",
      "displayName": "ОБЕДИНЕНИЕ 29",
      "registeredOffice": "БЪЛГАРИЯ, гр. Пловдив, 4000",
      "mps": [
        {
          "mpId": 1614,
          "mpName": "Любомир Ангелов Петков",
          "role": "ngo_board",
          "isCurrent": true
        },
        {
          "mpId": 1614,
          "mpName": "Любомир Ангелов Петков",
          "role": "ngo_representative",
          "isCurrent": true
        }
      ]
    },
    {
      "slug": "оренда-777-еоод",
      "displayName": "оренда 777 еоод",
      "registeredOffice": "пловдив",
      "mps": [
        {
          "mpId": 4826,
          "mpName": "Борислав Климентов Петков",
          "role": "declared_stake",
          "isCurrent": true
        }
      ]
    },
    {
      "slug": "оренда-тур-еоод",
      "displayName": "оренда тур еоод",
      "registeredOffice": "пловдив",
      "mps": [
        {
          "mpId": 4826,
          "mpName": "Борислав Климентов Петков",
          "role": "declared_stake",
          "isCurrent": true
        }
      ]
    },
    {
      "slug": "ПЕРСЕНК-АГРО",
      "displayName": "ПЕРСЕНК АГРО",
      "registeredOffice": "БЪЛГАРИЯ, гр. Пловдив, 4001",
      "mps": [
        {
          "mpId": 5113,
          "mpName": "Георги Иванов Георгиев",
          "role": "manager",
          "isCurrent": true
        },
        {
          "mpId": 5113,
          "mpName": "Георги Иванов Георгиев",
          "role": "partner",
          "isCurrent": true
        }
      ]
    },
    {
      "slug": "ПиДжейТи-Фешън-ООД",
      "displayName": "ПиДжейТи Фешън ООД",
      "registeredOffice": "Пловдив",
      "mps": [
        {
          "mpId": 2847,
          "mpName": "Георги Ченков Търновалийски",
          "role": "declared_stake",
          "isCurrent": true
        }
      ]
    },
    {
      "slug": "СОЛАР-ПРОПЪРТИ-МЕНИДЖМЪНТ",
      "displayName": "СОЛАР ПРОПЪРТИ МЕНИДЖМЪНТ",
      "registeredOffice": "БЪЛГАРИЯ, гр. Пловдив, 4004",
      "mps": [
        {
          "mpId": 2946,
          "mpName": "Елена Стефанова Пешева",
          "role": "partner",
          "isCurrent": true
        },
        {
          "mpId": 2946,
          "mpName": "Елена Стефанова Пешева",
          "role": "manager",
          "isCurrent": true
        }
      ]
    },
    {
      "slug": "СТРЕЛКОВИ-КЛУБ-ТРАКИЙСКИ-ЮНАК",
      "displayName": "СТРЕЛКОВИ КЛУБ ТРАКИЙСКИ ЮНАК",
      "registeredOffice": "БЪЛГАРИЯ, гр. Пловдив, 4004",
      "mps": [
        {
          "mpId": 703,
          "mpName": "Нонка Дечева Матова",
          "role": "ngo_board",
          "isCurrent": true
        },
        {
          "mpId": 703,
          "mpName": "Нонка Дечева Матова",
          "role": "ngo_representative",
          "isCurrent": true
        }
      ]
    },
    {
      "slug": "СТРИЙТЛАЙТ-ПРОС",
      "displayName": "СТРИЙТЛАЙТ ПРОС",
      "registeredOffice": "БЪЛГАРИЯ, гр. Пловдив, 4004",
      "mps": [
        {
          "mpId": 4867,
          "mpName": "Димитър Иванов Григоров",
          "role": "manager",
          "isCurrent": true
        },
        {
          "mpId": 4867,
          "mpName": "Димитър Иванов Григоров",
          "role": "sole_owner",
          "isCurrent": true
        }
      ]
    },
    {
      "slug": "Сюжет-ГТ",
      "displayName": "Сюжет ГТ",
      "registeredOffice": "БЪЛГАРИЯ, гр. Пловдив, 4000",
      "mps": [
        {
          "mpId": 2847,
          "mpName": "Георги Ченков Търновалийски",
          "role": "manager",
          "isCurrent": true
        },
        {
          "mpId": 2847,
          "mpName": "Георги Ченков Търновалийски",
          "role": "sole_owner",
          "isCurrent": true
        }
      ]
    },
    {
      "slug": "Сюжет-ООД",
      "displayName": "Сюжет ООД",
      "registeredOffice": "Пловдив",
      "mps": [
        {
          "mpId": 2847,
          "mpName": "Георги Ченков Търновалийски",
          "role": "declared_stake",
          "isCurrent": true
        }
      ]
    },
    {
      "slug": "ТаксКонсулт-оод",
      "displayName": "ТаксКонсулт оод",
      "registeredOffice": "Пловдив",
      "mps": [
        {
          "mpId": 2834,
          "mpName": "Менда Кирилова Стоянова",
          "role": "declared_stake",
          "isCurrent": true
        }
      ]
    },
    {
      "slug": "ТРАКИЙСКО-ДРУЖЕСТВО-ВОЙВОДА-РУСИ-СЛАВОВ",
      "displayName": "ТРАКИЙСКО ДРУЖЕСТВО ВОЙВОДА РУСИ СЛАВОВ",
      "registeredOffice": "БЪЛГАРИЯ, гр. Пловдив, 4004",
      "mps": [
        {
          "mpId": 703,
          "mpName": "Нонка Дечева Матова",
          "role": "ngo_board",
          "isCurrent": true
        },
        {
          "mpId": 703,
          "mpName": "Нонка Дечева Матова",
          "role": "ngo_representative",
          "isCurrent": true
        }
      ]
    },
    {
      "slug": "Феър-Тийм-ЕООД",
      "displayName": "Феър Тийм ЕООД",
      "registeredOffice": "Пловдив",
      "mps": [
        {
          "mpId": 3351,
          "mpName": "Мария Василева Капон",
          "role": "declared_stake",
          "isCurrent": true
        }
      ]
    },
    {
      "slug": "Фокус-БГ-ЕООД",
      "displayName": "Фокус БГ ЕООД",
      "registeredOffice": "Пловдив",
      "mps": [
        {
          "mpId": 2833,
          "mpName": "Спас Георгиев Гърневски",
          "role": "declared_stake",
          "isCurrent": true
        }
      ]
    },
    {
      "slug": "ФОЛКЛОРЕН-СВЯТ-СЕДЕНЧИЦА",
      "displayName": "ФОЛКЛОРЕН СВЯТ-СЕДЕНЧИЦА",
      "registeredOffice": "БЪЛГАРИЯ, гр. Пловдив, 4002",
      "mps": [
        {
          "mpId": 5135,
          "mpName": "Нели Делкова Карабахчиева",
          "role": "ngo_representative",
          "isCurrent": true
        },
        {
          "mpId": 5135,
          "mpName": "Нели Делкова Карабахчиева",
          "role": "ngo_board",
          "isCurrent": true
        }
      ]
    },
    {
      "slug": "ФЮЧЪРС-92",
      "displayName": "ФЮЧЪРС 92",
      "registeredOffice": "БЪЛГАРИЯ, гр. Пловдив, 4000",
      "mps": [
        {
          "mpId": 1578,
          "mpName": "Златко Димитров Тодоров",
          "role": "manager",
          "isCurrent": true
        },
        {
          "mpId": 1578,
          "mpName": "Златко Димитров Тодоров",
          "role": "sole_owner",
          "isCurrent": true
        }
      ]
    },
    {
      "slug": "Чомба-Трейд",
      "displayName": "Чомба Трейд",
      "registeredOffice": "БЪЛГАРИЯ, гр. Пловдив, 4003",
      "mps": [
        {
          "mpId": 3624,
          "mpName": "Александър Николаев Ракшиев",
          "role": "manager",
          "isCurrent": true
        },
        {
          "mpId": 3624,
          "mpName": "Александър Николаев Ракшиев",
          "role": "partner",
          "isCurrent": true
        }
      ]
    },
    {
      "slug": "ЮГ-МАРКЕТ",
      "displayName": "ЮГ МАРКЕТ",
      "registeredOffice": "БЪЛГАРИЯ, гр. Пловдив, 4003",
      "mps": [
        {
          "mpId": 224,
          "mpName": "Теодора Георгиева Якимова-Дренска",
          "role": "director",
          "isCurrent": true
        },
        {
          "mpId": 224,
          "mpName": "Теодора Георгиева Якимова-Дренска",
          "role": "representative",
          "isCurrent": true
        }
      ]
    },
    {
      "slug": "Пропър-Холидей-ООД",
      "displayName": "\"Пропър Холидей\" ООД",
      "registeredOffice": "Пловдив",
      "mps": [
        {
          "mpId": 4802,
          "mpName": "Иван Богомилов Петков",
          "role": "declared_stake",
          "isCurrent": true
        }
      ]
    },
    {
      "slug": "Техноинженеринг-97-ООД",
      "displayName": "\"Техноинженеринг - 97\" ООД",
      "registeredOffice": "Пловдив",
      "mps": [
        {
          "mpId": 2834,
          "mpName": "Менда Кирилова Стоянова",
          "role": "declared_stake",
          "isCurrent": true
        }
      ]
    },
    {
      "slug": "ФИЛ-Комерс-е-ООД",
      "displayName": "\"ФИЛ - Комерс е\" ООД",
      "registeredOffice": "Пловдив",
      "mps": [
        {
          "mpId": 2834,
          "mpName": "Менда Кирилова Стоянова",
          "role": "declared_stake",
          "isCurrent": true
        }
      ]
    },
    {
      "slug": "ФИЛ-Комерс-ООД",
      "displayName": "\"ФИЛ - Комерс\" ООД",
      "registeredOffice": "Пловдив",
      "mps": [
        {
          "mpId": 2834,
          "mpName": "Менда Кирилова Стоянова",
          "role": "declared_stake",
          "isCurrent": true
        }
      ]
    },
    {
      "slug": "4-АГРА",
      "displayName": "4 АГРА",
      "registeredOffice": "БЪЛГАРИЯ, гр. Пловдив, 4002",
      "mps": [
        {
          "mpId": 957,
          "mpName": "Георги Георгиев Плачков",
          "role": "partner",
          "isCurrent": true
        }
      ]
    },
    {
      "slug": "АГРОКОПТЕР-ЕВРОПА",
      "displayName": "АГРОКОПТЕР ЕВРОПА",
      "registeredOffice": "БЪЛГАРИЯ, гр. Пловдив, 4000",
      "mps": [
        {
          "mpId": 4826,
          "mpName": "Борислав Климентов Петков",
          "role": "manager",
          "isCurrent": true
        }
      ]
    },
    {
      "slug": "АРЛАБС",
      "displayName": "АРЛАБС",
      "registeredOffice": "БЪЛГАРИЯ, гр. Пловдив, 4004",
      "mps": [
        {
          "mpId": 3661,
          "mpName": "Виктор Гасан Насър",
          "role": "partner",
          "isCurrent": true
        }
      ]
    },
    {
      "slug": "Аутосорс-Сървисис-Пловдив",
      "displayName": "Аутосорс Сървисис Пловдив",
      "registeredOffice": "БЪЛГАРИЯ, гр. Пловдив, 4000",
      "mps": [
        {
          "mpId": 4802,
          "mpName": "Иван Богомилов Петков",
          "role": "partner",
          "isCurrent": true
        }
      ]
    }
  ]
}