{
  "ekatte": "63427",
  "page": 2,
  "totalPages": 2,
  "count": 53,
  "companies": [
    {
      "slug": "УМБАЛ-Медика-русе-ООД",
      "displayName": "УМБАЛ Медика русе ООД",
      "registeredOffice": "Русе",
      "mps": [
        {
          "mpId": 3228,
          "mpName": "Алисе Кямилова Муртезова",
          "role": "declared_stake",
          "isCurrent": true
        }
      ]
    },
    {
      "slug": "Фондация-&quot;ОБЩЕСТВЕН-ФОНД-РУСЕ&quot;",
      "displayName": "Фондация &quot;ОБЩЕСТВЕН ФОНД РУСЕ&quot;",
      "registeredOffice": "БЪЛГАРИЯ, гр. Русе, 7000",
      "mps": [
        {
          "mpId": 3228,
          "mpName": "Алисе Кямилова Муртезова",
          "role": "ngo_board",
          "isCurrent": true
        }
      ]
    },
    {
      "slug": "Хоспис-медика-русе-ООД",
      "displayName": "Хоспис медика русе ООД",
      "registeredOffice": "Русе",
      "mps": [
        {
          "mpId": 3228,
          "mpName": "Алисе Кямилова Муртезова",
          "role": "declared_stake",
          "isCurrent": true
        }
      ]
    }
  ]
}