{
  "ekatte": "68134",
  "page": 6,
  "totalPages": 16,
  "count": 794,
  "companies": [
    {
      "slug": "Дейта-център",
      "displayName": "Дейта център",
      "registeredOffice": "БЪЛГАРИЯ, гр. София, 1000",
      "mps": [
        {
          "mpId": 5090,
          "mpName": "Иван Димитров Шишков",
          "role": "manager",
          "isCurrent": true
        },
        {
          "mpId": 5090,
          "mpName": "Иван Димитров Шишков",
          "role": "sole_owner",
          "isCurrent": true
        }
      ]
    },
    {
      "slug": "ДЕМЕТРИКС",
      "displayName": "ДЕМЕТРИКС",
      "registeredOffice": "БЪЛГАРИЯ, София, 1505",
      "mps": [
        {
          "mpId": 5169,
          "mpName": "Димитър Иванов Аврамов",
          "role": "ngo_board",
          "isCurrent": true
        },
        {
          "mpId": 5169,
          "mpName": "Димитър Иванов Аврамов",
          "role": "ngo_representative",
          "isCurrent": true
        }
      ]
    },
    {
      "slug": "Демира-Холидей",
      "displayName": "Демира Холидей",
      "registeredOffice": "БЪЛГАРИЯ, гр. София, 1680",
      "mps": [
        {
          "mpId": 5071,
          "mpName": "Миролюб Адамов Адамов",
          "role": "manager",
          "isCurrent": true
        },
        {
          "mpId": 5071,
          "mpName": "Миролюб Адамов Адамов",
          "role": "partner",
          "isCurrent": false
        }
      ]
    },
    {
      "slug": "ДЕМОКРАТИЧЕН-ЦЕНТЪР",
      "displayName": "ДЕМОКРАТИЧЕН ЦЕНТЪР",
      "registeredOffice": "БЪЛГАРИЯ, гр. София, 1612",
      "mps": [
        {
          "mpId": 3783,
          "mpName": "Благовест Кирилов Кирилов",
          "role": "ngo_representative",
          "isCurrent": true
        },
        {
          "mpId": 3783,
          "mpName": "Благовест Кирилов Кирилов",
          "role": "ngo_board",
          "isCurrent": true
        }
      ]
    },
    {
      "slug": "Демос-фарм-ЕООД",
      "displayName": "Демос фарм ЕООД",
      "registeredOffice": "София",
      "mps": [
        {
          "mpId": 2659,
          "mpName": "Гергана Желязкова Стефанова",
          "role": "declared_stake",
          "isCurrent": true
        }
      ]
    },
    {
      "slug": "ДЕРМАЛИС",
      "displayName": "ДЕРМАЛИС",
      "registeredOffice": "БЪЛГАРИЯ, гр. София, 1000",
      "mps": [
        {
          "mpId": 3169,
          "mpName": "Пламен Иванов Милев",
          "role": "manager",
          "isCurrent": true
        },
        {
          "mpId": 3169,
          "mpName": "Пламен Иванов Милев",
          "role": "partner",
          "isCurrent": true
        }
      ]
    },
    {
      "slug": "ДЕСЕТ-КНИГИ",
      "displayName": "ДЕСЕТ КНИГИ",
      "registeredOffice": "БЪЛГАРИЯ, гр. София, 1421",
      "mps": [
        {
          "mpId": 1696,
          "mpName": "Георги Цветанов Марков",
          "role": "ngo_representative",
          "isCurrent": true
        },
        {
          "mpId": 1696,
          "mpName": "Георги Цветанов Марков",
          "role": "ngo_board",
          "isCurrent": true
        }
      ]
    },
    {
      "slug": "Десина-строй",
      "displayName": "Десина строй",
      "registeredOffice": "БЪЛГАРИЯ, гр. София, 1680",
      "mps": [
        {
          "mpId": 823,
          "mpName": "Съби Давидов Събев",
          "role": "sole_owner",
          "isCurrent": true
        },
        {
          "mpId": 823,
          "mpName": "Съби Давидов Събев",
          "role": "manager",
          "isCurrent": true
        }
      ]
    },
    {
      "slug": "ДЖЕМКРОС",
      "displayName": "ДЖЕМКРОС",
      "registeredOffice": "БЪЛГАРИЯ, гр. София, 1000",
      "mps": [
        {
          "mpId": 2683,
          "mpName": "Джема Маринова Грозданова",
          "role": "manager",
          "isCurrent": true
        },
        {
          "mpId": 2683,
          "mpName": "Джема Маринова Грозданова",
          "role": "sole_owner",
          "isCurrent": true
        }
      ]
    },
    {
      "slug": "Дженерал-Чери-интернешънъл",
      "displayName": "Дженерал Чери интернешънъл",
      "registeredOffice": "БЪЛГАРИЯ, гр. София, 1000",
      "mps": [
        {
          "mpId": 4837,
          "mpName": "Кирил Петков Петков",
          "role": "representative",
          "isCurrent": true
        },
        {
          "mpId": 4837,
          "mpName": "Кирил Петков Петков",
          "role": "director",
          "isCurrent": true
        }
      ]
    },
    {
      "slug": "ДЖЕНЕРИКС",
      "displayName": "ДЖЕНЕРИКС",
      "registeredOffice": "БЪЛГАРИЯ, гр. София, 1538",
      "mps": [
        {
          "mpId": 2478,
          "mpName": "Чавдар Славчев Пейчев",
          "role": "manager",
          "isCurrent": true
        },
        {
          "mpId": 2478,
          "mpName": "Чавдар Славчев Пейчев",
          "role": "partner",
          "isCurrent": true
        }
      ]
    },
    {
      "slug": "Джобс-Къмпани",
      "displayName": "Джобс Къмпани",
      "registeredOffice": "БЪЛГАРИЯ, гр. София, 1000",
      "mps": [
        {
          "mpId": 5245,
          "mpName": "Мартин Димитров Димитров",
          "role": "manager",
          "isCurrent": true
        },
        {
          "mpId": 5245,
          "mpName": "Мартин Димитров Димитров",
          "role": "partner",
          "isCurrent": false
        }
      ]
    },
    {
      "slug": "ДИ-енд-ВИ-Карс",
      "displayName": "ДИ енд ВИ Карс",
      "registeredOffice": "БЪЛГАРИЯ, гр. София, 1680",
      "mps": [
        {
          "mpId": 4871,
          "mpName": "Владимир Владимиров Георгиев",
          "role": "manager",
          "isCurrent": true
        },
        {
          "mpId": 4871,
          "mpName": "Владимир Владимиров Георгиев",
          "role": "partner",
          "isCurrent": true
        }
      ]
    },
    {
      "slug": "Ди-Ес-Джи-Прадакшънс-ООД",
      "displayName": "Ди Ес Джи Прадакшънс ООД",
      "registeredOffice": "София (столица)",
      "mps": [
        {
          "mpId": 5173,
          "mpName": "Любен Любенов Дилов",
          "role": "declared_stake",
          "isCurrent": true
        }
      ]
    },
    {
      "slug": "Дивайн-Кеър",
      "displayName": "Дивайн Кеър",
      "registeredOffice": "БЪЛГАРИЯ, гр. София, 1505",
      "mps": [
        {
          "mpId": 3681,
          "mpName": "Николина Панайотова Ангелкова",
          "role": "manager",
          "isCurrent": true
        },
        {
          "mpId": 3681,
          "mpName": "Николина Панайотова Ангелкова",
          "role": "sole_owner",
          "isCurrent": true
        }
      ]
    },
    {
      "slug": "ДИДЖИМАРК-ИНТЕРНЕШЪНЪЛ",
      "displayName": "ДИДЖИМАРК ИНТЕРНЕШЪНЪЛ",
      "registeredOffice": "БЪЛГАРИЯ, гр. София, 1229",
      "mps": [
        {
          "mpId": 5182,
          "mpName": "Борислав Пламенов Георгиев",
          "role": "manager",
          "isCurrent": true
        },
        {
          "mpId": 5182,
          "mpName": "Борислав Пламенов Георгиев",
          "role": "sole_owner",
          "isCurrent": true
        }
      ]
    },
    {
      "slug": "ДМС-ПРОПЪРТИ",
      "displayName": "ДМС ПРОПЪРТИ",
      "registeredOffice": "БЪЛГАРИЯ, гр. София, 1000",
      "mps": [
        {
          "mpId": 5133,
          "mpName": "Милен Стойчев Делийски",
          "role": "representative",
          "isCurrent": true
        },
        {
          "mpId": 5133,
          "mpName": "Милен Стойчев Делийски",
          "role": "director",
          "isCurrent": true
        }
      ]
    },
    {
      "slug": "ДПД-Транспед",
      "displayName": "ДПД - Транспед",
      "registeredOffice": "БЪЛГАРИЯ, гр. София, 1505",
      "mps": [
        {
          "mpId": 5245,
          "mpName": "Мартин Димитров Димитров",
          "role": "manager",
          "isCurrent": true
        },
        {
          "mpId": 5245,
          "mpName": "Мартин Димитров Димитров",
          "role": "sole_owner",
          "isCurrent": true
        }
      ]
    },
    {
      "slug": "ДРУЖЕСТВО-ЗА-КАСОВИ-УСЛУГИ",
      "displayName": "ДРУЖЕСТВО ЗА КАСОВИ УСЛУГИ",
      "registeredOffice": "БЪЛГАРИЯ, гр. София, 1632",
      "mps": [
        {
          "mpId": 4160,
          "mpName": "Андрей Атанасов Гюров",
          "role": "director",
          "isCurrent": true
        },
        {
          "mpId": 4325,
          "mpName": "Петър Пандушев Чобанов",
          "role": "director",
          "isCurrent": true
        }
      ]
    },
    {
      "slug": "ДУО-КОНСУЛТ",
      "displayName": "ДУО КОНСУЛТ",
      "registeredOffice": "БЪЛГАРИЯ, гр. София, 1619",
      "mps": [
        {
          "mpId": 5121,
          "mpName": "Атанас Петров Атанасов",
          "role": "manager",
          "isCurrent": true
        },
        {
          "mpId": 5121,
          "mpName": "Атанас Петров Атанасов",
          "role": "sole_owner",
          "isCurrent": true
        }
      ]
    },
    {
      "slug": "Душкабини-бг-ЕООД",
      "displayName": "Душкабини бг ЕООД",
      "registeredOffice": "София (столица)",
      "mps": [
        {
          "mpId": 4223,
          "mpName": "Николай Георгиев Дренчев",
          "role": "declared_stake",
          "isCurrent": true
        }
      ]
    },
    {
      "slug": "ЕВРО-СИТИ-2024",
      "displayName": "ЕВРО СИТИ 2024",
      "registeredOffice": "БЪЛГАРИЯ, гр. София, 1000",
      "mps": [
        {
          "mpId": 5113,
          "mpName": "Георги Иванов Георгиев",
          "role": "manager",
          "isCurrent": true
        },
        {
          "mpId": 5113,
          "mpName": "Георги Иванов Георгиев",
          "role": "sole_owner",
          "isCurrent": true
        }
      ]
    },
    {
      "slug": "Евро-трейд-94-ЕООД",
      "displayName": "Евро трейд 94 ЕООД",
      "registeredOffice": "София",
      "mps": [
        {
          "mpId": 3047,
          "mpName": "НИКОЛА ХРИСТОВ КРЪСТЕВ",
          "role": "declared_stake",
          "isCurrent": true
        }
      ]
    },
    {
      "slug": "ЕВРОПЕЙСКА-АЛТЕРНАТИВА-ЗА-РАЗВИТИЕ",
      "displayName": "ЕВРОПЕЙСКА АЛТЕРНАТИВА ЗА РАЗВИТИЕ",
      "registeredOffice": "БЪЛГАРИЯ, гр. София, 1700",
      "mps": [
        {
          "mpId": 4655,
          "mpName": "Валентин Йовков Тончев",
          "role": "liquidator",
          "isCurrent": true
        },
        {
          "mpId": 4655,
          "mpName": "Валентин Йовков Тончев",
          "role": "ngo_board",
          "isCurrent": true
        }
      ]
    },
    {
      "slug": "Ей-Джи-Стайл",
      "displayName": "Ей Джи Стайл",
      "registeredOffice": "БЪЛГАРИЯ, гр. София, 1618",
      "mps": [
        {
          "mpId": 5154,
          "mpName": "Даниела Андреева Георгиева",
          "role": "sole_owner",
          "isCurrent": true
        },
        {
          "mpId": 5154,
          "mpName": "Даниела Андреева Георгиева",
          "role": "manager",
          "isCurrent": true
        }
      ]
    },
    {
      "slug": "ЕКРАНА-БГ",
      "displayName": "ЕКРАНА БГ",
      "registeredOffice": "БЪЛГАРИЯ, гр. София",
      "mps": [
        {
          "mpId": 636,
          "mpName": "Алекси Иванов Алексиев",
          "role": "manager",
          "isCurrent": true
        },
        {
          "mpId": 636,
          "mpName": "Алекси Иванов Алексиев",
          "role": "sole_owner",
          "isCurrent": true
        }
      ]
    },
    {
      "slug": "ЕЛ-БИ-БУЛГАРИКУМ",
      "displayName": "ЕЛ БИ БУЛГАРИКУМ",
      "registeredOffice": "БЪЛГАРИЯ, гр. София, 1407",
      "mps": [
        {
          "mpId": 3249,
          "mpName": "Владимир Стоянов Русев",
          "role": "director",
          "isCurrent": true
        },
        {
          "mpId": 3249,
          "mpName": "Владимир Стоянов Русев",
          "role": "representative",
          "isCurrent": true
        }
      ]
    },
    {
      "slug": "ЕЛ-ВЕТ-2023",
      "displayName": "ЕЛ-ВЕТ-2023",
      "registeredOffice": "БЪЛГАРИЯ, гр. София, 1700",
      "mps": [
        {
          "mpId": 5245,
          "mpName": "Мартин Димитров Димитров",
          "role": "manager",
          "isCurrent": true
        },
        {
          "mpId": 5245,
          "mpName": "Мартин Димитров Димитров",
          "role": "sole_owner",
          "isCurrent": true
        }
      ]
    },
    {
      "slug": "Еленово-Солар",
      "displayName": "Еленово Солар",
      "registeredOffice": "БЪЛГАРИЯ, гр. София, 1000",
      "mps": [
        {
          "mpId": 5245,
          "mpName": "Мартин Димитров Димитров",
          "role": "manager",
          "isCurrent": true
        },
        {
          "mpId": 5245,
          "mpName": "Мартин Димитров Димитров",
          "role": "partner",
          "isCurrent": false
        }
      ]
    },
    {
      "slug": "ЕЛРОНТ-БИЛД",
      "displayName": "ЕЛРОНТ БИЛД",
      "registeredOffice": "БЪЛГАРИЯ, гр. София, 1000",
      "mps": [
        {
          "mpId": 5113,
          "mpName": "Георги Иванов Георгиев",
          "role": "manager",
          "isCurrent": true
        },
        {
          "mpId": 5113,
          "mpName": "Георги Иванов Георгиев",
          "role": "sole_owner",
          "isCurrent": true
        }
      ]
    },
    {
      "slug": "ЕМИКС-99",
      "displayName": "ЕМИКС 99",
      "registeredOffice": "БЪЛГАРИЯ, гр. София, 1229",
      "mps": [
        {
          "mpId": 5182,
          "mpName": "Борислав Пламенов Георгиев",
          "role": "manager",
          "isCurrent": true
        },
        {
          "mpId": 5182,
          "mpName": "Борислав Пламенов Георгиев",
          "role": "sole_owner",
          "isCurrent": true
        }
      ]
    },
    {
      "slug": "Енерджи-Съплай-Грийн-ЕООД",
      "displayName": "Енерджи Съплай Грийн ЕООД",
      "registeredOffice": "София",
      "mps": [
        {
          "mpId": 3410,
          "mpName": "Георги  Стоянов Кадиев",
          "role": "declared_stake",
          "isCurrent": true
        }
      ]
    },
    {
      "slug": "Енерджи-Съплай-ЕООД",
      "displayName": "Енерджи Съплай ЕООД",
      "registeredOffice": "София",
      "mps": [
        {
          "mpId": 3410,
          "mpName": "Георги  Стоянов Кадиев",
          "role": "declared_stake",
          "isCurrent": true
        }
      ]
    },
    {
      "slug": "Енигма-КСМ-ООД",
      "displayName": "Енигма КСМ ООД",
      "registeredOffice": "София",
      "mps": [
        {
          "mpId": 4819,
          "mpName": "Левент Орхан Мемиш",
          "role": "declared_stake",
          "isCurrent": true
        }
      ]
    },
    {
      "slug": "ЕРАСТ",
      "displayName": "ЕРАСТ",
      "registeredOffice": "БЪЛГАРИЯ, гр. София, 1619",
      "mps": [
        {
          "mpId": 5121,
          "mpName": "Атанас Петров Атанасов",
          "role": "manager",
          "isCurrent": true
        },
        {
          "mpId": 5121,
          "mpName": "Атанас Петров Атанасов",
          "role": "sole_owner",
          "isCurrent": true
        }
      ]
    },
    {
      "slug": "ЕРИМАНТ",
      "displayName": "ЕРИМАНТ",
      "registeredOffice": "БЪЛГАРИЯ, гр. София, 1404",
      "mps": [
        {
          "mpId": 209,
          "mpName": "Стела Димитрова Ангелова-Банкова",
          "role": "manager",
          "isCurrent": true
        },
        {
          "mpId": 209,
          "mpName": "Стела Димитрова Ангелова-Банкова",
          "role": "sole_owner",
          "isCurrent": false
        }
      ]
    },
    {
      "slug": "ЕС-ДЖИ-СТРОЙ-2024",
      "displayName": "ЕС ДЖИ СТРОЙ 2024",
      "registeredOffice": "БЪЛГАРИЯ, гр. София, 1309",
      "mps": [
        {
          "mpId": 1505,
          "mpName": "Щерьо Щерев Щерев",
          "role": "sole_owner",
          "isCurrent": true
        },
        {
          "mpId": 1505,
          "mpName": "Щерьо Щерев Щерев",
          "role": "manager",
          "isCurrent": true
        }
      ]
    },
    {
      "slug": "Естела-Фит",
      "displayName": "Естела Фит",
      "registeredOffice": "БЪЛГАРИЯ, гр. София, 1680",
      "mps": [
        {
          "mpId": 5245,
          "mpName": "Мартин Димитров Димитров",
          "role": "manager",
          "isCurrent": true
        },
        {
          "mpId": 5245,
          "mpName": "Мартин Димитров Димитров",
          "role": "partner",
          "isCurrent": true
        }
      ]
    },
    {
      "slug": "ЕТНИЧЕСКА-ИНТЕГРАЦИЯ",
      "displayName": "ЕТНИЧЕСКА ИНТЕГРАЦИЯ",
      "registeredOffice": "БЪЛГАРИЯ, гр. София, 1000",
      "mps": [
        {
          "mpId": 2438,
          "mpName": "Четин Хюсеин Казак",
          "role": "ngo_representative",
          "isCurrent": true
        },
        {
          "mpId": 2438,
          "mpName": "Четин Хюсеин Казак",
          "role": "ngo_board",
          "isCurrent": true
        }
      ]
    },
    {
      "slug": "ЕУРО-ЕС",
      "displayName": "ЕУРО ЕС",
      "registeredOffice": "БЪЛГАРИЯ, гр. София, 1309",
      "mps": [
        {
          "mpId": 1505,
          "mpName": "Щерьо Щерев Щерев",
          "role": "sole_owner",
          "isCurrent": true
        },
        {
          "mpId": 1505,
          "mpName": "Щерьо Щерев Щерев",
          "role": "manager",
          "isCurrent": true
        }
      ]
    },
    {
      "slug": "Еуроенерджи-Консулт-ООД",
      "displayName": "Еуроенерджи Консулт ООД",
      "registeredOffice": "София",
      "mps": [
        {
          "mpId": 3294,
          "mpName": "Георги Милчев Чепишев",
          "role": "declared_stake",
          "isCurrent": true
        }
      ]
    },
    {
      "slug": "Еуропео-България-ООД-2",
      "displayName": "Еуропео-България ООД",
      "registeredOffice": "София (столица)",
      "mps": [
        {
          "mpId": 5173,
          "mpName": "Любен Любенов Дилов",
          "role": "manager",
          "isCurrent": true
        },
        {
          "mpId": 5173,
          "mpName": "Любен Любенов Дилов",
          "role": "declared_stake",
          "isCurrent": true
        }
      ]
    },
    {
      "slug": "Ефективни-Сгради-ООД",
      "displayName": "Ефективни Сгради ООД",
      "registeredOffice": "София",
      "mps": [
        {
          "mpId": 5159,
          "mpName": "Димо Георгиев Дренчев",
          "role": "declared_stake",
          "isCurrent": true
        }
      ]
    },
    {
      "slug": "Заедно-създаваме-бъдеще",
      "displayName": "Заедно създаваме бъдеще",
      "registeredOffice": "БЪЛГАРИЯ, гр. София, 1505",
      "mps": [
        {
          "mpId": 5064,
          "mpName": "Мария Тодорова Тодорова",
          "role": "ngo_representative",
          "isCurrent": true
        },
        {
          "mpId": 5064,
          "mpName": "Мария Тодорова Тодорова",
          "role": "ngo_board",
          "isCurrent": true
        }
      ]
    },
    {
      "slug": "Заряд",
      "displayName": "Заряд",
      "registeredOffice": "БЪЛГАРИЯ, гр. София, 1111",
      "mps": [
        {
          "mpId": 4324,
          "mpName": "Искрен Николаев Митев",
          "role": "ngo_representative",
          "isCurrent": true
        },
        {
          "mpId": 4324,
          "mpName": "Искрен Николаев Митев",
          "role": "ngo_board",
          "isCurrent": true
        }
      ]
    },
    {
      "slug": "ЗВЕЗДНА-РЕАЛНОСТ",
      "displayName": "ЗВЕЗДНА РЕАЛНОСТ",
      "registeredOffice": "БЪЛГАРИЯ, гр. София, 1231",
      "mps": [
        {
          "mpId": 112,
          "mpName": "Силвия Николаева Алексиева",
          "role": "manager",
          "isCurrent": true
        },
        {
          "mpId": 112,
          "mpName": "Силвия Николаева Алексиева",
          "role": "sole_owner",
          "isCurrent": true
        }
      ]
    },
    {
      "slug": "ЗЕРО-МАТ",
      "displayName": "ЗЕРО МАТ",
      "registeredOffice": "БЪЛГАРИЯ, гр. София, 1618",
      "mps": [
        {
          "mpId": 5241,
          "mpName": "Здравко Александров Огнянов",
          "role": "manager",
          "isCurrent": true
        },
        {
          "mpId": 5241,
          "mpName": "Здравко Александров Огнянов",
          "role": "partner",
          "isCurrent": false
        }
      ]
    },
    {
      "slug": "ЗИГ-ЗАГ-КОР-ООД",
      "displayName": "ЗИГ ЗАГ КОР ООД",
      "registeredOffice": "СОФИЯ",
      "mps": [
        {
          "mpId": 4190,
          "mpName": "КАЛОЯН ТОНЕВ ИКОНОМОВ",
          "role": "declared_stake",
          "isCurrent": true
        }
      ]
    },
    {
      "slug": "И-Ви-Лог",
      "displayName": "И Ви Лог",
      "registeredOffice": "БЪЛГАРИЯ, гр. София, 1715",
      "mps": [
        {
          "mpId": 630,
          "mpName": "Владимир Иванов Димитров",
          "role": "manager",
          "isCurrent": true
        },
        {
          "mpId": 630,
          "mpName": "Владимир Иванов Димитров",
          "role": "sole_owner",
          "isCurrent": true
        }
      ]
    },
    {
      "slug": "Ивени-Консулт-ЕООД",
      "displayName": "Ивени Консулт ЕООД",
      "registeredOffice": "София (столица)",
      "mps": [
        {
          "mpId": 2671,
          "mpName": "Жельо Иванов Бойчев",
          "role": "declared_stake",
          "isCurrent": true
        }
      ]
    }
  ]
}