{
  "ekatte": "68134",
  "page": 1,
  "totalPages": 16,
  "count": 797,
  "companies": [
    {
      "slug": "Рашидов-пропъртис-ООД",
      "displayName": "Рашидов пропъртис ООД",
      "registeredOffice": "София (столица)",
      "mps": [
        {
          "mpId": 4258,
          "mpName": "Вежди Летиф Рашидов",
          "role": "manager",
          "isCurrent": true
        },
        {
          "mpId": 4258,
          "mpName": "Вежди Летиф Рашидов",
          "role": "partner",
          "isCurrent": true
        },
        {
          "mpId": 4258,
          "mpName": "ВЕЖДИ ЛЕТИФ РАШИДОВ",
          "role": "declared_stake",
          "isCurrent": true
        }
      ]
    },
    {
      "slug": "Хотел-Експертс-БГ-ООД",
      "displayName": "\"Хотел Експертс БГ\" ООД",
      "registeredOffice": "София (столица)",
      "mps": [
        {
          "mpId": 3309,
          "mpName": "Ивайло Красимиров Кожухаров",
          "role": "manager",
          "isCurrent": true
        },
        {
          "mpId": 3309,
          "mpName": "Ивайло Красимиров Кожухаров",
          "role": "partner",
          "isCurrent": true
        },
        {
          "mpId": 3309,
          "mpName": "Ивайло Красимиров Кожухаров",
          "role": "sole_owner",
          "isCurrent": false
        },
        {
          "mpId": 3309,
          "mpName": "Ивайло Красимиров Кожухаров",
          "role": "declared_stake",
          "isCurrent": true
        }
      ]
    },
    {
      "slug": "Питай-МЕ",
      "displayName": "Питай МЕ",
      "registeredOffice": "София (столица)",
      "mps": [
        {
          "mpId": 4739,
          "mpName": "Димитър Стойков Николов",
          "role": "declared_stake",
          "isCurrent": true
        }
      ]
    },
    {
      "slug": "УТГ-ООД",
      "displayName": "УТГ ООД",
      "registeredOffice": "София (столица)",
      "mps": [
        {
          "mpId": 3932,
          "mpName": "Иван Косев Манев",
          "role": "manager",
          "isCurrent": true
        },
        {
          "mpId": 3932,
          "mpName": "Иван Косев Манев",
          "role": "liquidator",
          "isCurrent": true
        },
        {
          "mpId": 3932,
          "mpName": "Иван Косев Манев",
          "role": "partner",
          "isCurrent": true
        },
        {
          "mpId": 3932,
          "mpName": "Иван Косев Манев",
          "role": "sole_owner",
          "isCurrent": false
        },
        {
          "mpId": 3932,
          "mpName": "Иван Косев Манев",
          "role": "declared_stake",
          "isCurrent": true
        }
      ]
    },
    {
      "slug": "Фейс-НЮЗ",
      "displayName": "Фейс НЮЗ",
      "registeredOffice": "София (столица)",
      "mps": [
        {
          "mpId": 4739,
          "mpName": "Димитър Стойков Николов",
          "role": "declared_stake",
          "isCurrent": true
        }
      ]
    },
    {
      "slug": "Лиона-66-ЕООД",
      "displayName": "\"Лиона 66\" ЕООД",
      "registeredOffice": "София",
      "mps": [
        {
          "mpId": 5267,
          "mpName": "Валентин Мирчов Милушев",
          "role": "declared_stake",
          "isCurrent": true
        }
      ]
    },
    {
      "slug": "ФМ-2008-ООД",
      "displayName": "\"ФМ 2008\" ООД",
      "registeredOffice": "София",
      "mps": [
        {
          "mpId": 5267,
          "mpName": "Валентин Мирчов Милушев",
          "role": "declared_stake",
          "isCurrent": true
        }
      ]
    },
    {
      "slug": "Имобилария-платиниум",
      "displayName": "Имобилария платиниум",
      "registeredOffice": "София (столица)",
      "mps": [
        {
          "mpId": 4838,
          "mpName": "Александър Руменов Ненков",
          "role": "declared_stake",
          "isCurrent": true
        }
      ]
    },
    {
      "slug": "БГ-Татко-ООД",
      "displayName": "БГ Татко ООД",
      "registeredOffice": "София (столица)",
      "mps": [
        {
          "mpId": 5173,
          "mpName": "Любен Любенов Дилов",
          "role": "declared_stake",
          "isCurrent": true
        }
      ]
    },
    {
      "slug": "Еуропео-България-ООД",
      "displayName": "Еуропео - България ООД",
      "registeredOffice": "София (столица)",
      "mps": [
        {
          "mpId": 5173,
          "mpName": "Любен Любенов Дилов",
          "role": "manager",
          "isCurrent": true
        },
        {
          "mpId": 5173,
          "mpName": "Любен Любенов Дилов",
          "role": "declared_stake",
          "isCurrent": true
        }
      ]
    },
    {
      "slug": "Лондон-войс-ООД",
      "displayName": "Лондон войс ООД",
      "registeredOffice": "София (столица)",
      "mps": [
        {
          "mpId": 3395,
          "mpName": "Арман Агоп Бабикян",
          "role": "declared_stake",
          "isCurrent": true
        }
      ]
    },
    {
      "slug": "Сусанин-64-ООД",
      "displayName": "Сусанин 64 ООД",
      "registeredOffice": "София (столица)",
      "mps": [
        {
          "mpId": 5266,
          "mpName": "Атанас Владиславов Славов",
          "role": "declared_stake",
          "isCurrent": true
        }
      ]
    },
    {
      "slug": "Теоли-ООД",
      "displayName": "Теоли ООД",
      "registeredOffice": "София (столица)",
      "mps": [
        {
          "mpId": 4500,
          "mpName": "Христо Танчев Проданов",
          "role": "declared_stake",
          "isCurrent": true
        }
      ]
    },
    {
      "slug": "Инолед-ООД",
      "displayName": "\"Инолед\" ООД",
      "registeredOffice": "София (столица)",
      "mps": [
        {
          "mpId": 3796,
          "mpName": "Николай Георгиев Ангов",
          "role": "sole_owner",
          "isCurrent": true
        },
        {
          "mpId": 4598,
          "mpName": "Венеция Огнянова Нецова-Ангова",
          "role": "declared_stake",
          "isCurrent": true
        },
        {
          "mpId": 3796,
          "mpName": "Николай Георгиев Ангов",
          "role": "declared_stake",
          "isCurrent": true
        }
      ]
    },
    {
      "slug": "Ирис-Експорт-ООД",
      "displayName": "\"Ирис Експорт\" ООД",
      "registeredOffice": "София (столица)",
      "mps": [
        {
          "mpId": 3681,
          "mpName": "Николина Панайотова Ангелкова",
          "role": "declared_stake",
          "isCurrent": true
        }
      ]
    },
    {
      "slug": "ЛЕД-Марк-ООД",
      "displayName": "\"ЛЕД Марк\" ООД",
      "registeredOffice": "София (столица)",
      "mps": [
        {
          "mpId": 3796,
          "mpName": "Николай Георгиев Ангов",
          "role": "partner",
          "isCurrent": true
        },
        {
          "mpId": 4598,
          "mpName": "Венеция Огнянова Нецова-Ангова",
          "role": "declared_stake",
          "isCurrent": true
        },
        {
          "mpId": 3796,
          "mpName": "Николай Георгиев Ангов",
          "role": "declared_stake",
          "isCurrent": true
        }
      ]
    },
    {
      "slug": "артиса",
      "displayName": "артиса",
      "registeredOffice": "софия",
      "mps": [
        {
          "mpId": 4152,
          "mpName": "Иво Георгиев Русчев",
          "role": "manager",
          "isCurrent": true
        },
        {
          "mpId": 4152,
          "mpName": "Иво Георгиев Русчев",
          "role": "partner",
          "isCurrent": true
        },
        {
          "mpId": 4152,
          "mpName": "иво георгиев русчев",
          "role": "declared_stake",
          "isCurrent": true
        }
      ]
    },
    {
      "slug": "Брейн-Къмпъни-ЕООД",
      "displayName": "Брейн Къмпъни ЕООД",
      "registeredOffice": "София (столица)",
      "mps": [
        {
          "mpId": 5173,
          "mpName": "Любен Любенов Дилов",
          "role": "declared_stake",
          "isCurrent": true
        }
      ]
    },
    {
      "slug": "Гражданско-Движение-Силна-България",
      "displayName": "Гражданско Движение Силна България",
      "registeredOffice": "БЪЛГАРИЯ, гр. София, 1142",
      "mps": [
        {
          "mpId": 3642,
          "mpName": "Светлин Костов Стоянов",
          "role": "ngo_board",
          "isCurrent": true
        },
        {
          "mpId": 4043,
          "mpName": "Иво Георгиев Атанасов",
          "role": "ngo_board",
          "isCurrent": true
        },
        {
          "mpId": 4726,
          "mpName": "Николай Стефанов Радулов",
          "role": "ngo_board",
          "isCurrent": true
        },
        {
          "mpId": 4741,
          "mpName": "Деян Петев Петков",
          "role": "ngo_board",
          "isCurrent": true
        },
        {
          "mpId": 4873,
          "mpName": "Кирил Атанасов Веселински",
          "role": "ngo_board",
          "isCurrent": true
        },
        {
          "mpId": 4913,
          "mpName": "Радостин Петев Василев",
          "role": "ngo_representative",
          "isCurrent": true
        },
        {
          "mpId": 4913,
          "mpName": "Радостин Петев Василев",
          "role": "ngo_board",
          "isCurrent": true
        }
      ]
    },
    {
      "slug": "Едифис-Инженеринг-ЕООД",
      "displayName": "Едифис Инженеринг ЕООД",
      "registeredOffice": "СОФИЯ",
      "mps": [
        {
          "mpId": 4190,
          "mpName": "Калоян Тонев Икономов",
          "role": "sole_owner",
          "isCurrent": true
        },
        {
          "mpId": 4190,
          "mpName": "КАЛОЯН ТОНЕВ ИКОНОМОВ",
          "role": "declared_stake",
          "isCurrent": true
        }
      ]
    },
    {
      "slug": "Клуб-Амарант-ООД",
      "displayName": "Клуб Амарант ООД",
      "registeredOffice": "София (столица)",
      "mps": [
        {
          "mpId": 4786,
          "mpName": "Пламен Тачев Петров",
          "role": "declared_stake",
          "isCurrent": true
        }
      ]
    },
    {
      "slug": "Хримас-ЕООД",
      "displayName": "Хримас ЕООД",
      "registeredOffice": "София (столица)",
      "mps": [
        {
          "mpId": 4786,
          "mpName": "Пламен Тачев Петров",
          "role": "declared_stake",
          "isCurrent": true
        }
      ]
    },
    {
      "slug": "ЕКО-Прециз-ЕООД",
      "displayName": "\"ЕКО Прециз\" ЕООД",
      "registeredOffice": "София (столица)",
      "mps": [
        {
          "mpId": 5152,
          "mpName": "РУМЕН ДИМИТРОВ ХРИСТОВ",
          "role": "declared_stake",
          "isCurrent": true
        }
      ]
    },
    {
      "slug": "Продуцентска-компания-Киора-ЕООД",
      "displayName": "\"Продуцентска компания Киора\" ЕООД",
      "registeredOffice": "София (столица)",
      "mps": [
        {
          "mpId": 4671,
          "mpName": "Стоян Александров Михалев",
          "role": "declared_stake",
          "isCurrent": true
        }
      ]
    },
    {
      "slug": "Юроп-пропъртийз-ООД",
      "displayName": "\"Юроп пропъртийз\" ООД",
      "registeredOffice": "София (столица)",
      "mps": [
        {
          "mpId": 5152,
          "mpName": "РУМЕН ДИМИТРОВ ХРИСТОВ",
          "role": "declared_stake",
          "isCurrent": true
        }
      ]
    },
    {
      "slug": "А-н-Консулт-2017-ЕООД",
      "displayName": "А н Консулт 2017 ЕООД",
      "registeredOffice": "София (столица)",
      "mps": [
        {
          "mpId": 3252,
          "mpName": "Мая Божидарова Манолова-Найденова",
          "role": "manager",
          "isCurrent": true
        },
        {
          "mpId": 3252,
          "mpName": "Мая Божидарова Манолова-Найденова",
          "role": "sole_owner",
          "isCurrent": true
        },
        {
          "mpId": 3252,
          "mpName": "МАЯ БОЖИДАРОВА МАНОЛОВА-НАЙДЕНОВА",
          "role": "declared_stake",
          "isCurrent": true
        }
      ]
    },
    {
      "slug": "Инекс-агро-ООД",
      "displayName": "Инекс агро ООД",
      "registeredOffice": "София (столица)",
      "mps": [
        {
          "mpId": 3346,
          "mpName": "Иво Ангелов Христов",
          "role": "declared_stake",
          "isCurrent": true
        }
      ]
    },
    {
      "slug": "Инекс-пропъртис-ООД",
      "displayName": "Инекс пропъртис ООД",
      "registeredOffice": "София (столица)",
      "mps": [
        {
          "mpId": 3346,
          "mpName": "Иво Ангелов Христов",
          "role": "declared_stake",
          "isCurrent": true
        }
      ]
    },
    {
      "slug": "Матриксс-ООД",
      "displayName": "Матриксс ООД",
      "registeredOffice": "София (столица)",
      "mps": [
        {
          "mpId": 4719,
          "mpName": "Петър Георгиев Кънев",
          "role": "declared_stake",
          "isCurrent": true
        }
      ]
    },
    {
      "slug": "Природен-дизайн-ООД",
      "displayName": "Природен дизайн ООД",
      "registeredOffice": "София (столица)",
      "mps": [
        {
          "mpId": 5291,
          "mpName": "Николай Денков Денков",
          "role": "declared_stake",
          "isCurrent": true
        }
      ]
    },
    {
      "slug": "Смарт-бизнес-солушънс-ЕООД",
      "displayName": "Смарт бизнес солушънс ЕООД",
      "registeredOffice": "София (столица)",
      "mps": [
        {
          "mpId": 3949,
          "mpName": "Румен Маринов Йончев",
          "role": "declared_stake",
          "isCurrent": true
        }
      ]
    },
    {
      "slug": "Ферексим-ООД",
      "displayName": "Ферексим ООД",
      "registeredOffice": "София (столица)",
      "mps": [
        {
          "mpId": 3346,
          "mpName": "Иво Ангелов Христов",
          "role": "declared_stake",
          "isCurrent": true
        }
      ]
    },
    {
      "slug": "Фолекс-ЕООД",
      "displayName": "Фолекс ЕООД",
      "registeredOffice": "София (столица)",
      "mps": [
        {
          "mpId": 4719,
          "mpName": "Петър Георгиев Кънев",
          "role": "declared_stake",
          "isCurrent": true
        }
      ]
    },
    {
      "slug": "Харвестех-ЕООД",
      "displayName": "Харвестех ЕООД",
      "registeredOffice": "СОФИЯ",
      "mps": [
        {
          "mpId": 4190,
          "mpName": "КАЛОЯН ТОНЕВ ИКОНОМОВ",
          "role": "declared_stake",
          "isCurrent": true
        }
      ]
    },
    {
      "slug": "3-ЕН-3-ООД",
      "displayName": "\"3 ЕН 3\" ООД",
      "registeredOffice": "София (столица)",
      "mps": [
        {
          "mpId": 4324,
          "mpName": "Искрен Николаев Митев",
          "role": "partner",
          "isCurrent": true
        },
        {
          "mpId": 4324,
          "mpName": "Искрен Николаев Митев",
          "role": "declared_stake",
          "isCurrent": true
        }
      ]
    },
    {
      "slug": "БраМарИс-ООД",
      "displayName": "\"БраМарИс\" ООД",
      "registeredOffice": "София",
      "mps": [
        {
          "mpId": 4324,
          "mpName": "Искрен Николаев Митев",
          "role": "declared_stake",
          "isCurrent": true
        }
      ]
    },
    {
      "slug": "Елеборейт-ЕООД",
      "displayName": "\"Елеборейт\" ЕООД",
      "registeredOffice": "София (столица)",
      "mps": [
        {
          "mpId": 3796,
          "mpName": "Николай Георгиев Ангов",
          "role": "manager",
          "isCurrent": true
        },
        {
          "mpId": 3796,
          "mpName": "Николай Георгиев Ангов",
          "role": "declared_stake",
          "isCurrent": true
        },
        {
          "mpId": 4598,
          "mpName": "Венеция Огнянова Нецова-Ангова",
          "role": "declared_stake",
          "isCurrent": true
        }
      ]
    },
    {
      "slug": "Интер-солар-12-ЕООД",
      "displayName": "\"Интер солар 12\" ЕООД",
      "registeredOffice": "София",
      "mps": [
        {
          "mpId": 5081,
          "mpName": "Росица Любенова Кирова",
          "role": "declared_stake",
          "isCurrent": true
        }
      ]
    },
    {
      "slug": "Инфинитус-ЕООД",
      "displayName": "\"Инфинитус\" ЕООД",
      "registeredOffice": "София (столица)",
      "mps": [
        {
          "mpId": 4707,
          "mpName": "АНДРЕЙ ИВАНОВ ЦЕКОВ",
          "role": "declared_stake",
          "isCurrent": true
        }
      ]
    },
    {
      "slug": "Пропърти-Тръст-ЕООД",
      "displayName": "\"Пропърти Тръст\" ЕООД",
      "registeredOffice": "София (столица)",
      "mps": [
        {
          "mpId": 4707,
          "mpName": "АНДРЕЙ ИВАНОВ ЦЕКОВ",
          "role": "declared_stake",
          "isCurrent": true
        }
      ]
    },
    {
      "slug": "Адлон-плюс-ЕОД",
      "displayName": "Адлон плюс ЕОД",
      "registeredOffice": "София",
      "mps": [
        {
          "mpId": 3463,
          "mpName": "Димитър Борисов Главчев",
          "role": "declared_stake",
          "isCurrent": true
        }
      ]
    },
    {
      "slug": "Братя-Градеви-ООД",
      "displayName": "Братя Градеви ООД",
      "registeredOffice": "София (столица)",
      "mps": [
        {
          "mpId": 5159,
          "mpName": "Димо Георгиев Дренчев",
          "role": "manager",
          "isCurrent": true
        },
        {
          "mpId": 4223,
          "mpName": "Николай Георгиев Дренчев",
          "role": "declared_stake",
          "isCurrent": true
        },
        {
          "mpId": 5159,
          "mpName": "Димо Георгиев Дренчев",
          "role": "declared_stake",
          "isCurrent": true
        }
      ]
    },
    {
      "slug": "Глобъл-солюшънс-България-(ГСБ)",
      "displayName": "Глобъл солюшънс - България (ГСБ)",
      "registeredOffice": "София (столица)",
      "mps": [
        {
          "mpId": 5335,
          "mpName": "Христо Георгиев Гаджев",
          "role": "declared_stake",
          "isCurrent": true
        }
      ]
    },
    {
      "slug": "Ди-Ес-Ай-ООД",
      "displayName": "Ди Ес Ай ООД",
      "registeredOffice": "София (столица)",
      "mps": [
        {
          "mpId": 5244,
          "mpName": "ИВАЙЛО НИКОЛАЕВ МИРЧЕВ",
          "role": "declared_stake",
          "isCurrent": true
        }
      ]
    },
    {
      "slug": "Ди-Ес-Джи-Прадъкшънс-ООД",
      "displayName": "Ди Ес Джи Прадъкшънс ООД",
      "registeredOffice": "София (столица)",
      "mps": [
        {
          "mpId": 5173,
          "mpName": "Любен Любенов Дилов",
          "role": "declared_stake",
          "isCurrent": true
        }
      ]
    },
    {
      "slug": "ДФ-ЦКБ-Прайвит",
      "displayName": "ДФ ЦКБ Прайвит",
      "registeredOffice": "София",
      "mps": [
        {
          "mpId": 4266,
          "mpName": "Ахмед Реджебов Ахмедов",
          "role": "declared_stake",
          "isCurrent": true
        }
      ]
    },
    {
      "slug": "Ей-Кей-Дивелъпмънт-ЕООД",
      "displayName": "Ей Кей Дивелъпмънт ЕООД",
      "registeredOffice": "София (столица)",
      "mps": [
        {
          "mpId": 3254,
          "mpName": "Атанас Петров Костадинов",
          "role": "declared_stake",
          "isCurrent": true
        }
      ]
    },
    {
      "slug": "Елевато-ЕООД",
      "displayName": "Елевато ЕООД",
      "registeredOffice": "София (столица)",
      "mps": [
        {
          "mpId": 5072,
          "mpName": "Йордан Ивов Терзийски",
          "role": "partner",
          "isCurrent": true
        },
        {
          "mpId": 5072,
          "mpName": "Йордан Ивов Терзийски",
          "role": "declared_stake",
          "isCurrent": true
        }
      ]
    },
    {
      "slug": "Марк-хелт-консулт-ООД",
      "displayName": "Марк - хелт консулт ООД",
      "registeredOffice": "София (столица)",
      "mps": [
        {
          "mpId": 4841,
          "mpName": "Васил Христов Пандов",
          "role": "declared_stake",
          "isCurrent": true
        }
      ]
    },
    {
      "slug": "МГ-Консултинг-ЕООД",
      "displayName": "МГ Консултинг ЕООД",
      "registeredOffice": "София (столица)",
      "mps": [
        {
          "mpId": 3993,
          "mpName": "Георги Станчев Георгиев",
          "role": "manager",
          "isCurrent": true
        },
        {
          "mpId": 3993,
          "mpName": "Георги Станчев Георгиев",
          "role": "declared_stake",
          "isCurrent": true
        }
      ]
    }
  ]
}