{
  "ekatte": "68134",
  "page": 12,
  "totalPages": 16,
  "count": 794,
  "companies": [
    {
      "slug": "Глобал-Джобс-Нетуърк",
      "displayName": "Глобал Джобс Нетуърк",
      "registeredOffice": "БЪЛГАРИЯ, гр. София, 1000",
      "mps": [
        {
          "mpId": 5245,
          "mpName": "Мартин Димитров Димитров",
          "role": "manager",
          "isCurrent": true
        }
      ]
    },
    {
      "slug": "Графит-Интернешънъл",
      "displayName": "Графит Интернешънъл",
      "registeredOffice": "БЪЛГАРИЯ, гр. София, 1700",
      "mps": [
        {
          "mpId": 4925,
          "mpName": "Мюмюн Сали Мюмюн",
          "role": "sole_owner",
          "isCurrent": true
        }
      ]
    },
    {
      "slug": "Грийн-касъл-ЕООД",
      "displayName": "Грийн касъл ЕООД",
      "registeredOffice": "СОФИЯ",
      "mps": [
        {
          "mpId": 4925,
          "mpName": "МЮМЮН САЛИ МЮМЮН",
          "role": "declared_stake",
          "isCurrent": true
        }
      ]
    },
    {
      "slug": "Дантелети",
      "displayName": "Дантелети",
      "registeredOffice": "София",
      "mps": [
        {
          "mpId": 4935,
          "mpName": "СНЕЖАНКА РАЙЧОВА ТРАЯНСКА",
          "role": "declared_stake",
          "isCurrent": true
        }
      ]
    },
    {
      "slug": "ДАРУ-КАР",
      "displayName": "ДАРУ КАР",
      "registeredOffice": "БЪЛГАРИЯ, гр. София, 1592",
      "mps": [
        {
          "mpId": 594,
          "mpName": "Бриго Христофоров Аспарухов",
          "role": "director",
          "isCurrent": true
        }
      ]
    },
    {
      "slug": "ДАТА-ИНТЕНСИВ",
      "displayName": "ДАТА ИНТЕНСИВ",
      "registeredOffice": "БЪЛГАРИЯ, гр. София, 1111",
      "mps": [
        {
          "mpId": 3625,
          "mpName": "Йордан Янков Маджунков",
          "role": "manager",
          "isCurrent": true
        }
      ]
    },
    {
      "slug": "ДВИЖЕНИЕ-ГРАЖДАНСКИ-МЕГДАН",
      "displayName": "ДВИЖЕНИЕ \"ГРАЖДАНСКИ МЕГДАН\"",
      "registeredOffice": "БЪЛГАРИЯ, гр. София, 1303",
      "mps": [
        {
          "mpId": 3694,
          "mpName": "Атанас Димитров Михнев",
          "role": "ngo_board",
          "isCurrent": true
        }
      ]
    },
    {
      "slug": "ДЕЙТАЛИНКС",
      "displayName": "ДЕЙТАЛИНКС",
      "registeredOffice": "БЪЛГАРИЯ, гр. София, 1504",
      "mps": [
        {
          "mpId": 5088,
          "mpName": "Михаил Ивов Михайлов",
          "role": "director",
          "isCurrent": true
        }
      ]
    },
    {
      "slug": "ДЕМОКРАЦИЯ",
      "displayName": "ДЕМОКРАЦИЯ",
      "registeredOffice": "БЪЛГАРИЯ, гр. София, 1202",
      "mps": [
        {
          "mpId": 1026,
          "mpName": "Екатерина Иванова Михайлова",
          "role": "ngo_board",
          "isCurrent": true
        }
      ]
    },
    {
      "slug": "ДЖЕЙ-ЕМ-ПРОПЕРТИС",
      "displayName": "ДЖЕЙ ЕМ ПРОПЕРТИС",
      "registeredOffice": "БЪЛГАРИЯ, гр. София, 1303",
      "mps": [
        {
          "mpId": 4295,
          "mpName": "Настимир Ананиев Ананиев",
          "role": "sole_owner",
          "isCurrent": true
        }
      ]
    },
    {
      "slug": "ДЖЕЙ-ЕНД-КЕЙ",
      "displayName": "ДЖЕЙ ЕНД КЕЙ",
      "registeredOffice": "БЪЛГАРИЯ, гр. София",
      "mps": [
        {
          "mpId": 5245,
          "mpName": "Мартин Димитров Димитров",
          "role": "manager",
          "isCurrent": true
        }
      ]
    },
    {
      "slug": "Ди-Ес-Джи-Продъкшънс-ООД",
      "displayName": "Ди Ес Джи Продъкшънс  ООД",
      "registeredOffice": "София (столица)",
      "mps": [
        {
          "mpId": 5173,
          "mpName": "Любен Любенов Дилов",
          "role": "declared_stake",
          "isCurrent": true
        }
      ]
    },
    {
      "slug": "Ди-Ес-Ти-медия",
      "displayName": "Ди Ес Ти медия",
      "registeredOffice": "София",
      "mps": [
        {
          "mpId": 4723,
          "mpName": "Тошко Йорданов Хаджитодоров",
          "role": "declared_stake",
          "isCurrent": true
        }
      ]
    },
    {
      "slug": "ДИО-2020-ЕООД",
      "displayName": "ДИО 2020 ЕООД",
      "registeredOffice": "СОФИЯ",
      "mps": [
        {
          "mpId": 5012,
          "mpName": "Иван Данаилов Иванов",
          "role": "declared_stake",
          "isCurrent": true
        }
      ]
    },
    {
      "slug": "Дрийм-Мейкър-Студиос",
      "displayName": "Дрийм Мейкър Студиос",
      "registeredOffice": "БЪЛГАРИЯ, гр. София, 1000",
      "mps": [
        {
          "mpId": 191,
          "mpName": "Даниел Василев Вълчев",
          "role": "actual_owner",
          "isCurrent": true
        }
      ]
    },
    {
      "slug": "ЕВОЛАНС",
      "displayName": "ЕВОЛАНС",
      "registeredOffice": "БЪЛГАРИЯ, гр. София, 1505",
      "mps": [
        {
          "mpId": 155,
          "mpName": "Олег Григоров Попов",
          "role": "partner",
          "isCurrent": true
        }
      ]
    },
    {
      "slug": "Евро-треййд-94-ЕООД",
      "displayName": "Евро треййд 94 ЕООД",
      "registeredOffice": "София",
      "mps": [
        {
          "mpId": 3047,
          "mpName": "НИКОЛА ХРИСТОВ КРЪСТЕВ",
          "role": "declared_stake",
          "isCurrent": true
        }
      ]
    },
    {
      "slug": "Европейска-ИТ-Фирма-БГ",
      "displayName": "Европейска ИТ Фирма БГ",
      "registeredOffice": "БЪЛГАРИЯ, гр. София, 1000",
      "mps": [
        {
          "mpId": 3783,
          "mpName": "Благовест Кирилов Кирилов",
          "role": "partner",
          "isCurrent": true
        }
      ]
    },
    {
      "slug": "ЕВРОПЕЙСКИ-ЦИФРОВ-ИНОВАЦИОНЕН-ХЪБ-В-СЕКТОР-СТРОИТЕЛСТВО",
      "displayName": "ЕВРОПЕЙСКИ ЦИФРОВ ИНОВАЦИОНЕН ХЪБ В СЕКТОР СТРОИТЕЛСТВО",
      "registeredOffice": "БЪЛГАРИЯ, гр. София, 1784",
      "mps": [
        {
          "mpId": 221,
          "mpName": "Борислав Георгиев Владимиров",
          "role": "ngo_board",
          "isCurrent": true
        }
      ]
    },
    {
      "slug": "Евроскай-трейдинг-ООД",
      "displayName": "Евроскай трейдинг ООД",
      "registeredOffice": "София (столица)",
      "mps": [
        {
          "mpId": 5153,
          "mpName": "ИВАЙЛО ВАЛЕНТИНОВ ШОТЕВ",
          "role": "declared_stake",
          "isCurrent": true
        }
      ]
    },
    {
      "slug": "ЕКОКОНСУЛТ-ГП",
      "displayName": "ЕКОКОНСУЛТ ГП",
      "registeredOffice": "БЪЛГАРИЯ, гр. София, 1612",
      "mps": [
        {
          "mpId": 155,
          "mpName": "Олег Григоров Попов",
          "role": "partner",
          "isCurrent": false
        }
      ]
    },
    {
      "slug": "Екотехпродукт-ООД",
      "displayName": "Екотехпродукт ООД",
      "registeredOffice": "София (столица)",
      "mps": [
        {
          "mpId": 4059,
          "mpName": "Цветелина Калинова Симеонова-Заркин",
          "role": "declared_stake",
          "isCurrent": true
        }
      ]
    },
    {
      "slug": "ЕКУИТШЕЪР",
      "displayName": "ЕКУИТШЕЪР",
      "registeredOffice": "БЪЛГАРИЯ, гр. София, 1797",
      "mps": [
        {
          "mpId": 3466,
          "mpName": "Димитър Андреев Делчев",
          "role": "partner",
          "isCurrent": true
        }
      ]
    },
    {
      "slug": "ЕЛ-ЕС-АЙ-ПИ-АР",
      "displayName": "ЕЛ ЕС АЙ ПИ АР",
      "registeredOffice": "БЪЛГАРИЯ, гр. София, 1000",
      "mps": [
        {
          "mpId": 5139,
          "mpName": "Александра Красимирова Стеркова",
          "role": "manager",
          "isCurrent": true
        }
      ]
    },
    {
      "slug": "ЕМ-ЕНД-ДИ-ПРОДЖЕКТ",
      "displayName": "ЕМ ЕНД ДИ ПРОДЖЕКТ",
      "registeredOffice": "БЪЛГАРИЯ, гр. София, 1407",
      "mps": [
        {
          "mpId": 908,
          "mpName": "Димитър Йорданов Чукарски",
          "role": "partner",
          "isCurrent": true
        }
      ]
    },
    {
      "slug": "ЕНЕРГИЙНА-КОМПАНИЯ-БОНЕВ",
      "displayName": "ЕНЕРГИЙНА КОМПАНИЯ БОНЕВ",
      "registeredOffice": "БЪЛГАРИЯ, гр. София, 1407",
      "mps": [
        {
          "mpId": 3226,
          "mpName": "Петър Атанасов Курумбашев",
          "role": "manager",
          "isCurrent": true
        }
      ]
    },
    {
      "slug": "ЕНЕРДЖИ-ХОРАЙЗОНС",
      "displayName": "ЕНЕРДЖИ ХОРАЙЗОНС",
      "registeredOffice": "БЪЛГАРИЯ, гр. София, 1000",
      "mps": [
        {
          "mpId": 4430,
          "mpName": "Ивайло Ангелов Иванов",
          "role": "manager",
          "isCurrent": false
        }
      ]
    },
    {
      "slug": "ЕНИКАЙ-ТРЕЙД",
      "displayName": "ЕНИКАЙ ТРЕЙД",
      "registeredOffice": "БЪЛГАРИЯ, гр. София, 1387",
      "mps": [
        {
          "mpId": 4152,
          "mpName": "Иво Георгиев Русчев",
          "role": "partner",
          "isCurrent": true
        }
      ]
    },
    {
      "slug": "Епикс.аи",
      "displayName": "Епикс.аи",
      "registeredOffice": "БЪЛГАРИЯ, гр. София, 1407",
      "mps": [
        {
          "mpId": 9,
          "mpName": "Соломон Исак Паси",
          "role": "partner",
          "isCurrent": false
        }
      ]
    },
    {
      "slug": "ЕРОУ-МОБИЛИТИ",
      "displayName": "ЕРОУ МОБИЛИТИ",
      "registeredOffice": "БЪЛГАРИЯ, гр. София, 1000",
      "mps": [
        {
          "mpId": 607,
          "mpName": "Мирослав Петров Севлиевски",
          "role": "partner",
          "isCurrent": false
        }
      ]
    },
    {
      "slug": "Ес-Джи-Ес-Инвестмънт",
      "displayName": "Ес Джи Ес Инвестмънт",
      "registeredOffice": "БЪЛГАРИЯ, гр. София, 1612",
      "mps": [
        {
          "mpId": 237,
          "mpName": "Светослав Иванов Спасов",
          "role": "sole_owner",
          "isCurrent": true
        }
      ]
    },
    {
      "slug": "Живата-вода-на-България",
      "displayName": "Живата вода на България",
      "registeredOffice": "БЪЛГАРИЯ, гр. София, 1404",
      "mps": [
        {
          "mpId": 5114,
          "mpName": "Павлина Ангелова Ковачева",
          "role": "ngo_board",
          "isCurrent": true
        }
      ]
    },
    {
      "slug": "ЗА-ИНСУЛИНОВИТЕ-ПОМПИ",
      "displayName": "ЗА ИНСУЛИНОВИТЕ ПОМПИ",
      "registeredOffice": "БЪЛГАРИЯ, гр. София, 1574",
      "mps": [
        {
          "mpId": 4371,
          "mpName": "Росица Василева Пандова-Йовкова",
          "role": "ngo_board",
          "isCurrent": true
        }
      ]
    },
    {
      "slug": "ЗАедно-2022",
      "displayName": "ЗАедно 2022",
      "registeredOffice": "БЪЛГАРИЯ, гр. София, 1756",
      "mps": [
        {
          "mpId": 5322,
          "mpName": "Александра Павлова Ангелакова",
          "role": "manager",
          "isCurrent": true
        }
      ]
    },
    {
      "slug": "ЗАЕДНО-В-ЧАС",
      "displayName": "ЗАЕДНО В ЧАС",
      "registeredOffice": "БЪЛГАРИЯ, гр. София, 1124",
      "mps": [
        {
          "mpId": 5291,
          "mpName": "Николай Денков Денков",
          "role": "ngo_board",
          "isCurrent": true
        }
      ]
    },
    {
      "slug": "Заркини-ГЛАС.КО-ООД",
      "displayName": "Заркини - ГЛАС.КО ООД",
      "registeredOffice": "София",
      "mps": [
        {
          "mpId": 4059,
          "mpName": "Цветелина Калинова Симеонова-Заркин",
          "role": "declared_stake",
          "isCurrent": true
        }
      ]
    },
    {
      "slug": "Зона-21-ООД",
      "displayName": "Зона 21 ООД",
      "registeredOffice": "София",
      "mps": [
        {
          "mpId": 4106,
          "mpName": "ИЛИНА СИМЕОНОВА МУТАФЧИЕВА",
          "role": "declared_stake",
          "isCurrent": true
        }
      ]
    },
    {
      "slug": "и-ЕМ-ПИ-Инвест-България-АД",
      "displayName": "и ЕМ ПИ Инвест България АД",
      "registeredOffice": "София (столица)",
      "mps": [
        {
          "mpId": 3931,
          "mpName": "Иван Маркос Христанов",
          "role": "declared_stake",
          "isCurrent": true
        }
      ]
    },
    {
      "slug": "Иберанн",
      "displayName": "Иберанн",
      "registeredOffice": "София (столица)",
      "mps": [
        {
          "mpId": 2960,
          "mpName": "АННА НИКОЛАЕВА СЛАВОВА",
          "role": "declared_stake",
          "isCurrent": true
        }
      ]
    },
    {
      "slug": "ИВЕ-2024",
      "displayName": "ИВЕ 2024",
      "registeredOffice": "БЪЛГАРИЯ, гр. София, 1407",
      "mps": [
        {
          "mpId": 5113,
          "mpName": "Георги Иванов Георгиев",
          "role": "manager",
          "isCurrent": true
        }
      ]
    },
    {
      "slug": "ИЕМДИАР-БЪЛГАРИЯ",
      "displayName": "ИЕМДИАР БЪЛГАРИЯ",
      "registeredOffice": "БЪЛГАРИЯ, гр. София, 1784",
      "mps": [
        {
          "mpId": 4221,
          "mpName": "Ирена Тодорова Анастасова",
          "role": "ngo_board",
          "isCurrent": true
        }
      ]
    },
    {
      "slug": "ИЗДАТЕЛСТВО-ЗАХАРИ-СТОЯНОВ",
      "displayName": "ИЗДАТЕЛСТВО ЗАХАРИ СТОЯНОВ",
      "registeredOffice": "БЪЛГАРИЯ, гр. София, 1407",
      "mps": [
        {
          "mpId": 3537,
          "mpName": "Иван Йорданов Димитров",
          "role": "manager",
          "isCurrent": true
        }
      ]
    },
    {
      "slug": "ИЗПРАВИ-СЕ-БГ",
      "displayName": "ИЗПРАВИ СЕ БГ",
      "registeredOffice": "БЪЛГАРИЯ, гр. София, 1000",
      "mps": [
        {
          "mpId": 3252,
          "mpName": "Мая Божидарова Манолова-Найденова",
          "role": "ngo_board",
          "isCurrent": true
        }
      ]
    },
    {
      "slug": "ИМПАЛА-ЕНЕРДЖИ",
      "displayName": "ИМПАЛА ЕНЕРДЖИ",
      "registeredOffice": "БЪЛГАРИЯ, гр. София, 1407",
      "mps": [
        {
          "mpId": 3226,
          "mpName": "Петър Атанасов Курумбашев",
          "role": "manager",
          "isCurrent": true
        }
      ]
    },
    {
      "slug": "ИНВЕСТМЕНТ-ПРОПЪРТИ",
      "displayName": "ИНВЕСТМЕНТ ПРОПЪРТИ",
      "registeredOffice": "БЪЛГАРИЯ, гр. София, 1000",
      "mps": [
        {
          "mpId": 64,
          "mpName": "Лидия Сантова Шулева",
          "role": "manager",
          "isCurrent": true
        }
      ]
    },
    {
      "slug": "ИНСТИТУТ-ЗА-ДЕМОКРАЦИЯ-И-СТАБИЛНОСТ-В-ЮГОИЗТОЧНА-ЕВРОПА",
      "displayName": "ИНСТИТУТ ЗА ДЕМОКРАЦИЯ И СТАБИЛНОСТ В ЮГОИЗТОЧНА ЕВРОПА",
      "registeredOffice": "БЪЛГАРИЯ, София, 1000",
      "mps": [
        {
          "mpId": 4726,
          "mpName": "Николай Стефанов Радулов",
          "role": "ngo_board",
          "isCurrent": true
        }
      ]
    },
    {
      "slug": "Институт-за-Изкуствен-Интелект",
      "displayName": "Институт за Изкуствен Интелект",
      "registeredOffice": "БЪЛГАРИЯ, гр. София, 1124",
      "mps": [
        {
          "mpId": 3466,
          "mpName": "Димитър Андреев Делчев",
          "role": "ngo_board",
          "isCurrent": true
        }
      ]
    },
    {
      "slug": "ИНСТИТУТ-ПЕРСПЕКТИВА-ЗА-БЪЛГАРИЯ",
      "displayName": "ИНСТИТУТ ПЕРСПЕКТИВА ЗА БЪЛГАРИЯ",
      "registeredOffice": "БЪЛГАРИЯ, гр. София, 1000",
      "mps": [
        {
          "mpId": 5192,
          "mpName": "Христо Симеонов Симеонов",
          "role": "ngo_board",
          "isCurrent": true
        }
      ]
    },
    {
      "slug": "Интегрите-Европа-ООД",
      "displayName": "Интегрите Европа ООД",
      "registeredOffice": "София (столица)",
      "mps": [
        {
          "mpId": 4707,
          "mpName": "Андрей Иванов Цеков",
          "role": "declared_stake",
          "isCurrent": true
        }
      ]
    },
    {
      "slug": "ИНТЕЛЕКТА-ГРУП",
      "displayName": "ИНТЕЛЕКТА ГРУП",
      "registeredOffice": "БЪЛГАРИЯ, гр. София, 1359",
      "mps": [
        {
          "mpId": 3914,
          "mpName": "Инна Владимирова Иванова",
          "role": "partner",
          "isCurrent": true
        }
      ]
    }
  ]
}