{
  "ekatte": "68134",
  "page": 3,
  "totalPages": 16,
  "count": 794,
  "companies": [
    {
      "slug": "Тенис-рашеви-ООД",
      "displayName": "\"Тенис рашеви\" ООД",
      "registeredOffice": "София (столица)",
      "mps": [
        {
          "mpId": 4705,
          "mpName": "Александър Викторов Рашев",
          "role": "partner",
          "isCurrent": true
        },
        {
          "mpId": 4705,
          "mpName": "Александър Викторов Рашев",
          "role": "declared_stake",
          "isCurrent": true
        }
      ]
    },
    {
      "slug": "&quot;БЪЛГАРО-САУДИТСКА-ТЪРГОВСКА-КАМАРА&quot;",
      "displayName": "&quot;БЪЛГАРО-САУДИТСКА ТЪРГОВСКА КАМАРА&quot;",
      "registeredOffice": "БЪЛГАРИЯ, гр. София, 1000",
      "mps": [
        {
          "mpId": 1791,
          "mpName": "Димитър Иванов Абаджиев",
          "role": "ngo_board",
          "isCurrent": true
        },
        {
          "mpId": 1791,
          "mpName": "Димитър Иванов Абаджиев",
          "role": "ngo_representative",
          "isCurrent": true
        },
        {
          "mpId": 3101,
          "mpName": "Ивелина Веселинова Василева",
          "role": "ngo_board",
          "isCurrent": true
        }
      ]
    },
    {
      "slug": "Алгафари-Ентъртейнмънт-ЕООД",
      "displayName": "Алгафари Ентъртейнмънт ЕООД",
      "registeredOffice": "София (столица)",
      "mps": [
        {
          "mpId": 4830,
          "mpName": "Николай Нидал Алгафари",
          "role": "declared_stake",
          "isCurrent": true
        }
      ]
    },
    {
      "slug": "Алгафари-ООД",
      "displayName": "Алгафари ООД",
      "registeredOffice": "София (столица)",
      "mps": [
        {
          "mpId": 4830,
          "mpName": "Николай Нидал Алгафари",
          "role": "declared_stake",
          "isCurrent": true
        }
      ]
    },
    {
      "slug": "Алзак-ЕООД",
      "displayName": "Алзак ЕООД",
      "registeredOffice": "София (столица)",
      "mps": [
        {
          "mpId": 4830,
          "mpName": "Николай Нидал Алгафари",
          "role": "declared_stake",
          "isCurrent": true
        }
      ]
    },
    {
      "slug": "АНБ-Инфра-инженеринг",
      "displayName": "АНБ Инфра инженеринг",
      "registeredOffice": "София (столица)",
      "mps": [
        {
          "mpId": 4879,
          "mpName": "Танер Мехмед Али",
          "role": "partner",
          "isCurrent": true
        },
        {
          "mpId": 4879,
          "mpName": "ТАНЕР МЕХМЕД АЛИ",
          "role": "declared_stake",
          "isCurrent": true
        }
      ]
    },
    {
      "slug": "АТЛАНТИЧЕСКИ-КЛЪСТЕР-&quot;КОСМОС-ИЗПРЕВАРВАМЕ-БЪДЕЩЕТО&quot;",
      "displayName": "АТЛАНТИЧЕСКИ КЛЪСТЕР &quot;КОСМОС-ИЗПРЕВАРВАМЕ БЪДЕЩЕТО&quot;",
      "registeredOffice": "БЪЛГАРИЯ, гр. София, 1404",
      "mps": [
        {
          "mpId": 3360,
          "mpName": "Велизар Матеев Шаламанов",
          "role": "ngo_board",
          "isCurrent": true
        },
        {
          "mpId": 9,
          "mpName": "Соломон Исак Паси",
          "role": "ngo_representative",
          "isCurrent": true
        },
        {
          "mpId": 9,
          "mpName": "Соломон Исак Паси",
          "role": "ngo_board",
          "isCurrent": true
        }
      ]
    },
    {
      "slug": "ББ-Партнерс-ЕООД",
      "displayName": "ББ Партнерс ЕООД",
      "registeredOffice": "София (столица)",
      "mps": [
        {
          "mpId": 4295,
          "mpName": "Настимир Ананиев Ананиев",
          "role": "declared_stake",
          "isCurrent": true
        }
      ]
    },
    {
      "slug": "Бешка-ООД",
      "displayName": "Бешка ООД",
      "registeredOffice": "София (столица)",
      "mps": [
        {
          "mpId": 4997,
          "mpName": "Иван Руменов Клисурски",
          "role": "manager",
          "isCurrent": true
        },
        {
          "mpId": 4997,
          "mpName": "Иван Руменов Клисурски",
          "role": "partner",
          "isCurrent": true
        },
        {
          "mpId": 4997,
          "mpName": "Иван Руменов Клисурски",
          "role": "declared_stake",
          "isCurrent": true
        }
      ]
    },
    {
      "slug": "Бонафиде-Адвайзърс",
      "displayName": "Бонафиде Адвайзърс",
      "registeredOffice": "София",
      "mps": [
        {
          "mpId": 5128,
          "mpName": "Красимир Георгиев Вълчев",
          "role": "declared_stake",
          "isCurrent": true
        }
      ]
    },
    {
      "slug": "Боянски-Възход-ООД",
      "displayName": "Боянски Възход ООД",
      "registeredOffice": "гр.София",
      "mps": [
        {
          "mpId": 5215,
          "mpName": "Татяна Славова Султанова - Сивева",
          "role": "declared_stake",
          "isCurrent": true
        }
      ]
    },
    {
      "slug": "Брик-Инженеринг-ООД",
      "displayName": "Брик Инженеринг ООД",
      "registeredOffice": "гр.София",
      "mps": [
        {
          "mpId": 5215,
          "mpName": "Татяна Славова Султанова - Сивева",
          "role": "declared_stake",
          "isCurrent": true
        }
      ]
    },
    {
      "slug": "БЪЛГАРСКА-ИДЕЯ",
      "displayName": "БЪЛГАРСКА ИДЕЯ",
      "registeredOffice": "БЪЛГАРИЯ, София, 1000",
      "mps": [
        {
          "mpId": 233,
          "mpName": "Николай Петров Кънчев",
          "role": "ngo_representative",
          "isCurrent": true
        },
        {
          "mpId": 2829,
          "mpName": "Красимир Дончев Каракачанов",
          "role": "ngo_representative",
          "isCurrent": true
        },
        {
          "mpId": 2829,
          "mpName": "Красимир Дончев Каракачанов",
          "role": "ngo_board",
          "isCurrent": true
        }
      ]
    },
    {
      "slug": "Български-ВиК-холдинг",
      "displayName": "Български ВиК холдинг",
      "registeredOffice": "БЪЛГАРИЯ, гр. София, 1000",
      "mps": [
        {
          "mpId": 2822,
          "mpName": "Любомир Бойков Бонев",
          "role": "director",
          "isCurrent": true
        },
        {
          "mpId": 3799,
          "mpName": "Лозко Стефанов Лозев",
          "role": "representative",
          "isCurrent": true
        },
        {
          "mpId": 4809,
          "mpName": "Манол Трифонов Генов",
          "role": "director",
          "isCurrent": true
        }
      ]
    },
    {
      "slug": "Ви-Ви-Ай-Инвестмънт",
      "displayName": "Ви Ви Ай Инвестмънт",
      "registeredOffice": "БЪЛГАРИЯ, гр. София, 1000",
      "mps": [
        {
          "mpId": 2804,
          "mpName": "Ивайло Любенов Константинов",
          "role": "director",
          "isCurrent": true
        },
        {
          "mpId": 933,
          "mpName": "Владислав Евгениев Димитров",
          "role": "representative",
          "isCurrent": true
        },
        {
          "mpId": 933,
          "mpName": "Владислав Евгениев Димитров",
          "role": "director",
          "isCurrent": true
        }
      ]
    },
    {
      "slug": "ГроутКонсулт",
      "displayName": "ГроутКонсулт",
      "registeredOffice": "БЪЛГАРИЯ, гр. София, 1421",
      "mps": [
        {
          "mpId": 3537,
          "mpName": "Иван Йорданов Димитров",
          "role": "manager",
          "isCurrent": true
        },
        {
          "mpId": 3537,
          "mpName": "Иван Йорданов Димитров",
          "role": "partner",
          "isCurrent": true
        },
        {
          "mpId": 3537,
          "mpName": "Иван Йорданов Димитров",
          "role": "sole_owner",
          "isCurrent": false
        }
      ]
    },
    {
      "slug": "Демарко-ЕООД",
      "displayName": "Демарко ЕООД",
      "registeredOffice": "София (столица)",
      "mps": [
        {
          "mpId": 4295,
          "mpName": "Настимир Ананиев Ананиев",
          "role": "declared_stake",
          "isCurrent": true
        }
      ]
    },
    {
      "slug": "Джи-енд-джи-естейт-ООД",
      "displayName": "Джи енд джи естейт ООД",
      "registeredOffice": "София (столица)",
      "mps": [
        {
          "mpId": 2669,
          "mpName": "Теодора Радкова Георгиева",
          "role": "manager",
          "isCurrent": true
        },
        {
          "mpId": 2669,
          "mpName": "Теодора Радкова Георгиева",
          "role": "declared_stake",
          "isCurrent": true
        }
      ]
    },
    {
      "slug": "Дивото-ни-зове",
      "displayName": "Дивото ни зове",
      "registeredOffice": "БЪЛГАРИЯ, гр. София, 1700",
      "mps": [
        {
          "mpId": 3635,
          "mpName": "Гергана Кузманова Данева",
          "role": "manager",
          "isCurrent": true
        },
        {
          "mpId": 3635,
          "mpName": "Гергана Кузманова Данева",
          "role": "sole_owner",
          "isCurrent": true
        },
        {
          "mpId": 3635,
          "mpName": "Гергана Кузманова Данева",
          "role": "partner",
          "isCurrent": false
        }
      ]
    },
    {
      "slug": "ДОБРА-МЕДИЦИНСКА-ПРАКТИКА",
      "displayName": "ДОБРА МЕДИЦИНСКА ПРАКТИКА",
      "registeredOffice": "БЪЛГАРИЯ, гр. София, 1303",
      "mps": [
        {
          "mpId": 164,
          "mpName": "Атанас Димитров Щерев",
          "role": "actual_owner",
          "isCurrent": true
        },
        {
          "mpId": 739,
          "mpName": "Недялко Иванов Калъчев",
          "role": "actual_owner",
          "isCurrent": true
        },
        {
          "mpId": 739,
          "mpName": "Недялко Иванов Калъчев",
          "role": "director",
          "isCurrent": true
        }
      ]
    },
    {
      "slug": "Евро-кънстракшънс-ЕООД",
      "displayName": "Евро кънстракшънс ЕООД",
      "registeredOffice": "София (столица)",
      "mps": [
        {
          "mpId": 2669,
          "mpName": "Теодора Радкова Георгиева",
          "role": "manager",
          "isCurrent": true
        },
        {
          "mpId": 2669,
          "mpName": "Теодора Радкова Георгиева",
          "role": "declared_stake",
          "isCurrent": true
        }
      ]
    },
    {
      "slug": "Ей-Ай-Тех",
      "displayName": "Ей Ай Тех",
      "registeredOffice": "БЪЛГАРИЯ, гр. София, 1415",
      "mps": [
        {
          "mpId": 5245,
          "mpName": "Мартин Димитров Димитров",
          "role": "sole_owner",
          "isCurrent": true
        },
        {
          "mpId": 5245,
          "mpName": "Мартин Димитров Димитров",
          "role": "manager",
          "isCurrent": true
        },
        {
          "mpId": 5245,
          "mpName": "Мартин Димитров Димитров",
          "role": "partner",
          "isCurrent": false
        }
      ]
    },
    {
      "slug": "Електрофикс-ООД",
      "displayName": "Електрофикс ООД",
      "registeredOffice": "гр.София",
      "mps": [
        {
          "mpId": 5215,
          "mpName": "Татяна Славова Султанова - Сивева",
          "role": "declared_stake",
          "isCurrent": true
        }
      ]
    },
    {
      "slug": "ЕЛИДИС-СОЛАР-АЛФА",
      "displayName": "ЕЛИДИС СОЛАР АЛФА",
      "registeredOffice": "БЪЛГАРИЯ, гр. София, 1142",
      "mps": [
        {
          "mpId": 2355,
          "mpName": "Светлин Димитров Танчев",
          "role": "actual_owner",
          "isCurrent": true
        },
        {
          "mpId": 2355,
          "mpName": "Светлин Димитров Танчев",
          "role": "representative",
          "isCurrent": true
        },
        {
          "mpId": 2355,
          "mpName": "Светлин Димитров Танчев",
          "role": "director",
          "isCurrent": true
        }
      ]
    },
    {
      "slug": "ЕСП-ЕЛИДИС-СОЛАР-ПАРК",
      "displayName": "ЕСП-ЕЛИДИС СОЛАР ПАРК",
      "registeredOffice": "БЪЛГАРИЯ, гр. София, 1000",
      "mps": [
        {
          "mpId": 2355,
          "mpName": "Светлин Димитров Танчев",
          "role": "actual_owner",
          "isCurrent": true
        },
        {
          "mpId": 2355,
          "mpName": "Светлин Димитров Танчев",
          "role": "manager",
          "isCurrent": true
        },
        {
          "mpId": 2355,
          "mpName": "Светлин Димитров Танчев",
          "role": "partner",
          "isCurrent": false
        }
      ]
    },
    {
      "slug": "Издателство-Гео-Милев",
      "displayName": "Издателство Гео Милев\"",
      "registeredOffice": "София",
      "mps": [
        {
          "mpId": 3537,
          "mpName": "Иван Йорданов Димитров",
          "role": "manager",
          "isCurrent": true
        },
        {
          "mpId": 3537,
          "mpName": "Иван Йорданов Димитров",
          "role": "declared_stake",
          "isCurrent": true
        }
      ]
    },
    {
      "slug": "ИНВЕСТ-ФОНД-МЕНИДЖМЪНТ",
      "displayName": "ИНВЕСТ ФОНД МЕНИДЖМЪНТ",
      "registeredOffice": "БЪЛГАРИЯ, гр. София, 1592",
      "mps": [
        {
          "mpId": 607,
          "mpName": "Мирослав Петров Севлиевски",
          "role": "actual_owner",
          "isCurrent": true
        },
        {
          "mpId": 607,
          "mpName": "Мирослав Петров Севлиевски",
          "role": "representative",
          "isCurrent": true
        },
        {
          "mpId": 607,
          "mpName": "Мирослав Петров Севлиевски",
          "role": "director",
          "isCurrent": true
        }
      ]
    },
    {
      "slug": "ИНОВЕЙШЪН-ЛАБ",
      "displayName": "ИНОВЕЙШЪН ЛАБ",
      "registeredOffice": "БЪЛГАРИЯ, гр. София, 1700",
      "mps": [
        {
          "mpId": 2701,
          "mpName": "Михаил Ивайлов Христов",
          "role": "manager",
          "isCurrent": true
        },
        {
          "mpId": 2701,
          "mpName": "Михаил Ивайлов Христов",
          "role": "sole_owner",
          "isCurrent": true
        },
        {
          "mpId": 2701,
          "mpName": "Михаил Ивайлов Христов",
          "role": "partner",
          "isCurrent": false
        }
      ]
    },
    {
      "slug": "ИНТ-ЕООД",
      "displayName": "ИНТ ЕООД",
      "registeredOffice": "София (столица)",
      "mps": [
        {
          "mpId": 5100,
          "mpName": "Делян Славчев Пеевски",
          "role": "declared_stake",
          "isCurrent": true
        }
      ]
    },
    {
      "slug": "Исторически-храни-и-напитки-ЕООД",
      "displayName": "Исторически храни и напитки ЕООД",
      "registeredOffice": "София (столица)",
      "mps": [
        {
          "mpId": 4434,
          "mpName": "Ирена Николаева Негинова",
          "role": "manager",
          "isCurrent": true
        },
        {
          "mpId": 4434,
          "mpName": "Ирена Николаева Негинова",
          "role": "sole_owner",
          "isCurrent": true
        },
        {
          "mpId": 4434,
          "mpName": "ИРЕНА НИКОЛАЕВА НЕГИНОВА",
          "role": "declared_stake",
          "isCurrent": true
        }
      ]
    },
    {
      "slug": "Итера-431-ЕООД",
      "displayName": "Итера 431 ЕООД",
      "registeredOffice": "София (столица)",
      "mps": [
        {
          "mpId": 3395,
          "mpName": "Арман Агоп Бабикян",
          "role": "declared_stake",
          "isCurrent": true
        }
      ]
    },
    {
      "slug": "Карадениз-Минералс-ООД",
      "displayName": "Карадениз Минералс ООД",
      "registeredOffice": "София (столица)",
      "mps": [
        {
          "mpId": 5224,
          "mpName": "Станислав Димитров Анастасов",
          "role": "declared_stake",
          "isCurrent": true
        }
      ]
    },
    {
      "slug": "Келтик-Проперти-Мениджмънт-ЕООД",
      "displayName": "Келтик Проперти Мениджмънт ЕООД",
      "registeredOffice": "София (столица)",
      "mps": [
        {
          "mpId": 4295,
          "mpName": "Настимир Ананиев Ананиев",
          "role": "declared_stake",
          "isCurrent": true
        }
      ]
    },
    {
      "slug": "Консулт-Г-ЕООД",
      "displayName": "Консулт Г ЕООД",
      "registeredOffice": "София (столица)",
      "mps": [
        {
          "mpId": 2669,
          "mpName": "Теодора Радкова Георгиева",
          "role": "manager",
          "isCurrent": true
        },
        {
          "mpId": 2669,
          "mpName": "Теодора Радкова Георгиева",
          "role": "declared_stake",
          "isCurrent": true
        }
      ]
    },
    {
      "slug": "Кю-Ем-Консултинг-ООД",
      "displayName": "Кю Ем Консултинг ООД",
      "registeredOffice": "София (столица)",
      "mps": [
        {
          "mpId": 4841,
          "mpName": "Васил Христов Пандов",
          "role": "declared_stake",
          "isCurrent": true
        }
      ]
    },
    {
      "slug": "Кю-Ем-Консултнг-ООД",
      "displayName": "Кю Ем Консултнг ООД",
      "registeredOffice": "София (столица)",
      "mps": [
        {
          "mpId": 4841,
          "mpName": "Васил Христов Пандов",
          "role": "declared_stake",
          "isCurrent": true
        }
      ]
    },
    {
      "slug": "Лазарис-ЕАД",
      "displayName": "Лазарис ЕАД",
      "registeredOffice": "София (столица)",
      "mps": [
        {
          "mpId": 3167,
          "mpName": "Илия Димитров Лазаров",
          "role": "declared_stake",
          "isCurrent": true
        }
      ]
    },
    {
      "slug": "Левис-Дивелопмънт-ООД",
      "displayName": "Левис Дивелопмънт ООД",
      "registeredOffice": "София (столица)",
      "mps": [
        {
          "mpId": 3466,
          "mpName": "Димитър Андреев Делчев",
          "role": "manager",
          "isCurrent": true
        },
        {
          "mpId": 3466,
          "mpName": "Димитър Андреев Делчев",
          "role": "declared_stake",
          "isCurrent": true
        }
      ]
    },
    {
      "slug": "ЛигълТрек",
      "displayName": "ЛигълТрек",
      "registeredOffice": "БЪЛГАРИЯ, гр. София, 1680",
      "mps": [
        {
          "mpId": 3694,
          "mpName": "Атанас Димитров Михнев",
          "role": "actual_owner",
          "isCurrent": true
        },
        {
          "mpId": 3694,
          "mpName": "Атанас Димитров Михнев",
          "role": "representative",
          "isCurrent": true
        },
        {
          "mpId": 3694,
          "mpName": "Атанас Димитров Михнев",
          "role": "director",
          "isCurrent": true
        }
      ]
    },
    {
      "slug": "Мадж.ио",
      "displayName": "Мадж.ио",
      "registeredOffice": "София (столица)",
      "mps": [
        {
          "mpId": 5229,
          "mpName": "Божидар Пламенов Божанов",
          "role": "declared_stake",
          "isCurrent": true
        }
      ]
    },
    {
      "slug": "Монна-Интернешънъл",
      "displayName": "Монна Интернешънъл",
      "registeredOffice": "БЪЛГАРИЯ, гр. София, 1574",
      "mps": [
        {
          "mpId": 3342,
          "mpName": "Юлиян Милчев Ненчев",
          "role": "sole_owner",
          "isCurrent": true
        },
        {
          "mpId": 3342,
          "mpName": "Юлиян Милчев Ненчев",
          "role": "manager",
          "isCurrent": true
        },
        {
          "mpId": 3342,
          "mpName": "Юлиян Милчев Ненчев",
          "role": "partner",
          "isCurrent": false
        }
      ]
    },
    {
      "slug": "НАПОИТЕЛНИ-СИСТЕМИ",
      "displayName": "НАПОИТЕЛНИ СИСТЕМИ",
      "registeredOffice": "БЪЛГАРИЯ, гр. София, 1186",
      "mps": [
        {
          "mpId": 4649,
          "mpName": "Генади Събков Събков",
          "role": "branch_manager",
          "isCurrent": true
        },
        {
          "mpId": 5198,
          "mpName": "Галин Неделчев Дурев",
          "role": "director",
          "isCurrent": true
        },
        {
          "mpId": 909,
          "mpName": "Емил Димитров Гущеров",
          "role": "director",
          "isCurrent": true
        }
      ]
    },
    {
      "slug": "Новосолар-ООД",
      "displayName": "Новосолар ООД",
      "registeredOffice": "СОФИЯ",
      "mps": [
        {
          "mpId": 4190,
          "mpName": "Калоян Тонев Икономов",
          "role": "partner",
          "isCurrent": true
        },
        {
          "mpId": 4190,
          "mpName": "КАЛОЯН ТОНЕВ ИКОНОМОВ",
          "role": "declared_stake",
          "isCurrent": true
        }
      ]
    },
    {
      "slug": "Орхание-1-ООД",
      "displayName": "Орхание 1 ООД",
      "registeredOffice": "София",
      "mps": [
        {
          "mpId": 3047,
          "mpName": "НИКОЛА ХРИСТОВ КРЪСТЕВ",
          "role": "declared_stake",
          "isCurrent": true
        }
      ]
    },
    {
      "slug": "Орхание-дистрибюшън-ООД",
      "displayName": "Орхание дистрибюшън ООД",
      "registeredOffice": "София",
      "mps": [
        {
          "mpId": 3047,
          "mpName": "НИКОЛА ХРИСТОВ КРЪСТЕВ",
          "role": "declared_stake",
          "isCurrent": true
        }
      ]
    },
    {
      "slug": "Психотерапевтични-и-консултантски-услуги-Александрова",
      "displayName": "Психотерапевтични и консултантски услуги Александрова",
      "registeredOffice": "БЪЛГАРИЯ, гр. София, 1434",
      "mps": [
        {
          "mpId": 2936,
          "mpName": "Миглена Дойкова Александрова",
          "role": "sole_owner",
          "isCurrent": true
        },
        {
          "mpId": 2936,
          "mpName": "Миглена Дойкова Александрова",
          "role": "manager",
          "isCurrent": true
        },
        {
          "mpId": 2936,
          "mpName": "Миглена Дойкова Александрова",
          "role": "partner",
          "isCurrent": false
        }
      ]
    },
    {
      "slug": "Раведас-ЕООД",
      "displayName": "Раведас ЕООД",
      "registeredOffice": "София (столица)",
      "mps": [
        {
          "mpId": 4252,
          "mpName": "Гроздан Спасов Караджов",
          "role": "declared_stake",
          "isCurrent": true
        }
      ]
    },
    {
      "slug": "РАЙЗЕН-ТЕХНОЛОДЖИ",
      "displayName": "РАЙЗЕН ТЕХНОЛОДЖИ",
      "registeredOffice": "БЪЛГАРИЯ, гр. София, 1407",
      "mps": [
        {
          "mpId": 1558,
          "mpName": "Доброслав Дилянов Димитров",
          "role": "director",
          "isCurrent": true
        },
        {
          "mpId": 1558,
          "mpName": "Доброслав Дилянов Димитров",
          "role": "actual_owner",
          "isCurrent": true
        },
        {
          "mpId": 1558,
          "mpName": "Доброслав Дилянов Димитров",
          "role": "representative",
          "isCurrent": true
        }
      ]
    },
    {
      "slug": "РЕНТ-ФИКС",
      "displayName": "РЕНТ ФИКС",
      "registeredOffice": "БЪЛГАРИЯ, гр. София, 1415",
      "mps": [
        {
          "mpId": 76,
          "mpName": "Валентин Николов Милтенов",
          "role": "manager",
          "isCurrent": true
        },
        {
          "mpId": 76,
          "mpName": "Валентин Николов Милтенов",
          "role": "partner",
          "isCurrent": true
        },
        {
          "mpId": 76,
          "mpName": "Валентин Николов Милтенов",
          "role": "sole_owner",
          "isCurrent": false
        }
      ]
    },
    {
      "slug": "РОДОЛЮБЦИ-ЗА-БЪЛГАРИЯ",
      "displayName": "РОДОЛЮБЦИ ЗА БЪЛГАРИЯ",
      "registeredOffice": "БЪЛГАРИЯ, гр. София, 1421",
      "mps": [
        {
          "mpId": 4465,
          "mpName": "Николай Георгиев Марков",
          "role": "ngo_representative",
          "isCurrent": true
        },
        {
          "mpId": 4465,
          "mpName": "Николай Георгиев Марков",
          "role": "ngo_board",
          "isCurrent": true
        },
        {
          "mpId": 5006,
          "mpName": "Ивелин Людмилов Михайлов",
          "role": "ngo_board",
          "isCurrent": true
        }
      ]
    }
  ]
}