{"ekatte":"68134","page":13,"totalPages":15,"count":718,"companies":[{"slug":"ПЛАТФОРМА-ГРАЖДАНСКИ-БЛОК","displayName":"ПЛАТФОРМА ГРАЖДАНСКИ БЛОК","registeredOffice":"БЪЛГАРИЯ, гр. София, 1202","mps":[{"mpId":2954,"mpName":"Лиляна Друмева Радева","role":"ngo_board","isCurrent":true}]},{"slug":"ПНЕВМО-ПОСТ","displayName":"ПНЕВМО ПОСТ","registeredOffice":"БЪЛГАРИЯ, гр. София, 1164","mps":[{"mpId":3658,"mpName":"Петър Ясенов Маринов","role":"manager","isCurrent":true}]},{"slug":"Поенте-Техникал-Мейнтенанс","displayName":"Поенте Техникал Мейнтенанс","registeredOffice":"БЪЛГАРИЯ, гр. София, 1517","mps":[{"mpId":5076,"mpName":"Валентин Ботев Гечевски","role":"manager","isCurrent":true}]},{"slug":"ПраймВОЙП-България","displayName":"ПраймВОЙП България","registeredOffice":"БЪЛГАРИЯ, гр. София, 1700","mps":[{"mpId":4748,"mpName":"Деница Димитрова Симеонова","role":"manager","isCurrent":true}]},{"slug":"Примос-Партнърс","displayName":"Примос Партнърс","registeredOffice":"БЪЛГАРИЯ, гр. София, 1303","mps":[{"mpId":945,"mpName":"Цветан Костов Костов","role":"partner","isCurrent":true}]},{"slug":"Природен-дизайн-ООД","displayName":"Природен дизайн ООД","registeredOffice":"София (столица)","mps":[{"mpId":5291,"mpName":"Николай Денков Денков","role":"declared_stake","isCurrent":true}]},{"slug":"Приятели-на-спорта-България","displayName":"Приятели на спорта - България","registeredOffice":"БЪЛГАРИЯ, гр. София, 1505","mps":[{"mpId":3681,"mpName":"Николина Панайотова Ангелкова","role":"sole_owner","isCurrent":true}]},{"slug":"Про-Хелт-ЕООД","displayName":"Про Хелт ЕООД","registeredOffice":"София (столица)","mps":[{"mpId":4527,"mpName":"Георги Панчев Куков","role":"declared_stake","isCurrent":true}]},{"slug":"ПРУУФ-НУТРИШЪН","displayName":"ПРУУФ НУТРИШЪН","registeredOffice":"БЪЛГАРИЯ, гр. София, 1000","mps":[{"mpId":3537,"mpName":"Иван Йорданов Димитров","role":"partner","isCurrent":true}]},{"slug":"РАЙЗЕН-КАПИТАЛ","displayName":"РАЙЗЕН КАПИТАЛ","registeredOffice":"БЪЛГАРИЯ, гр. София, 1407","mps":[{"mpId":1558,"mpName":"Доброслав Дилянов Димитров","role":"manager","isCurrent":true}]},{"slug":"Рампов-Еко-Енерджи","displayName":"Рампов Еко Енерджи","registeredOffice":"БЪЛГАРИЯ, гр. София, 1612","mps":[{"mpId":4992,"mpName":"Биляна Георгиева Иванова","role":"partner","isCurrent":true}]},{"slug":"РЕНОВЕЙШЪН-ХЪБ","displayName":"РЕНОВЕЙШЪН ХЪБ","registeredOffice":"БЪЛГАРИЯ, гр. София, 1415","mps":[{"mpId":971,"mpName":"Тодор Атанасов Димитров","role":"partner","isCurrent":true}]},{"slug":"РК-ИНВЕСТМЪНТС","displayName":"РК-ИНВЕСТМЪНТС","registeredOffice":"БЪЛГАРИЯ, гр. София, 1407","mps":[{"mpId":3226,"mpName":"Петър Атанасов Курумбашев","role":"manager","isCurrent":true}]},{"slug":"РОБО-КОНСУЛТ","displayName":"РОБО-КОНСУЛТ","registeredOffice":"БЪЛГАРИЯ, гр. София, 1407","mps":[{"mpId":5113,"mpName":"Георги Иванов Георгиев","role":"manager","isCurrent":true}]},{"slug":"САНГУС","displayName":"САНГУС","registeredOffice":"БЪЛГАРИЯ, гр. София, 1618","mps":[{"mpId":20,"mpName":"Борислав Николов Ралчев","role":"partner","isCurrent":true}]},{"slug":"САС-Ходингс-Груп-АД","displayName":"САС Ходингс Груп АД","registeredOffice":"София (столица)","mps":[{"mpId":4295,"mpName":"Настимир Ананиев Ананиев","role":"declared_stake","isCurrent":true}]},{"slug":"СДРУЖЕНИЕ-БЪЛГАРСКА-АСОЦИАЦИЯ-ЗА-РЕГИОНАЛНИ-ИЗСЛЕДВАНИЯ","displayName":"СДРУЖЕНИЕ  БЪЛГАРСКА АСОЦИАЦИЯ ЗА РЕГИОНАЛНИ ИЗСЛЕДВАНИЯ","registeredOffice":"БЪЛГАРИЯ, гр. София, 1700","mps":[{"mpId":2699,"mpName":"Николай Иванов Цонков","role":"ngo_board","isCurrent":true}]},{"slug":"СДРУЖЕНИЕ-ОБЕДИНЕНИ-ЗЕМЕДЕЛСКИ-ПРОИЗВОДИТЕЛИ","displayName":"СДРУЖЕНИЕ  ОБЕДИНЕНИ ЗЕМЕДЕЛСКИ ПРОИЗВОДИТЕЛИ","registeredOffice":"БЪЛГАРИЯ, гр. София","mps":[{"mpId":5269,"mpName":"Тодор Любенов Джиков","role":"ngo_board","isCurrent":true}]},{"slug":"СДРУЖЕНИЕ-БУРГАСКА-АКАДЕМИЧНА-АСОЦИАЦИЯ","displayName":"СДРУЖЕНИЕ \"БУРГАСКА АКАДЕМИЧНА АСОЦИАЦИЯ\"","registeredOffice":"БЪЛГАРИЯ, гр. София, 1700","mps":[{"mpId":2376,"mpName":"Костадин Иванов Марков","role":"ngo_board","isCurrent":true}]},{"slug":"СДРУЖЕНИЕ-БЪЛГАРСКА-АСОЦИАЦИЯ-НА-РЕГИОНАЛНИТЕ-МЕДИИ","displayName":"СДРУЖЕНИЕ \"БЪЛГАРСКА АСОЦИАЦИЯ НА РЕГИОНАЛНИТЕ МЕДИИ\"","registeredOffice":"БЪЛГАРИЯ, София, 1164","mps":[{"mpId":4739,"mpName":"Димитър Стойков Николов","role":"ngo_board","isCurrent":true}]},{"slug":"СДРУЖЕНИЕ-РОМСКО-ОБЕДИНЕНИЕ-МЕШЕРЕ","displayName":"СДРУЖЕНИЕ \"РОМСКО ОБЕДИНЕНИЕ МЕШЕРЕ\"","registeredOffice":"БЪЛГАРИЯ, гр. София, 1309","mps":[{"mpId":5143,"mpName":"Васил Иванов Горанов","role":"ngo_board","isCurrent":true}]},{"slug":"СДРУЖЕНИЕ-&quot;АСОЦИАЦИЯ-НА-УНИВЕРСИТЕТСКИТЕ-БОЛНИЦИ-В-РЕПУБЛИКА-БЪЛГАРИЯ&quot;","displayName":"СДРУЖЕНИЕ &quot;АСОЦИАЦИЯ НА УНИВЕРСИТЕТСКИТЕ БОЛНИЦИ В РЕПУБЛИКА БЪЛГАРИЯ&quot;","registeredOffice":"БЪЛГАРИЯ, София, 1431","mps":[{"mpId":5075,"mpName":"Костадин Георгиев Ангелов","role":"ngo_board","isCurrent":true}]},{"slug":"СДРУЖЕНИЕ-&quot;БЪЛГАРСКА-АСОЦИАЦИЯ-НА-СОФТУЕРНИТЕ-КОМПАНИИ-/БАСКОМ/&quot;","displayName":"СДРУЖЕНИЕ &quot;БЪЛГАРСКА АСОЦИАЦИЯ НА СОФТУЕРНИТЕ КОМПАНИИ /БАСКОМ/&quot;","registeredOffice":"БЪЛГАРИЯ, гр. София, 1124","mps":[{"mpId":1558,"mpName":"Доброслав Дилянов Димитров","role":"ngo_board","isCurrent":true}]},{"slug":"СДРУЖЕНИЕ-&quot;БЪЛГАРСКА-НАЦИОНАЛНА-ФЕДЕРАЦИЯ-КАРАТЕ-/БНФК/&quot;","displayName":"СДРУЖЕНИЕ &quot;БЪЛГАРСКА НАЦИОНАЛНА ФЕДЕРАЦИЯ КАРАТЕ /БНФК/&quot;","registeredOffice":"БЪЛГАРИЯ, гр. София, 1142","mps":[{"mpId":5129,"mpName":"Ивет Иванова Горанова","role":"ngo_board","isCurrent":true}]},{"slug":"Сдружение-&quot;Български-Червен-кръст&quot;","displayName":"Сдружение &quot;Български Червен кръст&quot;","registeredOffice":"БЪЛГАРИЯ, гр. София, 1402","mps":[{"mpId":3228,"mpName":"Алисе Кямилова Муртезова","role":"ngo_board","isCurrent":true}]},{"slug":"СДРУЖЕНИЕ-&quot;БЪЛГАРСКО-ДРУЖЕСТВО-ПО-КЛИНИЧНА-ЛАБОРАТОРИЯ&quot;","displayName":"СДРУЖЕНИЕ &quot;БЪЛГАРСКО ДРУЖЕСТВО ПО КЛИНИЧНА ЛАБОРАТОРИЯ&quot;","registeredOffice":"БЪЛГАРИЯ, гр. София, 1431","mps":[{"mpId":739,"mpName":"Недялко Иванов Калъчев","role":"ngo_board","isCurrent":true}]},{"slug":"СДРУЖЕНИЕ-&quot;КАРИНА-БЪЛГАРИЯ&quot;","displayName":"СДРУЖЕНИЕ &quot;КАРИНА БЪЛГАРИЯ&quot;","registeredOffice":"БЪЛГАРИЯ, гр. София, 1404","mps":[{"mpId":1493,"mpName":"Христо Цветанов Монов","role":"ngo_board","isCurrent":true}]},{"slug":"СДРУЖЕНИЕ-&quot;НАУЧНО-ТЕХНИЧЕСКИ-СЪЮЗ-ПО-ВОДНО-ДЕЛО-В-БЪЛГАРИЯ&quot;","displayName":"СДРУЖЕНИЕ &quot;НАУЧНО-ТЕХНИЧЕСКИ СЪЮЗ ПО ВОДНО ДЕЛО В БЪЛГАРИЯ&quot;","registeredOffice":"БЪЛГАРИЯ, София, 1000","mps":[{"mpId":3181,"mpName":"Галя Маринова Бърдарска","role":"ngo_board","isCurrent":true}]},{"slug":"СДРУЖЕНИЕ-&quot;СДРУЖЕНИЕ-ЗА-МЕЖДУНАРОДНИ-СЪСТЕЗАНИЯ-ПО-ПРАВО&quot;","displayName":"СДРУЖЕНИЕ &quot;СДРУЖЕНИЕ ЗА МЕЖДУНАРОДНИ СЪСТЕЗАНИЯ ПО ПРАВО&quot;","registeredOffice":"БЪЛГАРИЯ, гр. София, 1124","mps":[{"mpId":3794,"mpName":"Димитър Колев Гочев","role":"ngo_board","isCurrent":true}]},{"slug":"СДРУЖЕНИЕ-&quot;СЪЮЗ-НА-ПАРАШУТИСТИТЕ-В-БЪЛГАРИЯ&quot;","displayName":"СДРУЖЕНИЕ &quot;СЪЮЗ НА ПАРАШУТИСТИТЕ В БЪЛГАРИЯ&quot;","registeredOffice":"БЪЛГАРИЯ, гр. София, 1000","mps":[{"mpId":3371,"mpName":"Билян Боримиров Кършовски","role":"ngo_board","isCurrent":true}]},{"slug":"Сдружение-Академия-бъдеще-за-бизнес-развитие","displayName":"Сдружение Академия бъдеще за бизнес развитие","registeredOffice":"БЪЛГАРИЯ, гр. София, 1111","mps":[{"mpId":5192,"mpName":"Христо Симеонов Симеонов","role":"ngo_board","isCurrent":true}]},{"slug":"СДРУЖЕНИЕ-БЪЛГАРСКА-АСОЦИАЦИЯ-ЗА-ТУРИЗЪМ","displayName":"СДРУЖЕНИЕ БЪЛГАРСКА АСОЦИАЦИЯ ЗА ТУРИЗЪМ","registeredOffice":"БЪЛГАРИЯ, гр. София, 1408","mps":[{"mpId":5233,"mpName":"Иво Георгиев Михайлов","role":"ngo_board","isCurrent":true}]},{"slug":"Сдружение-за-модерно-алтернативно-развитие-на-териториите-България","displayName":"Сдружение за модерно алтернативно развитие на териториите - България","registeredOffice":"БЪЛГАРИЯ, гр. София, 1000","mps":[{"mpId":4746,"mpName":"Цветан Иванов Енчев","role":"ngo_board","isCurrent":true}]},{"slug":"СДРУЖЕНИЕ-НАЦИОНАЛНА-ГРАЖДАНСКА-ИНИЦИАТИВА-АЛТЕРНАТИВА-ЗА-БЪЛГАРСКО-ВЪЗРАЖДАНЕ-/НГИ-АБВ/","displayName":"СДРУЖЕНИЕ НАЦИОНАЛНА ГРАЖДАНСКА ИНИЦИАТИВА АЛТЕРНАТИВА ЗА БЪЛГАРСКО ВЪЗРАЖДАНЕ /НГИ АБВ/","registeredOffice":"БЪЛГАРИЯ, гр. София, 1000","mps":[{"mpId":943,"mpName":"Румен Йорданов Петков","role":"ngo_board","isCurrent":true}]},{"slug":"Сдружение-ПолеРани","displayName":"Сдружение ПолеРани","registeredOffice":"БЪЛГАРИЯ, гр. София, 1504","mps":[{"mpId":4728,"mpName":"Светослав Тодоров Тодоров","role":"ngo_board","isCurrent":true}]},{"slug":"СЕЛИМИНОВО-СОЛАР-3","displayName":"СЕЛИМИНОВО СОЛАР 3","registeredOffice":"БЪЛГАРИЯ, гр. София, 1434","mps":[{"mpId":4190,"mpName":"Калоян Тонев Икономов","role":"manager","isCurrent":true}]},{"slug":"Сердика-спортни-имоти","displayName":"Сердика спортни имоти","registeredOffice":"БЪЛГАРИЯ, гр. София, 1000","mps":[{"mpId":5113,"mpName":"Георги Иванов Георгиев","role":"director","isCurrent":true}]},{"slug":"Си-И-Ел-Трейд","displayName":"Си И Ел Трейд","registeredOffice":"БЪЛГАРИЯ, гр. София, 1220","mps":[{"mpId":2936,"mpName":"Миглена Дойкова Александрова","role":"manager","isCurrent":true}]},{"slug":"Сиал-2018-ЕООД","displayName":"Сиал 2018 ЕООД","registeredOffice":"София","mps":[{"mpId":4999,"mpName":"Явор Илиев Хайтов","role":"declared_stake","isCurrent":true}]},{"slug":"Слийв-Блум-ЕООД","displayName":"Слийв Блум ЕООД","registeredOffice":"София (столица)","mps":[{"mpId":4295,"mpName":"Настимир Ананиев Ананиев","role":"declared_stake","isCurrent":true}]},{"slug":"Слипдриймс","displayName":"Слипдриймс","registeredOffice":"БЪЛГАРИЯ, гр. София, 1505","mps":[{"mpId":3241,"mpName":"Николай Цветанов Сираков","role":"partner","isCurrent":true}]},{"slug":"Слънчоглед-България-ООД","displayName":"Слънчоглед България ООД","registeredOffice":"София","mps":[{"mpId":3351,"mpName":"Мария Василева Капон","role":"declared_stake","isCurrent":true}]},{"slug":"СНЦ-ИЗГРЕВ-ЗА-ДЕЦАТА","displayName":"СНЦ \"ИЗГРЕВ ЗА ДЕЦАТА\"","registeredOffice":"БЪЛГАРИЯ, гр. София, 1000","mps":[{"mpId":645,"mpName":"Георги Веселинов Пасков","role":"ngo_board","isCurrent":true}]},{"slug":"СОЛАР-ЕСТЕЙТС","displayName":"СОЛАР ЕСТЕЙТС","registeredOffice":"БЪЛГАРИЯ, гр. София, 1407","mps":[{"mpId":3625,"mpName":"Йордан Янков Маджунков","role":"partner","isCurrent":false}]},{"slug":"Солво-ООД","displayName":"Солво ООД","registeredOffice":"София","mps":[{"mpId":4170,"mpName":"Ивайло Ванев Вълчев","role":"declared_stake","isCurrent":true}]},{"slug":"СОМУРТО-ИНВЕСТ","displayName":"СОМУРТО ИНВЕСТ","registeredOffice":"БЪЛГАРИЯ, гр. София, 1404","mps":[{"mpId":3177,"mpName":"Тодор Василев Василев","role":"manager","isCurrent":true}]},{"slug":"Сонел-777-ЕООД","displayName":"Сонел 777 ЕООД","registeredOffice":"София","mps":[{"mpId":3410,"mpName":"Георги  Стоянов Кадиев","role":"declared_stake","isCurrent":true}]},{"slug":"София-Ин","displayName":"София Ин","registeredOffice":"БЪЛГАРИЯ, гр. София, 1404","mps":[{"mpId":4523,"mpName":"Вяра Методиева Тодева","role":"manager","isCurrent":true}]},{"slug":"София-Метрополитън-Колидж","displayName":"София Метрополитън Колидж","registeredOffice":"БЪЛГАРИЯ, гр. София, 1407","mps":[{"mpId":1791,"mpName":"Димитър Иванов Абаджиев","role":"partner","isCurrent":true}]},{"slug":"Спортен-клуб-по-електронни-спортове-Амбидекс","displayName":"Спортен клуб по електронни спортове Амбидекс","registeredOffice":"БЪЛГАРИЯ, гр. София, 1404","mps":[{"mpId":5245,"mpName":"Мартин Димитров Димитров","role":"ngo_board","isCurrent":true}]}]}