{
  "ekatte": "68134",
  "page": 2,
  "totalPages": 7,
  "count": 316,
  "companies": [
    {
      "slug": "БЕЛ-БРОКЕРС",
      "displayName": "БЕЛ Брокерс",
      "registeredOffice": "БЪЛГАРИЯ, гр. София, 1700",
      "mps": [
        {
          "mpId": 2536,
          "mpName": "Айхан Ахмед Етем",
          "role": "manager",
          "isCurrent": true
        },
        {
          "mpId": 2536,
          "mpName": "Айхан Ахмед Етем",
          "role": "sole_owner",
          "isCurrent": true
        }
      ]
    },
    {
      "slug": "Блекаут-оптикс",
      "displayName": "Блекаут оптикс",
      "registeredOffice": "БЪЛГАРИЯ, гр. София, 1309",
      "mps": [
        {
          "mpId": 2545,
          "mpName": "Здравко Димитров Димитров",
          "role": "manager",
          "isCurrent": true
        },
        {
          "mpId": 2545,
          "mpName": "Здравко Димитров Димитров",
          "role": "sole_owner",
          "isCurrent": true
        }
      ]
    },
    {
      "slug": "Блу-Уейл-Капитал",
      "displayName": "Блу Уейл Капитал",
      "registeredOffice": "БЪЛГАРИЯ, гр. София, 1303",
      "mps": [
        {
          "mpId": 5101,
          "mpName": "Георги Николаев Георгиев",
          "role": "manager",
          "isCurrent": true
        },
        {
          "mpId": 5101,
          "mpName": "Георги Николаев Георгиев",
          "role": "sole_owner",
          "isCurrent": true
        }
      ]
    },
    {
      "slug": "Братя-Градеви-ООД",
      "displayName": "Братя Градеви ООД",
      "registeredOffice": "София (столица)",
      "mps": [
        {
          "mpId": 5159,
          "mpName": "Димо Георгиев Дренчев",
          "role": "manager",
          "isCurrent": true
        },
        {
          "mpId": 4223,
          "mpName": "Николай Георгиев Дренчев",
          "role": "declared_stake",
          "isCurrent": true
        }
      ]
    },
    {
      "slug": "ВЕНЕРА-ИНВЕСТМЪНТ",
      "displayName": "Венера инвестмънт",
      "registeredOffice": "БЪЛГАРИЯ, гр. София, 1000",
      "mps": [
        {
          "mpId": 4038,
          "mpName": "Иван Валентинов Ганчев",
          "role": "manager",
          "isCurrent": true
        },
        {
          "mpId": 4038,
          "mpName": "Иван Валентинов Ганчев",
          "role": "sole_owner",
          "isCurrent": true
        }
      ]
    },
    {
      "slug": "Грейскейл",
      "displayName": "Грейскейл",
      "registeredOffice": "БЪЛГАРИЯ, гр. София, 1407",
      "mps": [
        {
          "mpId": 2776,
          "mpName": "Симеон Христов Симеонов",
          "role": "manager",
          "isCurrent": true
        },
        {
          "mpId": 2776,
          "mpName": "Симеон Христов Симеонов",
          "role": "sole_owner",
          "isCurrent": true
        }
      ]
    },
    {
      "slug": "ГроутКонсулт",
      "displayName": "ГроутКонсулт",
      "registeredOffice": "БЪЛГАРИЯ, гр. София, 1421",
      "mps": [
        {
          "mpId": 3537,
          "mpName": "Иван Йорданов Димитров",
          "role": "manager",
          "isCurrent": true
        },
        {
          "mpId": 3537,
          "mpName": "Иван Йорданов Димитров",
          "role": "sole_owner",
          "isCurrent": true
        }
      ]
    },
    {
      "slug": "Десина-строй",
      "displayName": "Десина строй",
      "registeredOffice": "БЪЛГАРИЯ, гр. София, 1680",
      "mps": [
        {
          "mpId": 823,
          "mpName": "Съби Давидов Събев",
          "role": "manager",
          "isCurrent": true
        },
        {
          "mpId": 823,
          "mpName": "Съби Давидов Събев",
          "role": "sole_owner",
          "isCurrent": true
        }
      ]
    },
    {
      "slug": "Джи-енд-джи-естейт",
      "displayName": "ДЖИ Енд джи естейт",
      "registeredOffice": "София (столица)",
      "mps": [
        {
          "mpId": 2669,
          "mpName": "Теодора Радкова Георгиева",
          "role": "manager",
          "isCurrent": true
        },
        {
          "mpId": 2669,
          "mpName": "Теодора Радкова Георгиева",
          "role": "declared_stake",
          "isCurrent": true
        }
      ]
    },
    {
      "slug": "ДИАВИТ",
      "displayName": "Диавит",
      "registeredOffice": "БЪЛГАРИЯ, гр. София, 1784",
      "mps": [
        {
          "mpId": 2747,
          "mpName": "Димитър Стоянов Стоянов",
          "role": "manager",
          "isCurrent": true
        },
        {
          "mpId": 2747,
          "mpName": "Димитър Стоянов Стоянов",
          "role": "sole_owner",
          "isCurrent": true
        }
      ]
    },
    {
      "slug": "ДИДЖИТАЛ-УЪРЛД-2022",
      "displayName": "Диджитал уърлд 2022",
      "registeredOffice": "БЪЛГАРИЯ, гр. София, 1618",
      "mps": [
        {
          "mpId": 4752,
          "mpName": "Даниел Петров Петров",
          "role": "manager",
          "isCurrent": true
        },
        {
          "mpId": 4752,
          "mpName": "Даниел Петров Петров",
          "role": "sole_owner",
          "isCurrent": true
        }
      ]
    },
    {
      "slug": "ДП-ИНДУСТРИАЛСТРОЙ",
      "displayName": "ДП Индустриалстрой",
      "registeredOffice": "БЪЛГАРИЯ, гр. София, 1463",
      "mps": [
        {
          "mpId": 2408,
          "mpName": "Иван Пенков Иванов",
          "role": "manager",
          "isCurrent": true
        },
        {
          "mpId": 2408,
          "mpName": "Иван Пенков Иванов",
          "role": "sole_owner",
          "isCurrent": true
        }
      ]
    },
    {
      "slug": "Евро-кънстракшънс",
      "displayName": "Евро кънстракшънс",
      "registeredOffice": "София (столица)",
      "mps": [
        {
          "mpId": 2669,
          "mpName": "Теодора Радкова Георгиева",
          "role": "manager",
          "isCurrent": true
        },
        {
          "mpId": 2669,
          "mpName": "Теодора Радкова Георгиева",
          "role": "declared_stake",
          "isCurrent": true
        }
      ]
    },
    {
      "slug": "Ейпейс",
      "displayName": "Ейпейс",
      "registeredOffice": "БЪЛГАРИЯ, гр. София, 1618",
      "mps": [
        {
          "mpId": 1504,
          "mpName": "Явор Бориславов Куюмджиев",
          "role": "manager",
          "isCurrent": true
        },
        {
          "mpId": 1504,
          "mpName": "Явор Бориславов Куюмджиев",
          "role": "sole_owner",
          "isCurrent": true
        }
      ]
    },
    {
      "slug": "ЕЛИШ",
      "displayName": "Елиш",
      "registeredOffice": "БЪЛГАРИЯ, гр. София, 1784",
      "mps": [
        {
          "mpId": 2747,
          "mpName": "Димитър Стоянов Стоянов",
          "role": "manager",
          "isCurrent": true
        },
        {
          "mpId": 2747,
          "mpName": "Димитър Стоянов Стоянов",
          "role": "sole_owner",
          "isCurrent": true
        }
      ]
    },
    {
      "slug": "ЕРИМАНТ",
      "displayName": "Еримант",
      "registeredOffice": "БЪЛГАРИЯ, гр. София, 1421",
      "mps": [
        {
          "mpId": 209,
          "mpName": "Стела Димитрова Ангелова-Банкова",
          "role": "manager",
          "isCurrent": true
        },
        {
          "mpId": 209,
          "mpName": "Стела Димитрова Ангелова-Банкова",
          "role": "sole_owner",
          "isCurrent": true
        }
      ]
    },
    {
      "slug": "Еуропео-България-ООД",
      "displayName": "Еуропео - България ООД",
      "registeredOffice": "София (столица)",
      "mps": [
        {
          "mpId": 5173,
          "mpName": "Любен Любенов Дилов",
          "role": "manager",
          "isCurrent": true
        },
        {
          "mpId": 5173,
          "mpName": "Любен Любенов Дилов",
          "role": "declared_stake",
          "isCurrent": true
        }
      ]
    },
    {
      "slug": "ИВО-ДЕСИ-2021",
      "displayName": "ИВО - Деси 2021",
      "registeredOffice": "БЪЛГАРИЯ, гр. София, 1404",
      "mps": [
        {
          "mpId": 5233,
          "mpName": "Иво Георгиев Михайлов",
          "role": "manager",
          "isCurrent": true
        },
        {
          "mpId": 5233,
          "mpName": "Иво Георгиев Михайлов",
          "role": "sole_owner",
          "isCurrent": true
        }
      ]
    },
    {
      "slug": "Издателство-Гео-Милев",
      "displayName": "Издателство Гео Милев\"",
      "registeredOffice": "София",
      "mps": [
        {
          "mpId": 3537,
          "mpName": "Иван Йорданов Димитров",
          "role": "manager",
          "isCurrent": true
        },
        {
          "mpId": 3537,
          "mpName": "Иван Йорданов Димитров",
          "role": "declared_stake",
          "isCurrent": true
        }
      ]
    },
    {
      "slug": "ИМПЕТУС-ПГ",
      "displayName": "Импетус - ПГ",
      "registeredOffice": "БЪЛГАРИЯ, гр. София, 1113",
      "mps": [
        {
          "mpId": 222,
          "mpName": "Петя Илиева Гегова",
          "role": "manager",
          "isCurrent": true
        },
        {
          "mpId": 222,
          "mpName": "Петя Илиева Гегова",
          "role": "sole_owner",
          "isCurrent": true
        }
      ]
    },
    {
      "slug": "ИП-НАПРЕДЪК",
      "displayName": "ИП Напредък",
      "registeredOffice": "БЪЛГАРИЯ, гр. София, 1463",
      "mps": [
        {
          "mpId": 2408,
          "mpName": "Иван Пенков Иванов",
          "role": "manager",
          "isCurrent": true
        },
        {
          "mpId": 2408,
          "mpName": "Иван Пенков Иванов",
          "role": "sole_owner",
          "isCurrent": true
        }
      ]
    },
    {
      "slug": "КАРГО-ХЕЛЛАС",
      "displayName": "Карго хеллас",
      "registeredOffice": "БЪЛГАРИЯ, гр. София, 1000",
      "mps": [
        {
          "mpId": 2734,
          "mpName": "Тома Николов Томов",
          "role": "manager",
          "isCurrent": true
        },
        {
          "mpId": 2734,
          "mpName": "Тома Николов Томов",
          "role": "sole_owner",
          "isCurrent": true
        }
      ]
    },
    {
      "slug": "Консулт-Г",
      "displayName": "Консулт Г",
      "registeredOffice": "София (столица)",
      "mps": [
        {
          "mpId": 2669,
          "mpName": "Теодора Радкова Георгиева",
          "role": "manager",
          "isCurrent": true
        },
        {
          "mpId": 2669,
          "mpName": "Теодора Радкова Георгиева",
          "role": "declared_stake",
          "isCurrent": true
        }
      ]
    },
    {
      "slug": "КП-инвест-груп",
      "displayName": "КП Инвест груп",
      "registeredOffice": "БЪЛГАРИЯ, гр. София, 1326",
      "mps": [
        {
          "mpId": 3710,
          "mpName": "Пламен Николаев Николов",
          "role": "manager",
          "isCurrent": true
        },
        {
          "mpId": 3710,
          "mpName": "Пламен Николаев Николов",
          "role": "sole_owner",
          "isCurrent": true
        }
      ]
    },
    {
      "slug": "ЛАБШОКО",
      "displayName": "Лабшоко",
      "registeredOffice": "БЪЛГАРИЯ, гр. София, 1680",
      "mps": [
        {
          "mpId": 2400,
          "mpName": "Иван Кирилов Иванов",
          "role": "manager",
          "isCurrent": true
        },
        {
          "mpId": 2400,
          "mpName": "Иван Кирилов Иванов",
          "role": "sole_owner",
          "isCurrent": true
        }
      ]
    },
    {
      "slug": "ЛИБРЕКО",
      "displayName": "Либреко",
      "registeredOffice": "БЪЛГАРИЯ, гр. София, 1000",
      "mps": [
        {
          "mpId": 3101,
          "mpName": "Ивелина Веселинова Василева",
          "role": "manager",
          "isCurrent": true
        },
        {
          "mpId": 3101,
          "mpName": "Ивелина Веселинова Василева",
          "role": "sole_owner",
          "isCurrent": true
        }
      ]
    },
    {
      "slug": "ЛУНИСОЛАР",
      "displayName": "Лунисолар",
      "registeredOffice": "БЪЛГАРИЯ, гр. София, 1142",
      "mps": [
        {
          "mpId": 1563,
          "mpName": "Димитър Димчев Димов",
          "role": "manager",
          "isCurrent": true
        },
        {
          "mpId": 1563,
          "mpName": "Димитър Димчев Димов",
          "role": "sole_owner",
          "isCurrent": true
        }
      ]
    },
    {
      "slug": "М-консулт-33-ЕООД",
      "displayName": "М-консулт 33 ЕООД",
      "registeredOffice": "София",
      "mps": [
        {
          "mpId": 3694,
          "mpName": "Атанас Димитров Михнев",
          "role": "manager",
          "isCurrent": true
        },
        {
          "mpId": 3694,
          "mpName": "Атанас Димитров Михнев",
          "role": "declared_stake",
          "isCurrent": true
        }
      ]
    },
    {
      "slug": "МЕДИЦИНСКИ-ЦЕНТЪР-ПО-РЕГЕНЕРАТИВНА-МЕДИЦИНА-И-ДЪЛГОЛЕТИЕ-ОКСИЛАЙФ",
      "displayName": "Медицински център по регенеративна Медицина и дълголетие \"Оксилайф\"",
      "registeredOffice": "БЪЛГАРИЯ, гр. София, 1404",
      "mps": [
        {
          "mpId": 225,
          "mpName": "Антония Стефанова Първанова",
          "role": "manager",
          "isCurrent": true
        },
        {
          "mpId": 225,
          "mpName": "Антония Стефанова Първанова",
          "role": "sole_owner",
          "isCurrent": true
        }
      ]
    },
    {
      "slug": "Мелитус-Д",
      "displayName": "Мелитус-Д",
      "registeredOffice": "БЪЛГАРИЯ, гр. София, 1233",
      "mps": [
        {
          "mpId": 4371,
          "mpName": "Росица Василева Пандова-Йовкова",
          "role": "manager",
          "isCurrent": true
        },
        {
          "mpId": 4371,
          "mpName": "Росица Василева Пандова-Йовкова",
          "role": "sole_owner",
          "isCurrent": true
        }
      ]
    },
    {
      "slug": "Метал-ВМ-ЕООД",
      "displayName": "Метал-ВМ ЕООД",
      "registeredOffice": "София",
      "mps": [
        {
          "mpId": 4868,
          "mpName": "Венцислав Михайлов Асенов",
          "role": "manager",
          "isCurrent": true
        },
        {
          "mpId": 4868,
          "mpName": "Венцислав Михайлов Асенов",
          "role": "declared_stake",
          "isCurrent": true
        }
      ]
    },
    {
      "slug": "Монна-Интернешънъл",
      "displayName": "Монна Интернешънъл",
      "registeredOffice": "БЪЛГАРИЯ, гр. София, 1700",
      "mps": [
        {
          "mpId": 3342,
          "mpName": "Юлиян Милчев Ненчев",
          "role": "manager",
          "isCurrent": true
        },
        {
          "mpId": 3342,
          "mpName": "Юлиян Милчев Ненчев",
          "role": "sole_owner",
          "isCurrent": true
        }
      ]
    },
    {
      "slug": "НАПОИТЕЛНИ-СИСТЕМИ",
      "displayName": "Напоителни системи",
      "registeredOffice": "БЪЛГАРИЯ, гр. София, 1186",
      "mps": [
        {
          "mpId": 4649,
          "mpName": "Генади Събков Събков",
          "role": "branch_manager",
          "isCurrent": true
        },
        {
          "mpId": 2115,
          "mpName": "Пламен Иванов Иванов",
          "role": "director",
          "isCurrent": true
        }
      ]
    },
    {
      "slug": "НИНФЕА-АЛА-МОДА",
      "displayName": "Нинфеа ала мода",
      "registeredOffice": "БЪЛГАРИЯ, гр. София, 1614",
      "mps": [
        {
          "mpId": 4748,
          "mpName": "Деница Димитрова Симеонова",
          "role": "manager",
          "isCurrent": true
        },
        {
          "mpId": 4748,
          "mpName": "Деница Димитрова Симеонова",
          "role": "sole_owner",
          "isCurrent": true
        }
      ]
    },
    {
      "slug": "Омнио-ООД",
      "displayName": "Омнио ООД",
      "registeredOffice": "София",
      "mps": [
        {
          "mpId": 3694,
          "mpName": "Атанас Димитров Михнев",
          "role": "partner",
          "isCurrent": true
        },
        {
          "mpId": 3694,
          "mpName": "Атанас Димитров Михнев",
          "role": "declared_stake",
          "isCurrent": true
        }
      ]
    },
    {
      "slug": "ПЕТ-ЕН-ЕН-2021",
      "displayName": "ПЕТ Ен ен 2021",
      "registeredOffice": "БЪЛГАРИЯ, гр. София, 1799",
      "mps": [
        {
          "mpId": 4590,
          "mpName": "Петър Николаев Николов",
          "role": "manager",
          "isCurrent": true
        },
        {
          "mpId": 4590,
          "mpName": "Петър Николаев Николов",
          "role": "sole_owner",
          "isCurrent": true
        }
      ]
    },
    {
      "slug": "РЕНТ-ФИКС",
      "displayName": "Рент фикс",
      "registeredOffice": "БЪЛГАРИЯ, гр. София, 1415",
      "mps": [
        {
          "mpId": 76,
          "mpName": "Валентин Николов Милтенов",
          "role": "manager",
          "isCurrent": true
        },
        {
          "mpId": 76,
          "mpName": "Валентин Николов Милтенов",
          "role": "sole_owner",
          "isCurrent": true
        }
      ]
    },
    {
      "slug": "РСЕЛЕНА",
      "displayName": "Рселена",
      "registeredOffice": "БЪЛГАРИЯ, гр. София, 1510",
      "mps": [
        {
          "mpId": 5245,
          "mpName": "Мартин Димитров Димитров",
          "role": "manager",
          "isCurrent": true
        },
        {
          "mpId": 5245,
          "mpName": "Мартин Димитров Димитров",
          "role": "sole_owner",
          "isCurrent": false
        }
      ]
    },
    {
      "slug": "СЕКОНТ-2011",
      "displayName": "Секонт 2011",
      "registeredOffice": "БЪЛГАРИЯ, гр. София, -",
      "mps": [
        {
          "mpId": 2681,
          "mpName": "Борислав Иванов Борисов",
          "role": "manager",
          "isCurrent": true
        },
        {
          "mpId": 2681,
          "mpName": "Борислав Иванов Борисов",
          "role": "sole_owner",
          "isCurrent": true
        }
      ]
    },
    {
      "slug": "Скайглас-ООД",
      "displayName": "Скайглас ООД",
      "registeredOffice": "София (столица)",
      "mps": [
        {
          "mpId": 5159,
          "mpName": "Димо Георгиев Дренчев",
          "role": "manager",
          "isCurrent": true
        },
        {
          "mpId": 4223,
          "mpName": "Николай Георгиев Дренчев",
          "role": "declared_stake",
          "isCurrent": true
        }
      ]
    },
    {
      "slug": "СМАРТ-ДИЗАЙН-ИНЖЕНЕРИНГ",
      "displayName": "Смарт дизайн инженеринг",
      "registeredOffice": "БЪЛГАРИЯ, гр. София, 1421",
      "mps": [
        {
          "mpId": 2747,
          "mpName": "Димитър Стоянов Стоянов",
          "role": "manager",
          "isCurrent": true
        },
        {
          "mpId": 2747,
          "mpName": "Димитър Стоянов Стоянов",
          "role": "sole_owner",
          "isCurrent": true
        }
      ]
    },
    {
      "slug": "СОНЕНДАХ",
      "displayName": "Сонендах",
      "registeredOffice": "БЪЛГАРИЯ, гр. София, 1618",
      "mps": [
        {
          "mpId": 819,
          "mpName": "Петър Димитров Попов",
          "role": "manager",
          "isCurrent": true
        },
        {
          "mpId": 819,
          "mpName": "Петър Димитров Попов",
          "role": "sole_owner",
          "isCurrent": true
        }
      ]
    },
    {
      "slug": "Стинки-Бариста-ООД",
      "displayName": "Стинки Бариста ООД",
      "registeredOffice": "София",
      "mps": [
        {
          "mpId": 3914,
          "mpName": "Инна Владимирова Иванова",
          "role": "partner",
          "isCurrent": true
        },
        {
          "mpId": 3914,
          "mpName": "Инна Владимирова Иванова",
          "role": "declared_stake",
          "isCurrent": true
        }
      ]
    },
    {
      "slug": "Тентус-България-ООД",
      "displayName": "Тентус България ООД",
      "registeredOffice": "София (столица)",
      "mps": [
        {
          "mpId": 4938,
          "mpName": "Силви Кирилов Петров",
          "role": "partner",
          "isCurrent": true
        },
        {
          "mpId": 4938,
          "mpName": "Силви  Кирилов Петров",
          "role": "declared_stake",
          "isCurrent": true
        }
      ]
    },
    {
      "slug": "Форекс-Капиталс-ЕООД",
      "displayName": "Форекс Капиталс ЕООД",
      "registeredOffice": "София",
      "mps": [
        {
          "mpId": 4295,
          "mpName": "Настимир Ананиев Ананиев",
          "role": "manager",
          "isCurrent": true
        },
        {
          "mpId": 4295,
          "mpName": "Настимир Ананиев Ананиев",
          "role": "declared_stake",
          "isCurrent": true
        }
      ]
    },
    {
      "slug": "ХЕДКОНСУЛТИНГ",
      "displayName": "Хедконсултинг",
      "registeredOffice": "БЪЛГАРИЯ, гр. София, 1113",
      "mps": [
        {
          "mpId": 2769,
          "mpName": "Цветан Генчев Цветанов",
          "role": "manager",
          "isCurrent": true
        },
        {
          "mpId": 2769,
          "mpName": "Цветан Генчев Цветанов",
          "role": "sole_owner",
          "isCurrent": true
        }
      ]
    },
    {
      "slug": "ХОЛИВУД-1",
      "displayName": "Холивуд 1",
      "registeredOffice": "БЪЛГАРИЯ, гр. София, 1408",
      "mps": [
        {
          "mpId": 3608,
          "mpName": "Александър Несторов Несторов",
          "role": "manager",
          "isCurrent": true
        },
        {
          "mpId": 3608,
          "mpName": "Александър Несторов Несторов",
          "role": "sole_owner",
          "isCurrent": true
        }
      ]
    },
    {
      "slug": "Хоумхиид-ООД",
      "displayName": "Хоумхиид ООД",
      "registeredOffice": "София",
      "mps": [
        {
          "mpId": 4144,
          "mpName": "Михал Григоров Камбарев",
          "role": "partner",
          "isCurrent": true
        },
        {
          "mpId": 4144,
          "mpName": "Михал Григоров Камбарев",
          "role": "declared_stake",
          "isCurrent": true
        }
      ]
    },
    {
      "slug": "ЦЕНТЪР-ЗА-ТЕЛЕСНА-ПСИХОТЕРАПИЯ-И-РАБОТА-С-ТРАВМА",
      "displayName": "Център за телесна психотерапия и работа с травма",
      "registeredOffice": "БЪЛГАРИЯ, гр. София, 1700",
      "mps": [
        {
          "mpId": 4221,
          "mpName": "Ирена Тодорова Анастасова",
          "role": "manager",
          "isCurrent": true
        },
        {
          "mpId": 4221,
          "mpName": "Ирена Тодорова Анастасова",
          "role": "sole_owner",
          "isCurrent": true
        }
      ]
    },
    {
      "slug": "ШИЛЕН",
      "displayName": "Шилен",
      "registeredOffice": "БЪЛГАРИЯ, гр. София, 1784",
      "mps": [
        {
          "mpId": 2747,
          "mpName": "Димитър Стоянов Стоянов",
          "role": "manager",
          "isCurrent": true
        },
        {
          "mpId": 2747,
          "mpName": "Димитър Стоянов Стоянов",
          "role": "sole_owner",
          "isCurrent": true
        }
      ]
    }
  ]
}