{
  "ekatte": "68134",
  "page": 16,
  "totalPages": 16,
  "count": 794,
  "companies": [
    {
      "slug": "Теоли-ООД-не-активно",
      "displayName": "Теоли ООД не активно",
      "registeredOffice": "София (столица)",
      "mps": [
        {
          "mpId": 4500,
          "mpName": "Христо Танчев Проданов",
          "role": "declared_stake",
          "isCurrent": true
        }
      ]
    },
    {
      "slug": "ТЕРА-УЕЙ-ЕНЕРДЖИ-ГРУП",
      "displayName": "ТЕРА УЕЙ ЕНЕРДЖИ ГРУП",
      "registeredOffice": "БЪЛГАРИЯ, гр. София, 1606",
      "mps": [
        {
          "mpId": 2924,
          "mpName": "Мартин Владимиров Тинчев",
          "role": "manager",
          "isCurrent": true
        }
      ]
    },
    {
      "slug": "ТЕРА-УЕЙ-ИНВЕСТМЕНТ-ГРУП",
      "displayName": "ТЕРА УЕЙ ИНВЕСТМЕНТ ГРУП",
      "registeredOffice": "БЪЛГАРИЯ, гр. София, 1606",
      "mps": [
        {
          "mpId": 3681,
          "mpName": "Николина Панайотова Ангелкова",
          "role": "director",
          "isCurrent": true
        }
      ]
    },
    {
      "slug": "Тесса-Грийн-Енерджи",
      "displayName": "Тесса Грийн Енерджи",
      "registeredOffice": "БЪЛГАРИЯ, гр. София, 1616",
      "mps": [
        {
          "mpId": 2732,
          "mpName": "Александър Димитров Манолев",
          "role": "manager",
          "isCurrent": true
        }
      ]
    },
    {
      "slug": "Тетнус-България-ООД",
      "displayName": "Тетнус България ООД",
      "registeredOffice": "София (столица)",
      "mps": [
        {
          "mpId": 4938,
          "mpName": "Силви Кирилов Петров",
          "role": "declared_stake",
          "isCurrent": true
        }
      ]
    },
    {
      "slug": "Топ-де-лукс",
      "displayName": "Топ де лукс",
      "registeredOffice": "БЪЛГАРИЯ, гр. София, 1324",
      "mps": [
        {
          "mpId": 5113,
          "mpName": "Георги Иванов Георгиев",
          "role": "manager",
          "isCurrent": true
        }
      ]
    },
    {
      "slug": "Транскапитал-Центрум",
      "displayName": "Транскапитал Центрум",
      "registeredOffice": "БЪЛГАРИЯ, гр. София, 1172",
      "mps": [
        {
          "mpId": 3845,
          "mpName": "Владимир Славев Табутов",
          "role": "actual_owner",
          "isCurrent": true
        }
      ]
    },
    {
      "slug": "Тумбаито-Сдружение-в-ликвидация",
      "displayName": "Тумбаито Сдружение в ликвидация",
      "registeredOffice": "София",
      "mps": [
        {
          "mpId": 2976,
          "mpName": "Калин Любенов Вельов",
          "role": "declared_stake",
          "isCurrent": true
        }
      ]
    },
    {
      "slug": "УЕЛДРИНКС",
      "displayName": "УЕЛДРИНКС",
      "registeredOffice": "БЪЛГАРИЯ, гр. София, 1040",
      "mps": [
        {
          "mpId": 676,
          "mpName": "Иван Ганчов Искров",
          "role": "partner",
          "isCurrent": true
        }
      ]
    },
    {
      "slug": "УинПроджект-ЕООД",
      "displayName": "УинПроджект ЕООД",
      "registeredOffice": "София (столица)",
      "mps": [
        {
          "mpId": 4551,
          "mpName": "Виктория Димитрова Василева",
          "role": "declared_stake",
          "isCurrent": true
        }
      ]
    },
    {
      "slug": "Ултра-Соник",
      "displayName": "Ултра Соник",
      "registeredOffice": "БЪЛГАРИЯ, гр. София, 1407",
      "mps": [
        {
          "mpId": 5113,
          "mpName": "Георги Иванов Георгиев",
          "role": "manager",
          "isCurrent": true
        }
      ]
    },
    {
      "slug": "УЛТРАДЕНТ-СОЛЮШЪНС",
      "displayName": "УЛТРАДЕНТ СОЛЮШЪНС",
      "registeredOffice": "БЪЛГАРИЯ, гр. София, 1336",
      "mps": [
        {
          "mpId": 2849,
          "mpName": "Димитър Величков Георгиев",
          "role": "partner",
          "isCurrent": true
        }
      ]
    },
    {
      "slug": "УНИ-ЕНЕРДЖИ",
      "displayName": "УНИ ЕНЕРДЖИ",
      "registeredOffice": "БЪЛГАРИЯ, гр. София, 1000",
      "mps": [
        {
          "mpId": 2804,
          "mpName": "Ивайло Любенов Константинов",
          "role": "partner",
          "isCurrent": true
        }
      ]
    },
    {
      "slug": "Уорлд-Инвестмънт-Кепитъл",
      "displayName": "Уорлд Инвестмънт Кепитъл",
      "registeredOffice": "БЪЛГАРИЯ, гр. София, 1612",
      "mps": [
        {
          "mpId": 746,
          "mpName": "Никола Богданов Николов",
          "role": "director",
          "isCurrent": true
        }
      ]
    },
    {
      "slug": "УЧЕНИЧЕСКИ-ОТДИХ-И-СПОРТ",
      "displayName": "УЧЕНИЧЕСКИ ОТДИХ И СПОРТ",
      "registeredOffice": "БЪЛГАРИЯ, гр. София, 1113",
      "mps": [
        {
          "mpId": 3016,
          "mpName": "Борис Цветков Цветков",
          "role": "director",
          "isCurrent": true
        }
      ]
    },
    {
      "slug": "ФАРМАДЖЕН-БГ",
      "displayName": "ФАРМАДЖЕН БГ",
      "registeredOffice": "БЪЛГАРИЯ, гр. София, 1680",
      "mps": [
        {
          "mpId": 5245,
          "mpName": "Мартин Димитров Димитров",
          "role": "partner",
          "isCurrent": false
        }
      ]
    },
    {
      "slug": "ФАРМАПРО",
      "displayName": "ФАРМАПРО",
      "registeredOffice": "БЪЛГАРИЯ, гр. София, 1407",
      "mps": [
        {
          "mpId": 4745,
          "mpName": "Ваня Иванова Василева",
          "role": "partner",
          "isCurrent": true
        }
      ]
    },
    {
      "slug": "ФАСТ.БГ-ЕООД",
      "displayName": "ФАСТ.БГ ЕООД",
      "registeredOffice": "София (столица)",
      "mps": [
        {
          "mpId": 3047,
          "mpName": "НИКОЛА ХРИСТОВ КРЪСТЕВ",
          "role": "declared_stake",
          "isCurrent": true
        }
      ]
    },
    {
      "slug": "ФЕДЕРАЦИЯ-ЗА-ПРИЯТЕЛСТВО-С-НАРОДИТЕ-НА-РУСИЯ-И-ОНД",
      "displayName": "ФЕДЕРАЦИЯ ЗА ПРИЯТЕЛСТВО С НАРОДИТЕ НА РУСИЯ И ОНД",
      "registeredOffice": "БЪЛГАРИЯ, гр. София, 1504",
      "mps": [
        {
          "mpId": 1626,
          "mpName": "Николай Василев Петев",
          "role": "ngo_board",
          "isCurrent": true
        }
      ]
    },
    {
      "slug": "Феликсин",
      "displayName": "Феликсин",
      "registeredOffice": "БЪЛГАРИЯ, гр. София, 1404",
      "mps": [
        {
          "mpId": 4324,
          "mpName": "Искрен Николаев Митев",
          "role": "manager",
          "isCurrent": true
        }
      ]
    },
    {
      "slug": "ФИНАНСОВО-НЕЗАВИСИМИ",
      "displayName": "ФИНАНСОВО НЕЗАВИСИМИ",
      "registeredOffice": "БЪЛГАРИЯ, гр. София, 1421",
      "mps": [
        {
          "mpId": 5006,
          "mpName": "Ивелин Людмилов Михайлов",
          "role": "actual_owner",
          "isCurrent": false
        }
      ]
    },
    {
      "slug": "Фонд-мениджър-на-финансови-инструменти-в-България",
      "displayName": "Фонд мениджър на финансови инструменти в България",
      "registeredOffice": "БЪЛГАРИЯ, гр. София, 1756",
      "mps": [
        {
          "mpId": 4838,
          "mpName": "Александър Руменов Ненков",
          "role": "representative",
          "isCurrent": true
        }
      ]
    },
    {
      "slug": "Фонд-Спорт",
      "displayName": "Фонд Спорт",
      "registeredOffice": "БЪЛГАРИЯ, гр. София, 1612",
      "mps": [
        {
          "mpId": 4753,
          "mpName": "Андрей Христов Вълчев",
          "role": "manager",
          "isCurrent": true
        }
      ]
    },
    {
      "slug": "ФОНДАЦИЯ-&quot;120-ГОДИНИ-ЮРИДИЧЕСКИ-ФАКУЛТЕТ-ПРИ-СУ-СВ.КЛИМЕНТ-ОХРИДСКИ&quot;",
      "displayName": "ФОНДАЦИЯ &quot;120 ГОДИНИ ЮРИДИЧЕСКИ ФАКУЛТЕТ ПРИ СУ СВ.КЛИМЕНТ ОХРИДСКИ&quot;",
      "registeredOffice": "БЪЛГАРИЯ, гр. София, 1504",
      "mps": [
        {
          "mpId": 191,
          "mpName": "Даниел Василев Вълчев",
          "role": "ngo_board",
          "isCurrent": true
        }
      ]
    },
    {
      "slug": "ФОНДАЦИЯ-&quot;199&quot;",
      "displayName": "ФОНДАЦИЯ &quot;199&quot;",
      "registeredOffice": "БЪЛГАРИЯ, гр. София, 1618",
      "mps": [
        {
          "mpId": 581,
          "mpName": "Огнян Стефанов Сапарев",
          "role": "ngo_board",
          "isCurrent": true
        }
      ]
    },
    {
      "slug": "Фондация-&quot;ДОВЕРИЕ-И-ЗАКРИЛА&quot;",
      "displayName": "Фондация &quot;ДОВЕРИЕ И ЗАКРИЛА&quot;",
      "registeredOffice": "БЪЛГАРИЯ, гр. София, 1000",
      "mps": [
        {
          "mpId": 163,
          "mpName": "Васил Минчев Иванов-Лучано",
          "role": "ngo_board",
          "isCurrent": true
        }
      ]
    },
    {
      "slug": "ФОНДАЦИЯ-&quot;МЛАДА-БЪЛГАРИЯ&quot;",
      "displayName": "ФОНДАЦИЯ &quot;МЛАДА БЪЛГАРИЯ&quot;",
      "registeredOffice": "БЪЛГАРИЯ, гр. София, 1407",
      "mps": [
        {
          "mpId": 1005,
          "mpName": "Иван Йорданов Костов",
          "role": "ngo_board",
          "isCurrent": true
        }
      ]
    },
    {
      "slug": "ФОНДАЦИЯ-&quot;ПЕТЪР-АНАСТАСОВ&quot;",
      "displayName": "ФОНДАЦИЯ &quot;ПЕТЪР АНАСТАСОВ&quot;",
      "registeredOffice": "БЪЛГАРИЯ, гр. София, 1000",
      "mps": [
        {
          "mpId": 2371,
          "mpName": "Георги Чавдаров Анастасов",
          "role": "ngo_board",
          "isCurrent": true
        }
      ]
    },
    {
      "slug": "ФОНДАЦИЯ-ЕЛИЗАБЕТ-КОСТОВА",
      "displayName": "ФОНДАЦИЯ ЕЛИЗАБЕТ КОСТОВА",
      "registeredOffice": "БЪЛГАРИЯ, гр. София, 1000",
      "mps": [
        {
          "mpId": 3370,
          "mpName": "Стефан Любомиров Тафров",
          "role": "ngo_board",
          "isCurrent": true
        }
      ]
    },
    {
      "slug": "Фрий-Линен",
      "displayName": "Фрий Линен",
      "registeredOffice": "БЪЛГАРИЯ, гр. София, 1463",
      "mps": [
        {
          "mpId": 4705,
          "mpName": "Александър Викторов Рашев",
          "role": "sole_owner",
          "isCurrent": true
        }
      ]
    },
    {
      "slug": "ФУОРИКЛАСЕ-ТАЛЕНТ-ИНТЕРНЕШЪНЪЛ",
      "displayName": "ФУОРИКЛАСЕ ТАЛЕНТ ИНТЕРНЕШЪНЪЛ",
      "registeredOffice": "БЪЛГАРИЯ, гр. София, 1606",
      "mps": [
        {
          "mpId": 4541,
          "mpName": "Етиен Херцел Леви",
          "role": "ngo_board",
          "isCurrent": true
        }
      ]
    },
    {
      "slug": "Хензенен",
      "displayName": "Хензенен",
      "registeredOffice": "БЪЛГАРИЯ, гр. София, 1700",
      "mps": [
        {
          "mpId": 4507,
          "mpName": "Владимир Андонов Данаилов",
          "role": "manager",
          "isCurrent": true
        }
      ]
    },
    {
      "slug": "ХЕРОС-КЕПИТЪЛ",
      "displayName": "ХЕРОС КЕПИТЪЛ",
      "registeredOffice": "БЪЛГАРИЯ, гр. София, 1504",
      "mps": [
        {
          "mpId": 5276,
          "mpName": "Александър Георгиев Пулев",
          "role": "manager",
          "isCurrent": true
        }
      ]
    },
    {
      "slug": "ХОТЕЛИ-ЛИОН",
      "displayName": "ХОТЕЛИ ЛИОН",
      "registeredOffice": "БЪЛГАРИЯ, гр. София, 1172",
      "mps": [
        {
          "mpId": 3845,
          "mpName": "Владимир Славев Табутов",
          "role": "actual_owner",
          "isCurrent": true
        }
      ]
    },
    {
      "slug": "ЦЕНТЪР-ЗА-ЕВРОПЕЙСКА-И-АТЛАНТИЧЕСКА-ИНТЕГРАЦИЯ",
      "displayName": "ЦЕНТЪР ЗА ЕВРОПЕЙСКА И АТЛАНТИЧЕСКА ИНТЕГРАЦИЯ",
      "registeredOffice": "БЪЛГАРИЯ, гр. София, 1000",
      "mps": [
        {
          "mpId": 5086,
          "mpName": "Иво Севдалинов Цанев",
          "role": "ngo_board",
          "isCurrent": true
        }
      ]
    },
    {
      "slug": "ЦЦС-КОНСУЛТИНГ",
      "displayName": "ЦЦС КОНСУЛТИНГ",
      "registeredOffice": "БЪЛГАРИЯ, гр. София, 1404",
      "mps": [
        {
          "mpId": 708,
          "mpName": "Ирена Иванова Маринова-Варадинова",
          "role": "partner",
          "isCurrent": true
        }
      ]
    },
    {
      "slug": "Чист-живот",
      "displayName": "Чист живот",
      "registeredOffice": "БЪЛГАРИЯ, гр. София",
      "mps": [
        {
          "mpId": 2851,
          "mpName": "Борис Янков Ячев",
          "role": "partner",
          "isCurrent": false
        }
      ]
    },
    {
      "slug": "ЧОВЕК-ПРИРОДА-ЖИВОТ",
      "displayName": "ЧОВЕК - ПРИРОДА - ЖИВОТ",
      "registeredOffice": "БЪЛГАРИЯ, гр. София, 1303",
      "mps": [
        {
          "mpId": 5005,
          "mpName": "Стилиана Иванова Бобчева",
          "role": "ngo_board",
          "isCurrent": true
        }
      ]
    },
    {
      "slug": "ШЕСТИ-МАРЖ",
      "displayName": "ШЕСТИ  МАРЖ",
      "registeredOffice": "БЪЛГАРИЯ, гр. София, 1309",
      "mps": [
        {
          "mpId": 5113,
          "mpName": "Георги Иванов Георгиев",
          "role": "partner",
          "isCurrent": true
        }
      ]
    },
    {
      "slug": "Ълтимейт-киейтив-ЕООД",
      "displayName": "Ълтимейт киейтив ЕООД",
      "registeredOffice": "София",
      "mps": [
        {
          "mpId": 4378,
          "mpName": "Мирослава Петрова Петрова",
          "role": "declared_stake",
          "isCurrent": true
        }
      ]
    },
    {
      "slug": "ЮГОИЗТОЧНО-ЕВРОПЕЙСКИ-МЕДИЦИНСКИ-ФОРУМ",
      "displayName": "ЮГОИЗТОЧНО-ЕВРОПЕЙСКИ МЕДИЦИНСКИ ФОРУМ",
      "registeredOffice": "БЪЛГАРИЯ, София, 1680",
      "mps": [
        {
          "mpId": 4841,
          "mpName": "Васил Христов Пандов",
          "role": "ngo_board",
          "isCurrent": true
        }
      ]
    },
    {
      "slug": "ЮФ-МИЛЕНА",
      "displayName": "ЮФ МИЛЕНА",
      "registeredOffice": "БЪЛГАРИЯ, гр. София, 1000",
      "mps": [
        {
          "mpId": 746,
          "mpName": "Никола Богданов Николов",
          "role": "manager",
          "isCurrent": true
        }
      ]
    },
    {
      "slug": "ЯСПЕТУС",
      "displayName": "ЯСПЕТУС",
      "registeredOffice": "БЪЛГАРИЯ, гр. София, 1000",
      "mps": [
        {
          "mpId": 222,
          "mpName": "Петя Илиева Гегова",
          "role": "manager",
          "isCurrent": true
        }
      ]
    },
    {
      "slug": "LogSentinel-B.V-(чуждестранно)",
      "displayName": "LogSentinel B.V (чуждестранно)",
      "registeredOffice": "София (столица)",
      "mps": [
        {
          "mpId": 5229,
          "mpName": "Божидар Пламенов Божанов",
          "role": "declared_stake",
          "isCurrent": true
        }
      ]
    }
  ]
}