{"ekatte":"68134","page":14,"totalPages":15,"count":718,"companies":[{"slug":"СПОРТНИ-ИМОТИ-БЪЛГАРСКА-АРМИЯ","displayName":"СПОРТНИ ИМОТИ БЪЛГАРСКА АРМИЯ","registeredOffice":"БЪЛГАРИЯ, гр. София, 1612","mps":[{"mpId":5113,"mpName":"Георги Иванов Георгиев","role":"director","isCurrent":true}]},{"slug":"Справедливост-за-България","displayName":"Справедливост за България","registeredOffice":"БЪЛГАРИЯ, гр. София, 1202","mps":[{"mpId":2954,"mpName":"Лиляна Друмева Радева","role":"ngo_board","isCurrent":true}]},{"slug":"СПХ-АУТО","displayName":"СПХ  АУТО","registeredOffice":"БЪЛГАРИЯ, гр. София, 1756","mps":[{"mpId":5113,"mpName":"Георги Иванов Георгиев","role":"manager","isCurrent":true}]},{"slug":"СТАРА-ПЛАНИНА-ХОЛД","displayName":"СТАРА ПЛАНИНА ХОЛД","registeredOffice":"БЪЛГАРИЯ, гр. София, 1113","mps":[{"mpId":913,"mpName":"Евгений Василев Узунов","role":"director","isCurrent":true}]},{"slug":"СТИЛКОРД","displayName":"СТИЛКОРД","registeredOffice":"БЪЛГАРИЯ, гр. София, 1612","mps":[{"mpId":2723,"mpName":"Маргарита Николаева Николова","role":"partner","isCurrent":true}]},{"slug":"СЪВЕТ-ЗА-ЕВРОПЕЙСКО-ИНДИЙСКИ-БИЗНЕС-И-КУЛТУРНИ-ОТНОШЕНИЯ","displayName":"СЪВЕТ ЗА ЕВРОПЕЙСКО ИНДИЙСКИ БИЗНЕС И КУЛТУРНИ ОТНОШЕНИЯ","registeredOffice":"БЪЛГАРИЯ, гр. София, 1124","mps":[{"mpId":3466,"mpName":"Димитър Андреев Делчев","role":"ngo_board","isCurrent":true}]},{"slug":"СЪВЕТ-НА-ЖЕНИТЕ-В-БИЗНЕСА-В-БЪЛГАРИЯ","displayName":"СЪВЕТ НА ЖЕНИТЕ В БИЗНЕСА В БЪЛГАРИЯ","registeredOffice":"БЪЛГАРИЯ, гр. София, 1113","mps":[{"mpId":64,"mpName":"Лидия Сантова Шулева","role":"ngo_board","isCurrent":true}]},{"slug":"СЪСТЕЙНАБЪЛ-ЕНЕРДЖИ","displayName":"СЪСТЕЙНАБЪЛ ЕНЕРДЖИ","registeredOffice":"БЪЛГАРИЯ, гр. София, 1606","mps":[{"mpId":2924,"mpName":"Мартин Владимиров Тинчев","role":"director","isCurrent":true}]},{"slug":"СЪЮЗ-НА-ВЕТЕРИНАРНИТЕ-ЛЕКАРИ-В-БЪЛГАРИЯ","displayName":"СЪЮЗ НА ВЕТЕРИНАРНИТЕ ЛЕКАРИ В БЪЛГАРИЯ","registeredOffice":"БЪЛГАРИЯ, гр. София, 1360","mps":[{"mpId":4906,"mpName":"Димитър Ангелов Иванов","role":"ngo_board","isCurrent":true}]},{"slug":"СЪЮЗ-НА-ИКОНОМИСТИТЕ-В-БЪЛГАРИЯ","displayName":"СЪЮЗ НА ИКОНОМИСТИТЕ В БЪЛГАРИЯ","registeredOffice":"БЪЛГАРИЯ, гр. София, 1000","mps":[{"mpId":913,"mpName":"Евгений Василев Узунов","role":"ngo_board","isCurrent":true}]},{"slug":"СЪЮЗ-НА-НАРОДНИТЕ-ЧИТАЛИЩА","displayName":"СЪЮЗ НА НАРОДНИТЕ ЧИТАЛИЩА","registeredOffice":"БЪЛГАРИЯ, гр. София, 1000","mps":[{"mpId":5093,"mpName":"Данаил Лалев Петков","role":"ngo_board","isCurrent":true}]},{"slug":"СЪЮЗ-НА-ОФИЦЕРИТЕ-И-СЕРЖАНТИТЕ-ОТ-ЗАПАСА-И-РЕЗЕРВА","displayName":"СЪЮЗ НА ОФИЦЕРИТЕ И СЕРЖАНТИТЕ ОТ ЗАПАСА И РЕЗЕРВА","registeredOffice":"БЪЛГАРИЯ, гр. София, 1000","mps":[{"mpId":3060,"mpName":"Кольо Йорданов Милев","role":"ngo_board","isCurrent":true}]},{"slug":"Такси-Волт","displayName":"Такси Волт","registeredOffice":"БЪЛГАРИЯ, гр. София, 1766","mps":[{"mpId":3661,"mpName":"Виктор Гасан Насър","role":"director","isCurrent":true}]},{"slug":"ТГЕ-ТРАКИЯ-ГРИЙН-ЕНЕРДЖИ","displayName":"ТГЕ - ТРАКИЯ ГРИЙН ЕНЕРДЖИ","registeredOffice":"БЪЛГАРИЯ, гр. София, 1000","mps":[{"mpId":2794,"mpName":"Красимир Христов Янков","role":"manager","isCurrent":true}]},{"slug":"Теоли-ООД-не-активно","displayName":"Теоли ООД не активно","registeredOffice":"София (столица)","mps":[{"mpId":4500,"mpName":"Христо Танчев Проданов","role":"declared_stake","isCurrent":true}]},{"slug":"ТЕРА-УЕЙ-ЕНЕРДЖИ-ГРУП","displayName":"ТЕРА УЕЙ ЕНЕРДЖИ ГРУП","registeredOffice":"БЪЛГАРИЯ, гр. София, 1606","mps":[{"mpId":2924,"mpName":"Мартин Владимиров Тинчев","role":"manager","isCurrent":true}]},{"slug":"ТЕРА-УЕЙ-ИНВЕСТМЕНТ-ГРУП","displayName":"ТЕРА УЕЙ ИНВЕСТМЕНТ ГРУП","registeredOffice":"БЪЛГАРИЯ, гр. София, 1606","mps":[{"mpId":3681,"mpName":"Николина Панайотова Ангелкова","role":"director","isCurrent":true}]},{"slug":"Тесса-Грийн-Енерджи","displayName":"Тесса Грийн Енерджи","registeredOffice":"БЪЛГАРИЯ, гр. София, 1616","mps":[{"mpId":2732,"mpName":"Александър Димитров Манолев","role":"manager","isCurrent":true}]},{"slug":"Тетнус-България-ООД","displayName":"Тетнус България ООД","registeredOffice":"София (столица)","mps":[{"mpId":4938,"mpName":"Силви Кирилов Петров","role":"declared_stake","isCurrent":true}]},{"slug":"Топ-де-лукс","displayName":"Топ де лукс","registeredOffice":"БЪЛГАРИЯ, гр. София, 1324","mps":[{"mpId":5113,"mpName":"Георги Иванов Георгиев","role":"manager","isCurrent":true}]},{"slug":"Транскапитал-Центрум","displayName":"Транскапитал Центрум","registeredOffice":"БЪЛГАРИЯ, гр. София, 1172","mps":[{"mpId":3845,"mpName":"Владимир Славев Табутов","role":"actual_owner","isCurrent":true}]},{"slug":"УЕЛДРИНКС","displayName":"УЕЛДРИНКС","registeredOffice":"БЪЛГАРИЯ, гр. София, 1040","mps":[{"mpId":676,"mpName":"Иван Ганчов Искров","role":"partner","isCurrent":true}]},{"slug":"УинПроджект-ЕООД","displayName":"УинПроджект ЕООД","registeredOffice":"София (столица)","mps":[{"mpId":4551,"mpName":"Виктория Димитрова Василева","role":"declared_stake","isCurrent":true}]},{"slug":"Ултра-Соник","displayName":"Ултра Соник","registeredOffice":"БЪЛГАРИЯ, гр. София, 1407","mps":[{"mpId":5113,"mpName":"Георги Иванов Георгиев","role":"manager","isCurrent":true}]},{"slug":"УЛТРАДЕНТ-СОЛЮШЪНС","displayName":"УЛТРАДЕНТ СОЛЮШЪНС","registeredOffice":"БЪЛГАРИЯ, гр. София, 1336","mps":[{"mpId":2849,"mpName":"Димитър Величков Георгиев","role":"partner","isCurrent":true}]},{"slug":"УНИ-ЕНЕРДЖИ","displayName":"УНИ ЕНЕРДЖИ","registeredOffice":"БЪЛГАРИЯ, гр. София, 1000","mps":[{"mpId":2804,"mpName":"Ивайло Любенов Константинов","role":"partner","isCurrent":true}]},{"slug":"Уорлд-Инвестмънт-Кепитъл","displayName":"Уорлд Инвестмънт Кепитъл","registeredOffice":"БЪЛГАРИЯ, гр. София, 1612","mps":[{"mpId":746,"mpName":"Никола Богданов Николов","role":"director","isCurrent":true}]},{"slug":"УЧЕНИЧЕСКИ-ОТДИХ-И-СПОРТ","displayName":"УЧЕНИЧЕСКИ ОТДИХ И СПОРТ","registeredOffice":"БЪЛГАРИЯ, гр. София, 1113","mps":[{"mpId":3016,"mpName":"Борис Цветков Цветков","role":"director","isCurrent":true}]},{"slug":"ФАРМАДЖЕН-БГ","displayName":"ФАРМАДЖЕН БГ","registeredOffice":"БЪЛГАРИЯ, гр. София, 1680","mps":[{"mpId":5245,"mpName":"Мартин Димитров Димитров","role":"partner","isCurrent":false}]},{"slug":"ФАРМАПРО","displayName":"ФАРМАПРО","registeredOffice":"БЪЛГАРИЯ, гр. София, 1407","mps":[{"mpId":4745,"mpName":"Ваня Иванова Василева","role":"partner","isCurrent":true}]},{"slug":"Фармация-2012-ЕООД","displayName":"Фармация 2012 ЕООД","registeredOffice":"София","mps":[{"mpId":2659,"mpName":"Гергана Желязкова Стефанова","role":"declared_stake","isCurrent":true}]},{"slug":"Фасадни-Конструкции-ООД","displayName":"Фасадни Конструкции ООД","registeredOffice":"София","mps":[{"mpId":4430,"mpName":"Ивайло Ангелов Иванов","role":"declared_stake","isCurrent":true}]},{"slug":"Фаст-БГ-ЕООД","displayName":"Фаст БГ ЕООД","registeredOffice":"София (столица)","mps":[{"mpId":3047,"mpName":"НИКОЛА ХРИСТОВ КРЪСТЕВ","role":"declared_stake","isCurrent":true}]},{"slug":"ФАСТ.БГ-ЕООД","displayName":"ФАСТ.БГ ЕООД","registeredOffice":"София (столица)","mps":[{"mpId":3047,"mpName":"НИКОЛА ХРИСТОВ КРЪСТЕВ","role":"declared_stake","isCurrent":true}]},{"slug":"ФЕДЕРАЦИЯ-ЗА-ПРИЯТЕЛСТВО-С-НАРОДИТЕ-НА-РУСИЯ-И-ОНД","displayName":"ФЕДЕРАЦИЯ ЗА ПРИЯТЕЛСТВО С НАРОДИТЕ НА РУСИЯ И ОНД","registeredOffice":"БЪЛГАРИЯ, гр. София, 1504","mps":[{"mpId":1626,"mpName":"Николай Василев Петев","role":"ngo_board","isCurrent":true}]},{"slug":"Фейс-НЮЗ","displayName":"Фейс НЮЗ","registeredOffice":"София (столица)","mps":[{"mpId":4739,"mpName":"Димитър Стойков Николов","role":"declared_stake","isCurrent":true}]},{"slug":"Феликсин","displayName":"Феликсин","registeredOffice":"БЪЛГАРИЯ, гр. София, 1404","mps":[{"mpId":4324,"mpName":"Искрен Николаев Митев","role":"manager","isCurrent":true}]},{"slug":"Ферексим-ООД","displayName":"Ферексим ООД","registeredOffice":"София (столица)","mps":[{"mpId":3346,"mpName":"Иво Ангелов Христов","role":"declared_stake","isCurrent":true}]},{"slug":"ФИНАНСОВО-НЕЗАВИСИМИ","displayName":"ФИНАНСОВО НЕЗАВИСИМИ","registeredOffice":"БЪЛГАРИЯ, гр. София, 1421","mps":[{"mpId":5006,"mpName":"Ивелин Людмилов Михайлов","role":"actual_owner","isCurrent":false}]},{"slug":"Фолекс-ЕООД","displayName":"Фолекс ЕООД","registeredOffice":"София (столица)","mps":[{"mpId":4719,"mpName":"Петър Георгиев Кънев","role":"declared_stake","isCurrent":true}]},{"slug":"Фонд-мениджър-на-финансови-инструменти-в-България","displayName":"Фонд мениджър на финансови инструменти в България","registeredOffice":"БЪЛГАРИЯ, гр. София, 1756","mps":[{"mpId":4838,"mpName":"Александър Руменов Ненков","role":"representative","isCurrent":true}]},{"slug":"Фонд-Спорт","displayName":"Фонд Спорт","registeredOffice":"БЪЛГАРИЯ, гр. София, 1612","mps":[{"mpId":4753,"mpName":"Андрей Христов Вълчев","role":"manager","isCurrent":true}]},{"slug":"ФОНДАЦИЯ-&quot;120-ГОДИНИ-ЮРИДИЧЕСКИ-ФАКУЛТЕТ-ПРИ-СУ-СВ.КЛИМЕНТ-ОХРИДСКИ&quot;","displayName":"ФОНДАЦИЯ &quot;120 ГОДИНИ ЮРИДИЧЕСКИ ФАКУЛТЕТ ПРИ СУ СВ.КЛИМЕНТ ОХРИДСКИ&quot;","registeredOffice":"БЪЛГАРИЯ, гр. София, 1504","mps":[{"mpId":191,"mpName":"Даниел Василев Вълчев","role":"ngo_board","isCurrent":true}]},{"slug":"ФОНДАЦИЯ-&quot;199&quot;","displayName":"ФОНДАЦИЯ &quot;199&quot;","registeredOffice":"БЪЛГАРИЯ, гр. София, 1618","mps":[{"mpId":581,"mpName":"Огнян Стефанов Сапарев","role":"ngo_board","isCurrent":true}]},{"slug":"Фондация-&quot;ДОВЕРИЕ-И-ЗАКРИЛА&quot;","displayName":"Фондация &quot;ДОВЕРИЕ И ЗАКРИЛА&quot;","registeredOffice":"БЪЛГАРИЯ, гр. София, 1000","mps":[{"mpId":163,"mpName":"Васил Минчев Иванов-Лучано","role":"ngo_board","isCurrent":true}]},{"slug":"ФОНДАЦИЯ-&quot;МЛАДА-БЪЛГАРИЯ&quot;","displayName":"ФОНДАЦИЯ &quot;МЛАДА БЪЛГАРИЯ&quot;","registeredOffice":"БЪЛГАРИЯ, гр. София, 1407","mps":[{"mpId":1005,"mpName":"Иван Йорданов Костов","role":"ngo_board","isCurrent":true}]},{"slug":"ФОНДАЦИЯ-&quot;ПЕТЪР-АНАСТАСОВ&quot;","displayName":"ФОНДАЦИЯ &quot;ПЕТЪР АНАСТАСОВ&quot;","registeredOffice":"БЪЛГАРИЯ, гр. София, 1000","mps":[{"mpId":2371,"mpName":"Георги Чавдаров Анастасов","role":"ngo_board","isCurrent":true}]},{"slug":"ФОНДАЦИЯ-ЕЛИЗАБЕТ-КОСТОВА","displayName":"ФОНДАЦИЯ ЕЛИЗАБЕТ КОСТОВА","registeredOffice":"БЪЛГАРИЯ, гр. София, 1000","mps":[{"mpId":3370,"mpName":"Стефан Любомиров Тафров","role":"ngo_board","isCurrent":true}]},{"slug":"Франго-франчайз-ООД","displayName":"Франго франчайз ООД","registeredOffice":"София","mps":[{"mpId":4059,"mpName":"Цветелина Калинова Симеонова-Заркин","role":"declared_stake","isCurrent":true}]},{"slug":"Фрий-Линен","displayName":"Фрий Линен","registeredOffice":"БЪЛГАРИЯ, гр. София, 1463","mps":[{"mpId":4705,"mpName":"Александър Викторов Рашев","role":"sole_owner","isCurrent":true}]}]}