{"ekatte":"68134","page":9,"totalPages":15,"count":718,"companies":[{"slug":"БУЛЕВРОПРОДЖЕКТ","displayName":"БУЛЕВРОПРОДЖЕКТ","registeredOffice":"БЪЛГАРИЯ, гр. София, 1303","mps":[{"mpId":1505,"mpName":"Щерьо Щерев Щерев","role":"director","isCurrent":true}]},{"slug":"Буллакто-ООД","displayName":"Буллакто ООД","registeredOffice":"гр.София1618, ул.Мур15","mps":[{"mpId":4846,"mpName":"Павлин Иванов Найденов","role":"declared_stake","isCurrent":true}]},{"slug":"Булмек-ООД","displayName":"Булмек ООД","registeredOffice":"София (столица)","mps":[{"mpId":3325,"mpName":"Димитър Иванов Данчев","role":"declared_stake","isCurrent":true}]},{"slug":"Бургас-Хайдръджън","displayName":"Бургас Хайдръджън","registeredOffice":"БЪЛГАРИЯ, гр. София, 1000","mps":[{"mpId":64,"mpName":"Лидия Сантова Шулева","role":"director","isCurrent":true}]},{"slug":"БЪЛГАРО-МЕКСИКАНСКА-ТЪРГОВСКА-КАМАРА-СДРУЖЕНИЕ","displayName":"БЪЛГАРО-МЕКСИКАНСКА ТЪРГОВСКА КАМАРА СДРУЖЕНИЕ","registeredOffice":"БЪЛГАРИЯ, гр. София, 1124","mps":[{"mpId":3466,"mpName":"Димитър Андреев Делчев","role":"ngo_board","isCurrent":true}]},{"slug":"БЪЛГАРСКА-АГРАРНА-КАМАРА","displayName":"БЪЛГАРСКА АГРАРНА КАМАРА","registeredOffice":"БЪЛГАРИЯ, гр. София, 1606","mps":[{"mpId":4379,"mpName":"Йордан Стоянов Кръстанов","role":"ngo_board","isCurrent":true}]},{"slug":"Българска-асоциация-за-паркиране-и-устойчива-градска-мобилност","displayName":"Българска асоциация за паркиране и устойчива градска мобилност","registeredOffice":"БЪЛГАРИЯ, гр. София, 1000","mps":[{"mpId":4721,"mpName":"Андрей Стоянов Рунчев","role":"ngo_board","isCurrent":true}]},{"slug":"БЪЛГАРСКА-АСОЦИАЦИЯ-ЗА-РАЗВИТИЕ","displayName":"БЪЛГАРСКА АСОЦИАЦИЯ ЗА РАЗВИТИЕ","registeredOffice":"БЪЛГАРИЯ, гр. София, 1309","mps":[{"mpId":4856,"mpName":"Даниела Руменова Райчева","role":"ngo_board","isCurrent":true}]},{"slug":"БЪЛГАРСКА-АСОЦИАЦИЯ-ЗА-РЕКРЕАЦИЯ,-ИНТЕГРАЦИЯ-И-СПОРТ","displayName":"БЪЛГАРСКА АСОЦИАЦИЯ ЗА РЕКРЕАЦИЯ, ИНТЕГРАЦИЯ И СПОРТ","registeredOffice":"БЪЛГАРИЯ, гр. София, 1797","mps":[{"mpId":2985,"mpName":"Павел Михайлов Савов","role":"ngo_representative","isCurrent":true}]},{"slug":"БЪЛГАРСКА-АСОЦИАЦИЯ-НА-КЛУБОВЕТЕ-ЗА-СТАРИННИ-И-КЛАСИЧЕСКИ-АВТОМОБИЛИ-И-МОТОЦИКЛЕТИ-/БАКСКАМ/","displayName":"БЪЛГАРСКА АСОЦИАЦИЯ НА КЛУБОВЕТЕ ЗА СТАРИННИ И КЛАСИЧЕСКИ АВТОМОБИЛИ И МОТОЦИКЛЕТИ /БАКСКАМ/","registeredOffice":"БЪЛГАРИЯ, София, 1784","mps":[{"mpId":2775,"mpName":"Милен Василев Михов","role":"ngo_board","isCurrent":true}]},{"slug":"БЪЛГАРСКА-АСОЦИАЦИЯ-ПО-ЕЛЕКТРОННИ-СПОРТОВЕ","displayName":"БЪЛГАРСКА АСОЦИАЦИЯ ПО ЕЛЕКТРОННИ СПОРТОВЕ","registeredOffice":"БЪЛГАРИЯ, гр. София, 1618","mps":[{"mpId":3825,"mpName":"Жеко Георгиев Дандаринов","role":"ngo_board","isCurrent":true}]},{"slug":"БЪЛГАРСКА-БРАНШОВА-АСОЦИАЦИЯ-ПЪТНА-БЕЗОПАСНОСТ","displayName":"БЪЛГАРСКА БРАНШОВА АСОЦИАЦИЯ ПЪТНА БЕЗОПАСНОСТ","registeredOffice":"БЪЛГАРИЯ, гр. София, 1164","mps":[{"mpId":5268,"mpName":"Румен Ангелов Миланов","role":"ngo_board","isCurrent":true}]},{"slug":"БЪЛГАРСКА-КОНФЕДЕРАЦИЯ-ПО-КИК-БОКС-И-МУАЙ-ТАЙ","displayName":"БЪЛГАРСКА КОНФЕДЕРАЦИЯ ПО КИК-БОКС И МУАЙ-ТАЙ","registeredOffice":"БЪЛГАРИЯ, гр. София, 1000","mps":[{"mpId":3113,"mpName":"Владимир Славчев Вълев","role":"ngo_board","isCurrent":true}]},{"slug":"БЪЛГАРСКА-ОРЪЖЕЙНА-АСОЦИАЦИЯ","displayName":"БЪЛГАРСКА ОРЪЖЕЙНА АСОЦИАЦИЯ","registeredOffice":"БЪЛГАРИЯ, гр. София, 1000","mps":[{"mpId":5201,"mpName":"Стефан Иванов Цанков","role":"ngo_board","isCurrent":true}]},{"slug":"БЪЛГАРСКА-СЛАВА-И-ПАМЕТ","displayName":"БЪЛГАРСКА СЛАВА И ПАМЕТ","registeredOffice":"БЪЛГАРИЯ, гр. София","mps":[{"mpId":1501,"mpName":"Адриан Христов Асенов","role":"ngo_representative","isCurrent":true}]},{"slug":"БЪЛГАРСКА-СПОРТНА-ФЕДЕРАЦИЯ-ПО-ШАХМАТ","displayName":"БЪЛГАРСКА СПОРТНА ФЕДЕРАЦИЯ ПО ШАХМАТ","registeredOffice":"БЪЛГАРИЯ, гр. София, 1404","mps":[{"mpId":5092,"mpName":"Богомил Иванов Петков","role":"ngo_board","isCurrent":true}]},{"slug":"БЪЛГАРСКА-ФЕДЕРАЦИЯ-НА-ПЕНСИОНЕРСКИТЕ-СЪЮЗИ-И-ОРГАНИЗАЦИИ","displayName":"БЪЛГАРСКА ФЕДЕРАЦИЯ НА ПЕНСИОНЕРСКИТЕ СЪЮЗИ И ОРГАНИЗАЦИИ","registeredOffice":"БЪЛГАРИЯ, гр. София, 1504","mps":[{"mpId":3064,"mpName":"Велизар Пенков Енчев","role":"ngo_board","isCurrent":true}]},{"slug":"БЪЛГАРСКА-ХРАНИТЕЛНА-БОРСА","displayName":"БЪЛГАРСКА ХРАНИТЕЛНА БОРСА","registeredOffice":"БЪЛГАРИЯ, гр. София, 1421","mps":[{"mpId":2471,"mpName":"Емил Димитров Райнов","role":"partner","isCurrent":true}]},{"slug":"БЪЛГАРСКИ-АНТАРКТИЧЕСКИ-ИНСТИТУТ","displayName":"БЪЛГАРСКИ АНТАРКТИЧЕСКИ ИНСТИТУТ","registeredOffice":"БЪЛГАРИЯ, София, 1000","mps":[{"mpId":607,"mpName":"Мирослав Петров Севлиевски","role":"ngo_board","isCurrent":true}]},{"slug":"Български-ВиК-холдинг","displayName":"Български ВиК холдинг","registeredOffice":"БЪЛГАРИЯ, гр. София, 1000","mps":[{"mpId":3799,"mpName":"Лозко Стефанов Лозев","role":"representative","isCurrent":true}]},{"slug":"БЪЛГАРСКИ-ИНСТИТУТ-ЗА-ПРАВНО-РАЗВИТИЕ","displayName":"БЪЛГАРСКИ ИНСТИТУТ ЗА ПРАВНО РАЗВИТИЕ","registeredOffice":"БЪЛГАРИЯ, София, 1618","mps":[{"mpId":4252,"mpName":"Гроздан Спасов Караджов","role":"ngo_board","isCurrent":true}]},{"slug":"БЪЛГАРСКИ-СПОРТЕН-ТОТАЛИЗАТОР","displayName":"БЪЛГАРСКИ СПОРТЕН ТОТАЛИЗАТОР","registeredOffice":"БЪЛГАРИЯ, гр. София, 1618","mps":[{"mpId":4796,"mpName":"Александър Велиславов Тодоров","role":"manager","isCurrent":true}]},{"slug":"БЪЛГАРСКО-ГЕНЕАЛОЖКО-ДРУЖЕСТВО-РОДОЗНАНИЕ","displayName":"БЪЛГАРСКО ГЕНЕАЛОЖКО ДРУЖЕСТВО РОДОЗНАНИЕ","registeredOffice":"БЪЛГАРИЯ, гр. София, 1000","mps":[{"mpId":2608,"mpName":"Борис Борисов Станимиров","role":"ngo_board","isCurrent":true}]},{"slug":"БЪЛГЕРИЪН-МЕНИДЖМЪНТ-ЕНД-МАРКЕТИНГ-КЪМПАНИ","displayName":"БЪЛГЕРИЪН МЕНИДЖМЪНТ ЕНД МАРКЕТИНГ КЪМПАНИ","registeredOffice":"БЪЛГАРИЯ, гр. София, 1700","mps":[{"mpId":887,"mpName":"Мирослав Христофоров Найденов","role":"actual_owner","isCurrent":true}]},{"slug":"Ваня-Фууд-Кетъринг-ЕООД","displayName":"Ваня Фууд Кетъринг ЕООД","registeredOffice":"Сифия","mps":[{"mpId":5113,"mpName":"Георги Иванов Георгиев","role":"declared_stake","isCurrent":true}]},{"slug":"Вегамедикс-ЕООД","displayName":"Вегамедикс ЕООД","registeredOffice":"София","mps":[{"mpId":2659,"mpName":"Гергана Желязкова Стефанова","role":"declared_stake","isCurrent":true}]},{"slug":"Вели-груп-ЕООД","displayName":"Вели груп ЕООД","registeredOffice":"София (столица)","mps":[{"mpId":5208,"mpName":"Атидже Байрямова Алиева-Вели","role":"declared_stake","isCurrent":true}]},{"slug":"Венчър-Юръп","displayName":"Венчър Юръп","registeredOffice":"БЪЛГАРИЯ, гр. София, 1463","mps":[{"mpId":4507,"mpName":"Владимир Андонов Данаилов","role":"manager","isCurrent":true}]},{"slug":"ВЗАИМОСПОМАГАТЕЛНА-КАСА-КЪМ-ФТР-&quot;ПОДКРЕПА&quot;","displayName":"ВЗАИМОСПОМАГАТЕЛНА КАСА КЪМ ФТР &quot;ПОДКРЕПА&quot;","registeredOffice":"БЪЛГАРИЯ, София, 1000","mps":[{"mpId":2816,"mpName":"Йордан Стоянов Младенов","role":"ngo_board","isCurrent":true}]},{"slug":"ВИ-ЕМ-ЗЕТА-ДИФЕНС","displayName":"ВИ ЕМ ЗЕТА ДИФЕНС","registeredOffice":"БЪЛГАРИЯ, гр. София, 1407","mps":[{"mpId":2732,"mpName":"Александър Димитров Манолев","role":"manager","isCurrent":true}]},{"slug":"ВИЛА-ЕФОРИЯ","displayName":"ВИЛА ЕФОРИЯ","registeredOffice":"БЪЛГАРИЯ, гр. София, 1113","mps":[{"mpId":4430,"mpName":"Ивайло Ангелов Иванов","role":"manager","isCurrent":true}]},{"slug":"Виномания-ЕООД","displayName":"Виномания ЕООД","registeredOffice":"София (столица)","mps":[{"mpId":5153,"mpName":"ИВАЙЛО ВАЛЕНТИНОВ ШОТЕВ","role":"declared_stake","isCurrent":true}]},{"slug":"ВИП-СТРОЙ-ГРУП-22","displayName":"ВИП СТРОЙ ГРУП 22","registeredOffice":"БЪЛГАРИЯ, гр. София, 1839","mps":[{"mpId":5005,"mpName":"Стилиана Иванова Бобчева","role":"partner","isCurrent":true}]},{"slug":"ВМ-Експрес-2015-ООД","displayName":"ВМ Експрес 2015 ООД","registeredOffice":"София","mps":[{"mpId":2706,"mpName":"Веселин Найденов Марешки","role":"declared_stake","isCurrent":true}]},{"slug":"ВМ-Хотел-ООД","displayName":"ВМ Хотел ООД","registeredOffice":"София","mps":[{"mpId":2706,"mpName":"Веселин Найденов Марешки","role":"declared_stake","isCurrent":true}]},{"slug":"ГАМА-92","displayName":"ГАМА-92","registeredOffice":"БЪЛГАРИЯ, гр. София, 1233","mps":[{"mpId":5113,"mpName":"Георги Иванов Георгиев","role":"manager","isCurrent":true}]},{"slug":"ГЕНЕЗИС-2.0","displayName":"ГЕНЕЗИС 2.0","registeredOffice":"БЪЛГАРИЯ, гр. София, 1404","mps":[{"mpId":945,"mpName":"Цветан Костов Костов","role":"partner","isCurrent":true}]},{"slug":"ГЕО-ПЕТ-М","displayName":"ГЕО ПЕТ-М","registeredOffice":"БЪЛГАРИЯ, гр. София, 1505","mps":[{"mpId":5113,"mpName":"Георги Иванов Георгиев","role":"director","isCurrent":true}]},{"slug":"Глобал-Груп-Еко-ЕООД","displayName":"Глобал Груп Еко ЕООД","registeredOffice":"гр.София1619, ул.Всеволод Гаршин 8","mps":[{"mpId":4846,"mpName":"Павлин Иванов Найденов","role":"declared_stake","isCurrent":true}]},{"slug":"Глобал-Джобс-Нетуърк","displayName":"Глобал Джобс Нетуърк","registeredOffice":"БЪЛГАРИЯ, гр. София, 1000","mps":[{"mpId":5245,"mpName":"Мартин Димитров Димитров","role":"manager","isCurrent":true}]},{"slug":"Глобъл-Солюшънс-България-(ГСБ)","displayName":"Глобъл Солюшънс България (ГСБ)","registeredOffice":"София (столица)","mps":[{"mpId":4854,"mpName":"Христо Георгиев Гаджев","role":"declared_stake","isCurrent":true}]},{"slug":"Графит-Интернешънъл","displayName":"Графит Интернешънъл","registeredOffice":"БЪЛГАРИЯ, гр. София, 1700","mps":[{"mpId":4925,"mpName":"Мюмюн Сали Мюмюн","role":"sole_owner","isCurrent":true}]},{"slug":"Грийн-Инвестмънт-Пропъртис-ООД","displayName":"Грийн Инвестмънт Пропъртис ООД","registeredOffice":"София (столица)","mps":[{"mpId":3285,"mpName":"Християна Анастасова Тодорова","role":"declared_stake","isCurrent":true}]},{"slug":"Грийн-касъл-ЕООД","displayName":"Грийн касъл ЕООД","registeredOffice":"СОФИЯ","mps":[{"mpId":4925,"mpName":"МЮМЮН САЛИ МЮМЮН","role":"declared_stake","isCurrent":true}]},{"slug":"ДАРУ-КАР","displayName":"ДАРУ КАР","registeredOffice":"БЪЛГАРИЯ, гр. София, 1592","mps":[{"mpId":594,"mpName":"Бриго Христофоров Аспарухов","role":"director","isCurrent":true}]},{"slug":"ДАТА-ИНТЕНСИВ","displayName":"ДАТА ИНТЕНСИВ","registeredOffice":"БЪЛГАРИЯ, гр. София, 1111","mps":[{"mpId":3625,"mpName":"Йордан Янков Маджунков","role":"manager","isCurrent":true}]},{"slug":"ДВИЖЕНИЕ-ГРАЖДАНСКИ-МЕГДАН","displayName":"ДВИЖЕНИЕ \"ГРАЖДАНСКИ МЕГДАН\"","registeredOffice":"БЪЛГАРИЯ, гр. София, 1303","mps":[{"mpId":3694,"mpName":"Атанас Димитров Михнев","role":"ngo_board","isCurrent":true}]},{"slug":"ДЕЙТАЛИНКС","displayName":"ДЕЙТАЛИНКС","registeredOffice":"БЪЛГАРИЯ, гр. София, 1504","mps":[{"mpId":5088,"mpName":"Михаил Ивов Михайлов","role":"director","isCurrent":true}]},{"slug":"ДЕМОКРАЦИЯ","displayName":"ДЕМОКРАЦИЯ","registeredOffice":"БЪЛГАРИЯ, гр. София, 1202","mps":[{"mpId":1026,"mpName":"Екатерина Иванова Михайлова","role":"ngo_board","isCurrent":true}]},{"slug":"Демос-фарм-ЕООД","displayName":"Демос фарм ЕООД","registeredOffice":"София","mps":[{"mpId":2659,"mpName":"Гергана Желязкова Стефанова","role":"declared_stake","isCurrent":true}]}]}