{"ekatte":"68134","page":11,"totalPages":15,"count":718,"companies":[{"slug":"ИНСТИТУТ-ПЕРСПЕКТИВА-ЗА-БЪЛГАРИЯ","displayName":"ИНСТИТУТ ПЕРСПЕКТИВА ЗА БЪЛГАРИЯ","registeredOffice":"БЪЛГАРИЯ, гр. София, 1000","mps":[{"mpId":5192,"mpName":"Христо Симеонов Симеонов","role":"ngo_board","isCurrent":true}]},{"slug":"ИНТЕЛЕКТА-ГРУП","displayName":"ИНТЕЛЕКТА ГРУП","registeredOffice":"БЪЛГАРИЯ, гр. София, 1359","mps":[{"mpId":3914,"mpName":"Инна Владимирова Иванова","role":"partner","isCurrent":true}]},{"slug":"ИНТЕРГРУП-ЕУ","displayName":"ИНТЕРГРУП ЕУ","registeredOffice":"БЪЛГАРИЯ, гр. София, 1387","mps":[{"mpId":584,"mpName":"Александър Христов Филипов","role":"manager","isCurrent":true}]},{"slug":"Интерсол-ООД","displayName":"Интерсол ООД","registeredOffice":"София","mps":[{"mpId":4999,"mpName":"Явор Илиев Хайтов","role":"declared_stake","isCurrent":true}]},{"slug":"Интерфарм-2012-ЕООД","displayName":"Интерфарм 2012 ЕООД","registeredOffice":"София","mps":[{"mpId":2659,"mpName":"Гергана Желязкова Стефанова","role":"declared_stake","isCurrent":true}]},{"slug":"ИСКАБУЛ","displayName":"ИСКАБУЛ","registeredOffice":"БЪЛГАРИЯ, гр. София, 1618","mps":[{"mpId":148,"mpName":"Нено Ненов Димов","role":"actual_owner","isCurrent":true}]},{"slug":"Исторически-къщи-ЕООД","displayName":"Исторически къщи ЕООД","registeredOffice":"София (столица)","mps":[{"mpId":4434,"mpName":"ИРЕНА НИКОЛАЕВА НЕГИНОВА","role":"declared_stake","isCurrent":true}]},{"slug":"Итера-431-ЕООД","displayName":"Итера 431 ЕООД","registeredOffice":"София (столица)","mps":[{"mpId":3395,"mpName":"Арман Агоп Бабикян","role":"declared_stake","isCurrent":true}]},{"slug":"Кадиев-Глобал-ЕООД","displayName":"Кадиев Глобал ЕООД","registeredOffice":"София","mps":[{"mpId":3410,"mpName":"Георги  Стоянов Кадиев","role":"declared_stake","isCurrent":true}]},{"slug":"Каза-Натура-ЕООД","displayName":"Каза Натура ЕООД","registeredOffice":"София (столица)","mps":[{"mpId":4059,"mpName":"Цветелина Калинова Симеонова-Заркин","role":"declared_stake","isCurrent":true}]},{"slug":"Камибо-ЕООД","displayName":"Камибо ЕООД","registeredOffice":"София (столица)","mps":[{"mpId":2947,"mpName":"Станислав Иванов Попов","role":"declared_stake","isCurrent":true}]},{"slug":"Кар-13","displayName":"Кар 13","registeredOffice":"БЪЛГАРИЯ, гр. София, 1142","mps":[{"mpId":4152,"mpName":"Иво Георгиев Русчев","role":"manager","isCurrent":true}]},{"slug":"КАРГО-ТРАНС-ВАГОН-БЪЛГАРИЯ","displayName":"КАРГО ТРАНС ВАГОН БЪЛГАРИЯ","registeredOffice":"БЪЛГАРИЯ, гр. София, 1619","mps":[{"mpId":5121,"mpName":"Атанас Петров Атанасов","role":"director","isCurrent":true}]},{"slug":"КАРС-ПАРК","displayName":"КАРС ПАРК","registeredOffice":"БЪЛГАРИЯ, гр. София, 1712","mps":[{"mpId":2723,"mpName":"Маргарита Николаева Николова","role":"manager","isCurrent":true}]},{"slug":"КАРСИДО","displayName":"КАРСИДО","registeredOffice":"БЪЛГАРИЯ, гр. София, 1715","mps":[{"mpId":138,"mpName":"Долорес Борисова Арсенова","role":"manager","isCurrent":true}]},{"slug":"Кастелон-Керамикс-ЕООД","displayName":"Кастелон Керамикс ЕООД","registeredOffice":"София (столица)","mps":[{"mpId":5013,"mpName":"Пламен Ангелов Петков","role":"declared_stake","isCurrent":true}]},{"slug":"КЕЙ-ДИВЕЛОПМЕНТС","displayName":"КЕЙ ДИВЕЛОПМЕНТС","registeredOffice":"БЪЛГАРИЯ, гр. София, 1415","mps":[{"mpId":4252,"mpName":"Гроздан Спасов Караджов","role":"manager","isCurrent":true}]},{"slug":"Кемпен-БГ","displayName":"Кемпен БГ","registeredOffice":"София (столица)","mps":[{"mpId":5208,"mpName":"Атидже Байрямова Алиева-Вели","role":"declared_stake","isCurrent":true}]},{"slug":"Кеплер-1980","displayName":"Кеплер 1980","registeredOffice":"БЪЛГАРИЯ, гр. София, 1404","mps":[{"mpId":655,"mpName":"Димитър Милков Ламбовски","role":"manager","isCurrent":true}]},{"slug":"Кеплер-2008","displayName":"Кеплер 2008","registeredOffice":"БЪЛГАРИЯ, гр. София","mps":[{"mpId":655,"mpName":"Димитър Милков Ламбовски","role":"manager","isCurrent":true}]},{"slug":"КЕРАМИКА-ЛЕТНИЦА-2010","displayName":"КЕРАМИКА ЛЕТНИЦА 2010","registeredOffice":"БЪЛГАРИЯ, гр. София, 1309","mps":[{"mpId":5113,"mpName":"Георги Иванов Георгиев","role":"partner","isCurrent":true}]},{"slug":"КИД-2225","displayName":"КИД 2225","registeredOffice":"БЪЛГАРИЯ, гр. София, 1407","mps":[{"mpId":3226,"mpName":"Петър Атанасов Курумбашев","role":"manager","isCurrent":true}]},{"slug":"КИД-2226","displayName":"КИД 2226","registeredOffice":"БЪЛГАРИЯ, гр. София, 1407","mps":[{"mpId":3226,"mpName":"Петър Атанасов Курумбашев","role":"manager","isCurrent":true}]},{"slug":"КИД-2227","displayName":"КИД 2227","registeredOffice":"БЪЛГАРИЯ, гр. София, 1407","mps":[{"mpId":3226,"mpName":"Петър Атанасов Курумбашев","role":"manager","isCurrent":true}]},{"slug":"КИД-2229","displayName":"КИД 2229","registeredOffice":"БЪЛГАРИЯ, гр. София, 1407","mps":[{"mpId":3226,"mpName":"Петър Атанасов Курумбашев","role":"manager","isCurrent":true}]},{"slug":"КИДО-ЕНЕРДЖИ-БЪЛГАРИЯ","displayName":"КИДО ЕНЕРДЖИ БЪЛГАРИЯ","registeredOffice":"БЪЛГАРИЯ, гр. София, 1407","mps":[{"mpId":3294,"mpName":"Георги Милчев Чепишев","role":"partner","isCurrent":false}]},{"slug":"КИК-ЕНЕРДЖИ-1","displayName":"КИК ЕНЕРДЖИ - 1","registeredOffice":"БЪЛГАРИЯ, гр. София, 1407","mps":[{"mpId":3226,"mpName":"Петър Атанасов Курумбашев","role":"actual_owner","isCurrent":true}]},{"slug":"КИНТЕКС","displayName":"КИНТЕКС","registeredOffice":"БЪЛГАРИЯ, гр. София, 1407","mps":[{"mpId":5122,"mpName":"Александра Йовчева Вълчева","role":"director","isCurrent":true}]},{"slug":"Китайско-Български-Икономически-и-Културен-Съвет","displayName":"Китайско-Български Икономически и Културен Съвет","registeredOffice":"БЪЛГАРИЯ, гр. София, 1000","mps":[{"mpId":676,"mpName":"Иван Ганчов Искров","role":"ngo_board","isCurrent":true}]},{"slug":"Клийнинг-Айдиъс","displayName":"Клийнинг Айдиъс","registeredOffice":"БЪЛГАРИЯ, гр. София, 1421","mps":[{"mpId":2377,"mpName":"Росен Петров Петров","role":"partner","isCurrent":true}]},{"slug":"КЛУБ-ЕДЕЛВАЙС","displayName":"КЛУБ ЕДЕЛВАЙС","registeredOffice":"БЪЛГАРИЯ, гр. София, 1336","mps":[{"mpId":2505,"mpName":"Георги Иванов Андонов","role":"ngo_board","isCurrent":true}]},{"slug":"КОНСУЛТТРЕЙДИНГ-СЪРВИЗ","displayName":"КОНСУЛТТРЕЙДИНГ СЪРВИЗ","registeredOffice":"БЪЛГАРИЯ, гр. София, 1000","mps":[{"mpId":584,"mpName":"Александър Христов Филипов","role":"manager","isCurrent":true}]},{"slug":"КОРПОРЪТ-ЕНД-ТРЪСТ-СЪРВИСИЗ","displayName":"КОРПОРЪТ ЕНД ТРЪСТ СЪРВИСИЗ","registeredOffice":"БЪЛГАРИЯ, гр. София, 1000","mps":[{"mpId":1791,"mpName":"Димитър Иванов Абаджиев","role":"partner","isCurrent":true}]},{"slug":"Кравел-ЕООД","displayName":"Кравел ЕООД","registeredOffice":"София","mps":[{"mpId":2819,"mpName":"Красимир Любомиров Велчев","role":"declared_stake","isCurrent":true}]},{"slug":"Ксбв-ЕООД","displayName":"Ксбв ЕООД","registeredOffice":"София (столица)","mps":[{"mpId":5086,"mpName":"Иво Севдалинов Цанев","role":"declared_stake","isCurrent":true}]},{"slug":"КУЛТУРЕН-КЛУБ-ТРЯВНА","displayName":"КУЛТУРЕН КЛУБ  ТРЯВНА","registeredOffice":"БЪЛГАРИЯ, гр. София, 1000","mps":[{"mpId":3307,"mpName":"Татяна Дончева Тотева","role":"ngo_board","isCurrent":true}]},{"slug":"КЪЛБЕРГЛИ","displayName":"КЪЛБЕРГЛИ","registeredOffice":"БЪЛГАРИЯ, гр. София, 1606","mps":[{"mpId":5230,"mpName":"Елисавета Димитрова Белобрадова","role":"sole_owner","isCurrent":true}]},{"slug":"Кю-Ем-Консултинг-ООД","displayName":"Кю Ем Консултинг ООД","registeredOffice":"София (столица)","mps":[{"mpId":4841,"mpName":"Васил Христов Пандов","role":"declared_stake","isCurrent":true}]},{"slug":"ЛАКОН-БГ","displayName":"ЛАКОН БГ","registeredOffice":"БЪЛГАРИЯ, гр. София, 1407","mps":[{"mpId":3226,"mpName":"Петър Атанасов Курумбашев","role":"manager","isCurrent":true}]},{"slug":"ЛАРА-РЕЙСИНГ-АВТО-КЛУБ","displayName":"ЛАРА РЕЙСИНГ АВТО КЛУБ","registeredOffice":"БЪЛГАРИЯ, гр. София, 1619","mps":[{"mpId":3322,"mpName":"Крум Георгиев Дончев","role":"ngo_board","isCurrent":true}]},{"slug":"Ле-Инвест-ООД","displayName":"Ле Инвест ООД","registeredOffice":"София","mps":[{"mpId":3694,"mpName":"Атанас Димитров Михнев","role":"declared_stake","isCurrent":true}]},{"slug":"ЛЕМАРК-ИНВЕСТ","displayName":"ЛЕМАРК ИНВЕСТ","registeredOffice":"БЪЛГАРИЯ, гр. София, 1421","mps":[{"mpId":5270,"mpName":"Здравко Марков Марков","role":"manager","isCurrent":true}]},{"slug":"ЛИБЕРАЛНА-ИНТЕГРАЦИЯ","displayName":"ЛИБЕРАЛНА  ИНТЕГРАЦИЯ","registeredOffice":"БЪЛГАРИЯ, гр. София, 1000","mps":[{"mpId":4120,"mpName":"Мустафа Сали Карадайъ","role":"ngo_board","isCurrent":true}]},{"slug":"ЛОЗЕНЕЦ-КАРААГАЧ","displayName":"ЛОЗЕНЕЦ КАРААГАЧ","registeredOffice":"БЪЛГАРИЯ, гр. София, 1220","mps":[{"mpId":2609,"mpName":"Мариана Георгиева Тодорова","role":"manager","isCurrent":true}]},{"slug":"М-БЕТ-строй-ЕООД","displayName":"М БЕТ строй ЕООД","registeredOffice":"София (столица)","mps":[{"mpId":5208,"mpName":"Атидже Байрямова Алиева-Вели","role":"declared_stake","isCurrent":true}]},{"slug":"МА-Корпорейшън","displayName":"МА Корпорейшън","registeredOffice":"БЪЛГАРИЯ, гр. София, 1000","mps":[{"mpId":1553,"mpName":"Димитър Василев Аврамов","role":"director","isCurrent":true}]},{"slug":"МАКСИМУМ-2023","displayName":"МАКСИМУМ 2023","registeredOffice":"БЪЛГАРИЯ, гр. София, 1111","mps":[{"mpId":2551,"mpName":"Мустафа Фахри Ахмед","role":"manager","isCurrent":true}]},{"slug":"Манира-ЕООД","displayName":"Манира ЕООД","registeredOffice":"София (столица)","mps":[{"mpId":3395,"mpName":"Арман Агоп Бабикян","role":"declared_stake","isCurrent":true}]},{"slug":"Марк-Хелт-Консулт-ООД","displayName":"Марк Хелт Консулт ООД","registeredOffice":"София (столица)","mps":[{"mpId":4841,"mpName":"Васил Христов Пандов","role":"declared_stake","isCurrent":true}]},{"slug":"Маркет-уинг-сървисис-ООД","displayName":"Маркет уинг сървисис ООД","registeredOffice":"СОФИЯ","mps":[{"mpId":4190,"mpName":"КАЛОЯН ТОНЕВ ИКОНОМОВ","role":"declared_stake","isCurrent":true}]}]}