{
  "ekatte": "68134",
  "page": 4,
  "totalPages": 16,
  "count": 797,
  "companies": [
    {
      "slug": "Мадж.ио",
      "displayName": "Мадж.ио",
      "registeredOffice": "София (столица)",
      "mps": [
        {
          "mpId": 5229,
          "mpName": "Божидар Пламенов Божанов",
          "role": "declared_stake",
          "isCurrent": true
        }
      ]
    },
    {
      "slug": "Монна-Интернешънъл",
      "displayName": "Монна Интернешънъл",
      "registeredOffice": "БЪЛГАРИЯ, гр. София, 1574",
      "mps": [
        {
          "mpId": 3342,
          "mpName": "Юлиян Милчев Ненчев",
          "role": "sole_owner",
          "isCurrent": true
        },
        {
          "mpId": 3342,
          "mpName": "Юлиян Милчев Ненчев",
          "role": "manager",
          "isCurrent": true
        },
        {
          "mpId": 3342,
          "mpName": "Юлиян Милчев Ненчев",
          "role": "partner",
          "isCurrent": false
        }
      ]
    },
    {
      "slug": "НАПОИТЕЛНИ-СИСТЕМИ",
      "displayName": "НАПОИТЕЛНИ СИСТЕМИ",
      "registeredOffice": "БЪЛГАРИЯ, гр. София, 1186",
      "mps": [
        {
          "mpId": 4649,
          "mpName": "Генади Събков Събков",
          "role": "branch_manager",
          "isCurrent": true
        },
        {
          "mpId": 5198,
          "mpName": "Галин Неделчев Дурев",
          "role": "director",
          "isCurrent": true
        },
        {
          "mpId": 909,
          "mpName": "Емил Димитров Гущеров",
          "role": "director",
          "isCurrent": true
        }
      ]
    },
    {
      "slug": "Новосолар-ООД",
      "displayName": "Новосолар ООД",
      "registeredOffice": "СОФИЯ",
      "mps": [
        {
          "mpId": 4190,
          "mpName": "Калоян Тонев Икономов",
          "role": "partner",
          "isCurrent": true
        },
        {
          "mpId": 4190,
          "mpName": "КАЛОЯН ТОНЕВ ИКОНОМОВ",
          "role": "declared_stake",
          "isCurrent": true
        }
      ]
    },
    {
      "slug": "Орхание-1-ООД",
      "displayName": "Орхание 1 ООД",
      "registeredOffice": "София",
      "mps": [
        {
          "mpId": 3047,
          "mpName": "НИКОЛА ХРИСТОВ КРЪСТЕВ",
          "role": "declared_stake",
          "isCurrent": true
        }
      ]
    },
    {
      "slug": "Орхание-дистрибюшън-ООД",
      "displayName": "Орхание дистрибюшън ООД",
      "registeredOffice": "София",
      "mps": [
        {
          "mpId": 3047,
          "mpName": "НИКОЛА ХРИСТОВ КРЪСТЕВ",
          "role": "declared_stake",
          "isCurrent": true
        }
      ]
    },
    {
      "slug": "Психотерапевтични-и-консултантски-услуги-Александрова",
      "displayName": "Психотерапевтични и консултантски услуги Александрова",
      "registeredOffice": "БЪЛГАРИЯ, гр. София, 1434",
      "mps": [
        {
          "mpId": 2936,
          "mpName": "Миглена Дойкова Александрова",
          "role": "sole_owner",
          "isCurrent": true
        },
        {
          "mpId": 2936,
          "mpName": "Миглена Дойкова Александрова",
          "role": "manager",
          "isCurrent": true
        },
        {
          "mpId": 2936,
          "mpName": "Миглена Дойкова Александрова",
          "role": "partner",
          "isCurrent": false
        }
      ]
    },
    {
      "slug": "Раведас-ЕООД",
      "displayName": "Раведас ЕООД",
      "registeredOffice": "София (столица)",
      "mps": [
        {
          "mpId": 4252,
          "mpName": "Гроздан Спасов Караджов",
          "role": "declared_stake",
          "isCurrent": true
        }
      ]
    },
    {
      "slug": "РАЙЗЕН-ТЕХНОЛОДЖИ",
      "displayName": "РАЙЗЕН ТЕХНОЛОДЖИ",
      "registeredOffice": "БЪЛГАРИЯ, гр. София, 1407",
      "mps": [
        {
          "mpId": 1558,
          "mpName": "Доброслав Дилянов Димитров",
          "role": "director",
          "isCurrent": true
        },
        {
          "mpId": 1558,
          "mpName": "Доброслав Дилянов Димитров",
          "role": "actual_owner",
          "isCurrent": true
        },
        {
          "mpId": 1558,
          "mpName": "Доброслав Дилянов Димитров",
          "role": "representative",
          "isCurrent": true
        }
      ]
    },
    {
      "slug": "РЕНТ-ФИКС",
      "displayName": "РЕНТ ФИКС",
      "registeredOffice": "БЪЛГАРИЯ, гр. София, 1415",
      "mps": [
        {
          "mpId": 76,
          "mpName": "Валентин Николов Милтенов",
          "role": "manager",
          "isCurrent": true
        },
        {
          "mpId": 76,
          "mpName": "Валентин Николов Милтенов",
          "role": "partner",
          "isCurrent": true
        },
        {
          "mpId": 76,
          "mpName": "Валентин Николов Милтенов",
          "role": "sole_owner",
          "isCurrent": false
        }
      ]
    },
    {
      "slug": "РОДОЛЮБЦИ-ЗА-БЪЛГАРИЯ",
      "displayName": "РОДОЛЮБЦИ ЗА БЪЛГАРИЯ",
      "registeredOffice": "БЪЛГАРИЯ, гр. София, 1421",
      "mps": [
        {
          "mpId": 4465,
          "mpName": "Николай Георгиев Марков",
          "role": "ngo_representative",
          "isCurrent": true
        },
        {
          "mpId": 4465,
          "mpName": "Николай Георгиев Марков",
          "role": "ngo_board",
          "isCurrent": true
        },
        {
          "mpId": 5006,
          "mpName": "Ивелин Людмилов Михайлов",
          "role": "ngo_board",
          "isCurrent": true
        }
      ]
    },
    {
      "slug": "Светлодар-2025",
      "displayName": "Светлодар 2025",
      "registeredOffice": "БЪЛГАРИЯ, гр. София, 1000",
      "mps": [
        {
          "mpId": 5113,
          "mpName": "Георги Иванов Георгиев",
          "role": "manager",
          "isCurrent": true
        },
        {
          "mpId": 5113,
          "mpName": "Георги Иванов Георгиев",
          "role": "partner",
          "isCurrent": false
        },
        {
          "mpId": 5113,
          "mpName": "Георги Иванов Георгиев",
          "role": "sole_owner",
          "isCurrent": false
        }
      ]
    },
    {
      "slug": "СДРУЖЕНИЕ-&quot;ЦЕНТЪР&quot;",
      "displayName": "СДРУЖЕНИЕ &quot;ЦЕНТЪР&quot;",
      "registeredOffice": "БЪЛГАРИЯ, гр. София, 1000",
      "mps": [
        {
          "mpId": 2411,
          "mpName": "Димитър Кирилов Байрактаров",
          "role": "ngo_representative",
          "isCurrent": true
        },
        {
          "mpId": 2411,
          "mpName": "Димитър Кирилов Байрактаров",
          "role": "ngo_board",
          "isCurrent": true
        },
        {
          "mpId": 3458,
          "mpName": "Петър Христов Димитров",
          "role": "ngo_board",
          "isCurrent": true
        }
      ]
    },
    {
      "slug": "СДРУЖЕНИЕ-БЪЛГАРСКА-ФЕДЕРАЦИЯ-ПО-ШАХМАТ-2022",
      "displayName": "СДРУЖЕНИЕ БЪЛГАРСКА ФЕДЕРАЦИЯ ПО ШАХМАТ 2022",
      "registeredOffice": "БЪЛГАРИЯ, гр. София, 1000",
      "mps": [
        {
          "mpId": 2826,
          "mpName": "Васил Миланов Антонов",
          "role": "ngo_board",
          "isCurrent": true
        },
        {
          "mpId": 2826,
          "mpName": "Васил Миланов Антонов",
          "role": "ngo_representative",
          "isCurrent": true
        },
        {
          "mpId": 5136,
          "mpName": "Иван Костадинов Вачев",
          "role": "ngo_board",
          "isCurrent": true
        }
      ]
    },
    {
      "slug": "Сивев-Инвест-ЕООД",
      "displayName": "Сивев Инвест ЕООД",
      "registeredOffice": "гр.София",
      "mps": [
        {
          "mpId": 5215,
          "mpName": "Татяна Славова Султанова - Сивева",
          "role": "declared_stake",
          "isCurrent": true
        }
      ]
    },
    {
      "slug": "Скайглас-ООД",
      "displayName": "Скайглас ООД",
      "registeredOffice": "София (столица)",
      "mps": [
        {
          "mpId": 5159,
          "mpName": "Димо Георгиев Дренчев",
          "role": "manager",
          "isCurrent": true
        },
        {
          "mpId": 4223,
          "mpName": "Николай Георгиев Дренчев",
          "role": "declared_stake",
          "isCurrent": true
        }
      ]
    },
    {
      "slug": "Скрим-ауто-ЕООД",
      "displayName": "Скрим ауто ЕООД",
      "registeredOffice": "София (столица)",
      "mps": [
        {
          "mpId": 3121,
          "mpName": "Бойко Петров Кафеджиев",
          "role": "manager",
          "isCurrent": true
        },
        {
          "mpId": 3121,
          "mpName": "Бойко Петров Кафеджиев",
          "role": "sole_owner",
          "isCurrent": true
        },
        {
          "mpId": 3121,
          "mpName": "Бойко Петров Кафеджиев",
          "role": "declared_stake",
          "isCurrent": true
        }
      ]
    },
    {
      "slug": "Стинки-Бариста-ООД",
      "displayName": "Стинки Бариста ООД",
      "registeredOffice": "София",
      "mps": [
        {
          "mpId": 3914,
          "mpName": "Инна Владимирова Иванова",
          "role": "partner",
          "isCurrent": true
        },
        {
          "mpId": 3914,
          "mpName": "Инна Владимирова Иванова",
          "role": "declared_stake",
          "isCurrent": true
        }
      ]
    },
    {
      "slug": "СТОК-ПЛЮС",
      "displayName": "СТОК ПЛЮС",
      "registeredOffice": "БЪЛГАРИЯ, гр. София, 1632",
      "mps": [
        {
          "mpId": 5283,
          "mpName": "Владислав Панчев Панев",
          "role": "director",
          "isCurrent": true
        },
        {
          "mpId": 5283,
          "mpName": "Владислав Панчев Панев",
          "role": "representative",
          "isCurrent": true
        },
        {
          "mpId": 5283,
          "mpName": "Владислав Панчев Панев",
          "role": "actual_owner",
          "isCurrent": true
        }
      ]
    },
    {
      "slug": "ТАУН-ЪП-8",
      "displayName": "ТАУН ЪП 8",
      "registeredOffice": "БЪЛГАРИЯ, гр. София, 1000",
      "mps": [
        {
          "mpId": 5119,
          "mpName": "Весела Господинова Момчева-Таун",
          "role": "manager",
          "isCurrent": true
        },
        {
          "mpId": 5119,
          "mpName": "Весела Господинова Момчева-Таун",
          "role": "partner",
          "isCurrent": false
        },
        {
          "mpId": 5119,
          "mpName": "Весела Господинова Момчева-Таун",
          "role": "sole_owner",
          "isCurrent": false
        }
      ]
    },
    {
      "slug": "Флаш-Транс-България-ЕООД",
      "displayName": "Флаш Транс България ЕООД",
      "registeredOffice": "София (столица)",
      "mps": [
        {
          "mpId": 4434,
          "mpName": "Ирена Николаева Негинова",
          "role": "manager",
          "isCurrent": true
        },
        {
          "mpId": 4434,
          "mpName": "Ирена Николаева Негинова",
          "role": "sole_owner",
          "isCurrent": true
        },
        {
          "mpId": 4434,
          "mpName": "ИРЕНА НИКОЛАЕВА НЕГИНОВА",
          "role": "declared_stake",
          "isCurrent": true
        }
      ]
    },
    {
      "slug": "ФОТОН-ПАРК",
      "displayName": "ФОТОН ПАРК",
      "registeredOffice": "БЪЛГАРИЯ, гр. София, 1407",
      "mps": [
        {
          "mpId": 13,
          "mpName": "Несрин Мустафа Узун",
          "role": "sole_owner",
          "isCurrent": true
        },
        {
          "mpId": 13,
          "mpName": "Несрин Мустафа Узун",
          "role": "manager",
          "isCurrent": true
        },
        {
          "mpId": 13,
          "mpName": "Несрин Мустафа Узун",
          "role": "partner",
          "isCurrent": false
        }
      ]
    },
    {
      "slug": "Цема-ЕООД",
      "displayName": "Цема ЕООД",
      "registeredOffice": "София",
      "mps": [
        {
          "mpId": 3047,
          "mpName": "НИКОЛА ХРИСТОВ КРЪСТЕВ",
          "role": "declared_stake",
          "isCurrent": true
        }
      ]
    },
    {
      "slug": "Чъкис-Кофи-Роустъри-ООД",
      "displayName": "Чъкис Кофи Роустъри ООД",
      "registeredOffice": "София",
      "mps": [
        {
          "mpId": 3914,
          "mpName": "Инна Владимирова Иванова",
          "role": "declared_stake",
          "isCurrent": true
        }
      ]
    },
    {
      "slug": "ЯНГ-Лигал-Консултинг-ООД",
      "displayName": "ЯНГ Лигал Консултинг ООД",
      "registeredOffice": "София (столица)",
      "mps": [
        {
          "mpId": 3794,
          "mpName": "Димитър Колев Гочев",
          "role": "partner",
          "isCurrent": true
        },
        {
          "mpId": 3794,
          "mpName": "Димитър Колев Гочев",
          "role": "declared_stake",
          "isCurrent": true
        }
      ]
    },
    {
      "slug": "LogSentinel-B.V.-(чуждестранно)",
      "displayName": "LogSentinel B.V. (чуждестранно)",
      "registeredOffice": "София (столица)",
      "mps": [
        {
          "mpId": 5229,
          "mpName": "Божидар Пламенов Божанов",
          "role": "declared_stake",
          "isCurrent": true
        }
      ]
    },
    {
      "slug": "Архинал",
      "displayName": "\"Архинал\"",
      "registeredOffice": "гр. София",
      "mps": [
        {
          "mpId": 3901,
          "mpName": "Мукаддес Юсуф Налбант",
          "role": "declared_stake",
          "isCurrent": true
        }
      ]
    },
    {
      "slug": "Интегрити-Европа-ООД",
      "displayName": "\"Интегрити Европа\" ООД",
      "registeredOffice": "София (столица)",
      "mps": [
        {
          "mpId": 4707,
          "mpName": "АНДРЕЙ ИВАНОВ ЦЕКОВ",
          "role": "declared_stake",
          "isCurrent": true
        }
      ]
    },
    {
      "slug": "Каза-адора-ООД",
      "displayName": "\"Каза адора\" ООД",
      "registeredOffice": "София (столица)",
      "mps": [
        {
          "mpId": 4705,
          "mpName": "Александър Викторов Рашев",
          "role": "declared_stake",
          "isCurrent": true
        }
      ]
    },
    {
      "slug": "СТВОЛОВИ-КЛЕТКИ-В-РЕПРОДУКТИВНАТА-МЕДИЦИНА-ФОНДАЦИЯ",
      "displayName": "\"СТВОЛОВИ КЛЕТКИ В РЕПРОДУКТИВНАТА МЕДИЦИНА\" ФОНДАЦИЯ",
      "registeredOffice": "БЪЛГАРИЯ, гр. София, 1303",
      "mps": [
        {
          "mpId": 164,
          "mpName": "Атанас Димитров Щерев",
          "role": "ngo_representative",
          "isCurrent": true
        },
        {
          "mpId": 164,
          "mpName": "Атанас Димитров Щерев",
          "role": "ngo_board",
          "isCurrent": true
        }
      ]
    },
    {
      "slug": "Тирел-Инженеринг-ЕООД",
      "displayName": "\"Тирел Инженеринг\" ЕООД",
      "registeredOffice": "София (столица)",
      "mps": [
        {
          "mpId": 5014,
          "mpName": "Васил Стефанов Стефанов",
          "role": "declared_stake",
          "isCurrent": true
        }
      ]
    },
    {
      "slug": "Уайн-Партнерс-ООД",
      "displayName": "\"Уайн Партнерс\" ООД",
      "registeredOffice": "София (столица)",
      "mps": [
        {
          "mpId": 4858,
          "mpName": "Виктор Тенчев Папазов",
          "role": "declared_stake",
          "isCurrent": true
        }
      ]
    },
    {
      "slug": "Фюри-студио-ООД",
      "displayName": "\"Фюри студио\" ООД",
      "registeredOffice": "София (столица)",
      "mps": [
        {
          "mpId": 4705,
          "mpName": "Александър Викторов Рашев",
          "role": "declared_stake",
          "isCurrent": true
        }
      ]
    },
    {
      "slug": "&quot;БОЛКАН-АГРОТРЕЙД-ПАРТНЕРС&quot;",
      "displayName": "&quot;БОЛКАН АГРОТРЕЙД ПАРТНЕРС&quot;",
      "registeredOffice": "БЪЛГАРИЯ, гр. София, 1404",
      "mps": [
        {
          "mpId": 52,
          "mpName": "Нихат Тахир Кабил",
          "role": "manager",
          "isCurrent": true
        },
        {
          "mpId": 52,
          "mpName": "Нихат Тахир Кабил",
          "role": "sole_owner",
          "isCurrent": true
        }
      ]
    },
    {
      "slug": "3-С-Инвест",
      "displayName": "3 С Инвест",
      "registeredOffice": "БЪЛГАРИЯ, гр. София, 1301",
      "mps": [
        {
          "mpId": 908,
          "mpName": "Димитър Йорданов Чукарски",
          "role": "manager",
          "isCurrent": true
        },
        {
          "mpId": 908,
          "mpName": "Димитър Йорданов Чукарски",
          "role": "partner",
          "isCurrent": true
        }
      ]
    },
    {
      "slug": "7-ОУШЪНС.БГ",
      "displayName": "7 ОУШЪНС.БГ",
      "registeredOffice": "БЪЛГАРИЯ, гр. София, 1517",
      "mps": [
        {
          "mpId": 2942,
          "mpName": "Евгени Генчев Будинов",
          "role": "manager",
          "isCurrent": true
        },
        {
          "mpId": 2942,
          "mpName": "Евгени Генчев Будинов",
          "role": "partner",
          "isCurrent": true
        }
      ]
    },
    {
      "slug": "А-Фууд-Спартак",
      "displayName": "А Фууд Спартак",
      "registeredOffice": "БЪЛГАРИЯ, гр. София, 1000",
      "mps": [
        {
          "mpId": 2426,
          "mpName": "Борислав Сабинов Иглев",
          "role": "manager",
          "isCurrent": true
        },
        {
          "mpId": 2426,
          "mpName": "Борислав Сабинов Иглев",
          "role": "sole_owner",
          "isCurrent": true
        }
      ]
    },
    {
      "slug": "АБ-Инвестмънтс",
      "displayName": "АБ Инвестмънтс",
      "registeredOffice": "БЪЛГАРИЯ, гр. София, 1408",
      "mps": [
        {
          "mpId": 2851,
          "mpName": "Борис Янков Ячев",
          "role": "manager",
          "isCurrent": true
        },
        {
          "mpId": 2851,
          "mpName": "Борис Янков Ячев",
          "role": "partner",
          "isCurrent": true
        }
      ]
    },
    {
      "slug": "АВАЛОН-ТРЕЙД",
      "displayName": "АВАЛОН ТРЕЙД",
      "registeredOffice": "БЪЛГАРИЯ, гр. София, 1574",
      "mps": [
        {
          "mpId": 5113,
          "mpName": "Георги Иванов Георгиев",
          "role": "sole_owner",
          "isCurrent": true
        },
        {
          "mpId": 5113,
          "mpName": "Георги Иванов Георгиев",
          "role": "manager",
          "isCurrent": true
        }
      ]
    },
    {
      "slug": "АВИАТРАНС",
      "displayName": "АВИАТРАНС",
      "registeredOffice": "БЪЛГАРИЯ, гр. София, 1407",
      "mps": [
        {
          "mpId": 654,
          "mpName": "Борислав Георгиев Спасов",
          "role": "partner",
          "isCurrent": true
        },
        {
          "mpId": 654,
          "mpName": "Борислав Георгиев Спасов",
          "role": "sole_owner",
          "isCurrent": false
        }
      ]
    },
    {
      "slug": "АДВ.ДРУЖЕСТВО-Йосифова-Иванов-и-Петров",
      "displayName": "АДВ.ДРУЖЕСТВО Йосифова Иванов и Петров",
      "registeredOffice": "София (столица)",
      "mps": [
        {
          "mpId": 5247,
          "mpName": "ПЕТЪР НИКОЛАЕВ ПЕТРОВ",
          "role": "declared_stake",
          "isCurrent": true
        }
      ]
    },
    {
      "slug": "Адвиза-ЕООД",
      "displayName": "Адвиза ЕООД",
      "registeredOffice": "София (столица)",
      "mps": [
        {
          "mpId": 3792,
          "mpName": "Младен Тодоров Запрянов",
          "role": "manager",
          "isCurrent": true
        },
        {
          "mpId": 3792,
          "mpName": "Младен Тодоров Запрянов",
          "role": "declared_stake",
          "isCurrent": true
        }
      ]
    },
    {
      "slug": "Адвокатско-дружество-Янков,-Ненчев,-Гочев-и-Янкова",
      "displayName": "Адвокатско дружество \"Янков, Ненчев, Гочев и Янкова\"",
      "registeredOffice": "София (столица)",
      "mps": [
        {
          "mpId": 3794,
          "mpName": "Димитър Колев Гочев",
          "role": "declared_stake",
          "isCurrent": true
        }
      ]
    },
    {
      "slug": "АДРИАНА-КОМЕРСИ",
      "displayName": "АДРИАНА КОМЕРСИ",
      "registeredOffice": "БЪЛГАРИЯ, гр. София, 1164",
      "mps": [
        {
          "mpId": 5182,
          "mpName": "Борислав Пламенов Георгиев",
          "role": "manager",
          "isCurrent": true
        },
        {
          "mpId": 5182,
          "mpName": "Борислав Пламенов Георгиев",
          "role": "sole_owner",
          "isCurrent": true
        }
      ]
    },
    {
      "slug": "Айрън-Бюти-ООД",
      "displayName": "Айрън Бюти ООД",
      "registeredOffice": "София (столица)",
      "mps": [
        {
          "mpId": 5230,
          "mpName": "Елисавета Димитрова Белобрадова",
          "role": "declared_stake",
          "isCurrent": true
        }
      ]
    },
    {
      "slug": "АКВА-ХОЛД",
      "displayName": "АКВА ХОЛД",
      "registeredOffice": "БЪЛГАРИЯ, гр. София, 1582",
      "mps": [
        {
          "mpId": 146,
          "mpName": "Огнян Стефанов Герджиков",
          "role": "representative",
          "isCurrent": true
        },
        {
          "mpId": 146,
          "mpName": "Огнян Стефанов Герджиков",
          "role": "director",
          "isCurrent": true
        }
      ]
    },
    {
      "slug": "АКОРД-КЕПИТАЛ",
      "displayName": "АКОРД КЕПИТАЛ",
      "registeredOffice": "БЪЛГАРИЯ, гр. София, 1463",
      "mps": [
        {
          "mpId": 4507,
          "mpName": "Владимир Андонов Данаилов",
          "role": "manager",
          "isCurrent": true
        },
        {
          "mpId": 4507,
          "mpName": "Владимир Андонов Данаилов",
          "role": "sole_owner",
          "isCurrent": true
        }
      ]
    },
    {
      "slug": "Алекса-Про-ЕООД",
      "displayName": "Алекса Про ЕООД",
      "registeredOffice": "София (столица)",
      "mps": [
        {
          "mpId": 4905,
          "mpName": "Петър Василев Кьосев",
          "role": "declared_stake",
          "isCurrent": true
        }
      ]
    },
    {
      "slug": "АЛЕКСИАНО-КУЗМАН-ГРУП",
      "displayName": "АЛЕКСИАНО КУЗМАН ГРУП",
      "registeredOffice": "БЪЛГАРИЯ, гр. София, 1505",
      "mps": [
        {
          "mpId": 636,
          "mpName": "Алекси Иванов Алексиев",
          "role": "manager",
          "isCurrent": true
        },
        {
          "mpId": 636,
          "mpName": "Алекси Иванов Алексиев",
          "role": "partner",
          "isCurrent": true
        }
      ]
    },
    {
      "slug": "АЛИАНС-КОНСУЛТ",
      "displayName": "АЛИАНС КОНСУЛТ",
      "registeredOffice": "БЪЛГАРИЯ, гр. София, 1700",
      "mps": [
        {
          "mpId": 60,
          "mpName": "Ваня Крумова Цветкова",
          "role": "manager",
          "isCurrent": true
        },
        {
          "mpId": 60,
          "mpName": "Ваня Крумова Цветкова",
          "role": "sole_owner",
          "isCurrent": true
        }
      ]
    }
  ]
}