{"ekatte":"68134","page":5,"totalPages":7,"count":318,"companies":[{"slug":"ВМ-Хотел-ООД","displayName":"ВМ Хотел ООД","registeredOffice":"София","mps":[{"mpId":2706,"mpName":"Веселин Найденов Марешки","role":"declared_stake","isCurrent":true}]},{"slug":"Глобал-Груп-Еко-ЕООД","displayName":"Глобал Груп Еко ЕООД","registeredOffice":"гр.София1619, ул.Всеволод Гаршин 8","mps":[{"mpId":4846,"mpName":"Павлин Иванов Найденов","role":"declared_stake","isCurrent":true}]},{"slug":"Глобал-Джобс-Нетуърк","displayName":"Глобал Джобс Нетуърк","registeredOffice":"БЪЛГАРИЯ, гр. София, 1000","mps":[{"mpId":5245,"mpName":"Мартин Димитров Димитров","role":"manager","isCurrent":true}]},{"slug":"Глобъл-Солюшънс-България-(ГСБ)","displayName":"Глобъл Солюшънс България (ГСБ)","registeredOffice":"София (столица)","mps":[{"mpId":4854,"mpName":"Христо Георгиев Гаджев","role":"declared_stake","isCurrent":true}]},{"slug":"ГРАВИТ","displayName":"ГРАВИТ","registeredOffice":"БЪЛГАРИЯ, гр. София, 1000","mps":[{"mpId":2984,"mpName":"Георги Александров Александров","role":"partner","isCurrent":true}]},{"slug":"Грийн-Инвестмънт-Пропъртис-ООД","displayName":"Грийн Инвестмънт Пропъртис ООД","registeredOffice":"София (столица)","mps":[{"mpId":3285,"mpName":"Християна Анастасова Тодорова","role":"declared_stake","isCurrent":true}]},{"slug":"Грийн-касъл-ЕООД","displayName":"Грийн касъл ЕООД","registeredOffice":"СОФИЯ","mps":[{"mpId":4925,"mpName":"МЮМЮН САЛИ МЮМЮН","role":"declared_stake","isCurrent":true}]},{"slug":"ГЪЛИВЕЪР-МЕЙНТЕНАНС","displayName":"ГЪЛИВЕЪР МЕЙНТЕНАНС","registeredOffice":"БЪЛГАРИЯ, гр. София, 1000","mps":[{"mpId":2707,"mpName":"Георги Колев Колев","role":"manager","isCurrent":true}]},{"slug":"ДАРУ-КАР","displayName":"ДАРУ КАР","registeredOffice":"БЪЛГАРИЯ, гр. София, 1592","mps":[{"mpId":594,"mpName":"Бриго Христофоров Аспарухов","role":"director","isCurrent":true}]},{"slug":"Демос-фарм-ЕООД","displayName":"Демос фарм ЕООД","registeredOffice":"София","mps":[{"mpId":2659,"mpName":"Гергана Желязкова Стефанова","role":"declared_stake","isCurrent":true}]},{"slug":"Ди-Ес-Джи-Прадакшънс-ООД","displayName":"Ди Ес Джи Прадакшънс ООД","registeredOffice":"София (столица)","mps":[{"mpId":5173,"mpName":"Любен Любенов Дилов","role":"declared_stake","isCurrent":true}]},{"slug":"ДИО-2020-ЕООД","displayName":"ДИО 2020 ЕООД","registeredOffice":"СОФИЯ","mps":[{"mpId":5012,"mpName":"Иван Данаилов Иванов","role":"declared_stake","isCurrent":true}]},{"slug":"Дрийм-Мейкър-Студиос","displayName":"Дрийм Мейкър Студиос","registeredOffice":"БЪЛГАРИЯ, гр. София, 1000","mps":[{"mpId":191,"mpName":"Даниел Василев Вълчев","role":"actual_owner","isCurrent":true}]},{"slug":"Душкабини-БГ-ЕООД","displayName":"Душкабини БГ ЕООД","registeredOffice":"София (столица)","mps":[{"mpId":4223,"mpName":"Николай Георгиев Дренчев","role":"declared_stake","isCurrent":true}]},{"slug":"ДЪРТИ-БРАДЪРС","displayName":"ДЪРТИ БРАДЪРС","registeredOffice":"БЪЛГАРИЯ, гр. София, 1000","mps":[{"mpId":2784,"mpName":"Николай Георгиев Иванов","role":"partner","isCurrent":true}]},{"slug":"Евро-трейд-94-ЕООД","displayName":"Евро трейд 94 ЕООД","registeredOffice":"София","mps":[{"mpId":3047,"mpName":"НИКОЛА ХРИСТОВ КРЪСТЕВ","role":"declared_stake","isCurrent":true}]},{"slug":"Евро-треййд-94-ЕООД","displayName":"Евро треййд 94 ЕООД","registeredOffice":"София","mps":[{"mpId":3047,"mpName":"НИКОЛА ХРИСТОВ КРЪСТЕВ","role":"declared_stake","isCurrent":true}]},{"slug":"ЕВРО-ФИНАНС","displayName":"ЕВРО-ФИНАНС","registeredOffice":"БЪЛГАРИЯ, гр. София, 1540","mps":[{"mpId":5014,"mpName":"Васил Стефанов Стефанов","role":"director","isCurrent":true}]},{"slug":"Европраксис-ЕООД","displayName":"Европраксис ЕООД","registeredOffice":"София (столица)","mps":[{"mpId":3395,"mpName":"Арман Агоп Бабикян","role":"declared_stake","isCurrent":true}]},{"slug":"Евроскай-трейдинг-ООД","displayName":"Евроскай трейдинг ООД","registeredOffice":"София (столица)","mps":[{"mpId":5153,"mpName":"ИВАЙЛО ВАЛЕНТИНОВ ШОТЕВ","role":"declared_stake","isCurrent":true}]},{"slug":"ЕКИП-МОНБАТ","displayName":"ЕКИП МОНБАТ","registeredOffice":"БЪЛГАРИЯ, гр. София, 1407","mps":[{"mpId":2657,"mpName":"Петър Христов Петров","role":"partner","isCurrent":true}]},{"slug":"Екотехпродукт-ООД","displayName":"Екотехпродукт ООД","registeredOffice":"София (столица)","mps":[{"mpId":4059,"mpName":"Цветелина Калинова Симеонова-Заркин","role":"declared_stake","isCurrent":true}]},{"slug":"ЕКСПРЕСЛОГ","displayName":"ЕКСПРЕСЛОГ","registeredOffice":"БЪЛГАРИЯ, гр. София, 1582","mps":[{"mpId":564,"mpName":"Димитър Илиев Димитров","role":"manager","isCurrent":true}]},{"slug":"Енерджи-Съплай-Грийн-ЕООД","displayName":"Енерджи Съплай Грийн ЕООД","registeredOffice":"София","mps":[{"mpId":3410,"mpName":"Георги  Стоянов Кадиев","role":"declared_stake","isCurrent":true}]},{"slug":"Енерджи-Съплай-ЕООД","displayName":"Енерджи Съплай ЕООД","registeredOffice":"София","mps":[{"mpId":3410,"mpName":"Георги  Стоянов Кадиев","role":"declared_stake","isCurrent":true}]},{"slug":"Енигма-КСМ-ООД","displayName":"Енигма КСМ ООД","registeredOffice":"София","mps":[{"mpId":4819,"mpName":"Левент Орхан Мемиш","role":"declared_stake","isCurrent":true}]},{"slug":"Епикс.аи","displayName":"Епикс.аи","registeredOffice":"БЪЛГАРИЯ, гр. София, 1000","mps":[{"mpId":9,"mpName":"Соломон Исак Паси","role":"partner","isCurrent":true}]},{"slug":"ЕРОУ-МОБИЛИТИ","displayName":"ЕРОУ МОБИЛИТИ","registeredOffice":"БЪЛГАРИЯ, гр. София, 1000","mps":[{"mpId":607,"mpName":"Мирослав Петров Севлиевски","role":"partner","isCurrent":false}]},{"slug":"Ес-Макс-Солар","displayName":"Ес Макс Солар","registeredOffice":"БЪЛГАРИЯ, гр. София, 1612","mps":[{"mpId":237,"mpName":"Светослав Иванов Спасов","role":"sole_owner","isCurrent":true}]},{"slug":"Еуроенерджи-Консулт-ООД","displayName":"Еуроенерджи Консулт ООД","registeredOffice":"София","mps":[{"mpId":3294,"mpName":"Георги Милчев Чепишев","role":"declared_stake","isCurrent":true}]},{"slug":"Загоратехтрейд","displayName":"Загоратехтрейд","registeredOffice":"БЪЛГАРИЯ, гр. София, 1000","mps":[{"mpId":2536,"mpName":"Айхан Ахмед Етем","role":"manager","isCurrent":true}]},{"slug":"ЗИГ-ЗАГ-КОР-ООД","displayName":"ЗИГ ЗАГ КОР ООД","registeredOffice":"СОФИЯ","mps":[{"mpId":4190,"mpName":"КАЛОЯН ТОНЕВ ИКОНОМОВ","role":"declared_stake","isCurrent":true}]},{"slug":"Зона-21-ООД","displayName":"Зона 21 ООД","registeredOffice":"София","mps":[{"mpId":4106,"mpName":"ИЛИНА СИМЕОНОВА МУТАФЧИЕВА","role":"declared_stake","isCurrent":true}]},{"slug":"Иберанн","displayName":"Иберанн","registeredOffice":"София (столица)","mps":[{"mpId":2960,"mpName":"АННА НИКОЛАЕВА СЛАВОВА","role":"declared_stake","isCurrent":true}]},{"slug":"Ивени-Консулт-ЕООД","displayName":"Ивени Консулт ЕООД","registeredOffice":"София (столица)","mps":[{"mpId":2671,"mpName":"Жельо Иванов Бойчев","role":"declared_stake","isCurrent":true}]},{"slug":"Издателство-Захарий-Стоянов","displayName":"Издателство \"Захарий Стоянов\"","registeredOffice":"София","mps":[{"mpId":3537,"mpName":"Иван Йорданов Димитров","role":"declared_stake","isCurrent":true}]},{"slug":"Имобилария-платиниум","displayName":"Имобилария платиниум","registeredOffice":"София (столица)","mps":[{"mpId":4838,"mpName":"Александър Руменов Ненков","role":"declared_stake","isCurrent":true}]},{"slug":"Импекс-Билд-ЕООД","displayName":"Импекс Билд ЕООД","registeredOffice":"София (столица)","mps":[{"mpId":3288,"mpName":"МАРТИН ПЕТРОВ АНДОНОВ","role":"declared_stake","isCurrent":true}]},{"slug":"Инекс-агро-ООД","displayName":"Инекс агро ООД","registeredOffice":"София (столица)","mps":[{"mpId":3346,"mpName":"Иво Ангелов Христов","role":"declared_stake","isCurrent":true}]},{"slug":"Инекс-пропъртис-ООД","displayName":"Инекс пропъртис ООД","registeredOffice":"София (столица)","mps":[{"mpId":3346,"mpName":"Иво Ангелов Христов","role":"declared_stake","isCurrent":true}]},{"slug":"ИНТЕРГРУП-ЕУ","displayName":"ИНТЕРГРУП ЕУ","registeredOffice":"БЪЛГАРИЯ, гр. София, 1387","mps":[{"mpId":584,"mpName":"Александър Христов Филипов","role":"manager","isCurrent":true}]},{"slug":"Интерсол-ООД","displayName":"Интерсол ООД","registeredOffice":"София","mps":[{"mpId":4999,"mpName":"Явор Илиев Хайтов","role":"declared_stake","isCurrent":true}]},{"slug":"Интерфарм-2012-ЕООД","displayName":"Интерфарм 2012 ЕООД","registeredOffice":"София","mps":[{"mpId":2659,"mpName":"Гергана Желязкова Стефанова","role":"declared_stake","isCurrent":true}]},{"slug":"Исторически-къщи-ЕООД","displayName":"Исторически къщи ЕООД","registeredOffice":"София (столица)","mps":[{"mpId":4434,"mpName":"ИРЕНА НИКОЛАЕВА НЕГИНОВА","role":"declared_stake","isCurrent":true}]},{"slug":"Итера-431-ЕООД","displayName":"Итера 431 ЕООД","registeredOffice":"София (столица)","mps":[{"mpId":3395,"mpName":"Арман Агоп Бабикян","role":"declared_stake","isCurrent":true}]},{"slug":"Кадиев-Глобал-ЕООД","displayName":"Кадиев Глобал ЕООД","registeredOffice":"София","mps":[{"mpId":3410,"mpName":"Георги  Стоянов Кадиев","role":"declared_stake","isCurrent":true}]},{"slug":"Каза-Натура-ЕООД","displayName":"Каза Натура ЕООД","registeredOffice":"София (столица)","mps":[{"mpId":4059,"mpName":"Цветелина Калинова Симеонова-Заркин","role":"declared_stake","isCurrent":true}]},{"slug":"Камибо-ЕООД","displayName":"Камибо ЕООД","registeredOffice":"София (столица)","mps":[{"mpId":2947,"mpName":"Станислав Иванов Попов","role":"declared_stake","isCurrent":true}]},{"slug":"Кар-13","displayName":"Кар 13","registeredOffice":"БЪЛГАРИЯ, гр. София, 1142","mps":[{"mpId":4152,"mpName":"Иво Георгиев Русчев","role":"manager","isCurrent":true}]},{"slug":"КАРСИДО","displayName":"КАРСИДО","registeredOffice":"БЪЛГАРИЯ, гр. София, 1715","mps":[{"mpId":138,"mpName":"Долорес Борисова Арсенова","role":"manager","isCurrent":true}]}]}