{
  "ekatte": "68134",
  "page": 7,
  "totalPages": 7,
  "count": 315,
  "companies": [
    {
      "slug": "Фасадни-Конструкции-ООД",
      "displayName": "Фасадни Конструкции ООД",
      "registeredOffice": "София",
      "mps": [
        {
          "mpId": 4430,
          "mpName": "Ивайло Ангелов Иванов",
          "role": "declared_stake",
          "isCurrent": true
        }
      ]
    },
    {
      "slug": "Фаст-БГ-ЕООД",
      "displayName": "Фаст БГ ЕООД",
      "registeredOffice": "София (столица)",
      "mps": [
        {
          "mpId": 3047,
          "mpName": "НИКОЛА ХРИСТОВ КРЪСТЕВ",
          "role": "declared_stake",
          "isCurrent": true
        }
      ]
    },
    {
      "slug": "ФАСТ.БГ-ЕООД",
      "displayName": "ФАСТ.БГ ЕООД",
      "registeredOffice": "София (столица)",
      "mps": [
        {
          "mpId": 3047,
          "mpName": "НИКОЛА ХРИСТОВ КРЪСТЕВ",
          "role": "declared_stake",
          "isCurrent": true
        }
      ]
    },
    {
      "slug": "Фейс-НЮЗ",
      "displayName": "Фейс НЮЗ",
      "registeredOffice": "София (столица)",
      "mps": [
        {
          "mpId": 4739,
          "mpName": "Димитър Стойков Николов",
          "role": "declared_stake",
          "isCurrent": true
        }
      ]
    },
    {
      "slug": "Феликсин",
      "displayName": "Феликсин",
      "registeredOffice": "БЪЛГАРИЯ, гр. София, 1404",
      "mps": [
        {
          "mpId": 4324,
          "mpName": "Искрен Николаев Митев",
          "role": "manager",
          "isCurrent": true
        }
      ]
    },
    {
      "slug": "Ферексим-ООД",
      "displayName": "Ферексим ООД",
      "registeredOffice": "София (столица)",
      "mps": [
        {
          "mpId": 3346,
          "mpName": "Иво Ангелов Христов",
          "role": "declared_stake",
          "isCurrent": true
        }
      ]
    },
    {
      "slug": "Фолекс-ЕООД",
      "displayName": "Фолекс ЕООД",
      "registeredOffice": "София (столица)",
      "mps": [
        {
          "mpId": 4719,
          "mpName": "Петър Георгиев Кънев",
          "role": "declared_stake",
          "isCurrent": true
        }
      ]
    },
    {
      "slug": "Франго-франчайз-ООД",
      "displayName": "Франго франчайз ООД",
      "registeredOffice": "София",
      "mps": [
        {
          "mpId": 4059,
          "mpName": "Цветелина Калинова Симеонова-Заркин",
          "role": "declared_stake",
          "isCurrent": true
        }
      ]
    },
    {
      "slug": "Хелт-кеър-фарм-ЕООД",
      "displayName": "Хелт кеър фарм ЕООД",
      "registeredOffice": "София",
      "mps": [
        {
          "mpId": 2659,
          "mpName": "Гергана Желязкова Стефанова",
          "role": "declared_stake",
          "isCurrent": true
        }
      ]
    },
    {
      "slug": "ХЕРОС-КЕПИТЪЛ",
      "displayName": "ХЕРОС КЕПИТЪЛ",
      "registeredOffice": "БЪЛГАРИЯ, гр. София, 1504",
      "mps": [
        {
          "mpId": 5276,
          "mpName": "Александър Георгиев Пулев",
          "role": "manager",
          "isCurrent": true
        }
      ]
    },
    {
      "slug": "Хримас-ЕООД",
      "displayName": "Хримас ЕООД",
      "registeredOffice": "София (столица)",
      "mps": [
        {
          "mpId": 4786,
          "mpName": "Пламен Тачев Петров",
          "role": "declared_stake",
          "isCurrent": true
        }
      ]
    },
    {
      "slug": "Чес-Лайънс-ООД",
      "displayName": "Чес Лайънс ООД",
      "registeredOffice": "Софиа",
      "mps": [
        {
          "mpId": 3352,
          "mpName": "Антоанета Андонова Стефанова",
          "role": "declared_stake",
          "isCurrent": true
        }
      ]
    },
    {
      "slug": "Юнифарма-ЕООД",
      "displayName": "Юнифарма ЕООД",
      "registeredOffice": "София",
      "mps": [
        {
          "mpId": 2659,
          "mpName": "Гергана Желязкова Стефанова",
          "role": "declared_stake",
          "isCurrent": true
        }
      ]
    },
    {
      "slug": "Янков-ЕООД",
      "displayName": "Янков ЕООД",
      "registeredOffice": "София",
      "mps": [
        {
          "mpId": 3444,
          "mpName": "Калоян Милков Янков",
          "role": "declared_stake",
          "isCurrent": true
        }
      ]
    },
    {
      "slug": "Янков-и-Ко-ООД",
      "displayName": "Янков и Ко ООД",
      "registeredOffice": "София",
      "mps": [
        {
          "mpId": 3444,
          "mpName": "Калоян Милков Янков",
          "role": "declared_stake",
          "isCurrent": true
        }
      ]
    }
  ]
}