{"ekatte":"68134","page":8,"totalPages":15,"count":718,"companies":[{"slug":"АЕЛ-фарма-трейдинг","displayName":"АЕЛ фарма трейдинг","registeredOffice":"БЪЛГАРИЯ, гр. София, 1142","mps":[{"mpId":739,"mpName":"Недялко Иванов Калъчев","role":"manager","isCurrent":true}]},{"slug":"АКАДЕМИЯ-ЗА-ГЛОБАЛНИ-АНАЛИЗИ","displayName":"АКАДЕМИЯ ЗА ГЛОБАЛНИ АНАЛИЗИ","registeredOffice":"БЪЛГАРИЯ, гр. София, 1303","mps":[{"mpId":4551,"mpName":"Виктория Димитрова Василева","role":"ngo_representative","isCurrent":true}]},{"slug":"АКВА-СИСТЕМС","displayName":"АКВА СИСТЕМС","registeredOffice":"БЪЛГАРИЯ, гр. София, 1000","mps":[{"mpId":2376,"mpName":"Костадин Иванов Марков","role":"director","isCurrent":true}]},{"slug":"Активатор-ЕООД","displayName":"Активатор ЕООД","registeredOffice":"София (столица)","mps":[{"mpId":3624,"mpName":"Александър Николаев Ракшиев","role":"declared_stake","isCurrent":true}]},{"slug":"Алгафари-Ентъртейнмънт-ЕООД","displayName":"Алгафари Ентъртейнмънт ЕООД","registeredOffice":"София (столица)","mps":[{"mpId":4830,"mpName":"Николай Нидал Алгафари","role":"declared_stake","isCurrent":true}]},{"slug":"Алгафари-ООД","displayName":"Алгафари ООД","registeredOffice":"София (столица)","mps":[{"mpId":4830,"mpName":"Николай Нидал Алгафари","role":"declared_stake","isCurrent":true}]},{"slug":"Алзак-ЕООД","displayName":"Алзак ЕООД","registeredOffice":"София (столица)","mps":[{"mpId":4830,"mpName":"Николай Нидал Алгафари","role":"declared_stake","isCurrent":true}]},{"slug":"Алпин-Клийнинг-Сървисиз","displayName":"Алпин Клийнинг Сървисиз","registeredOffice":"БЪЛГАРИЯ, гр. София, 1797","mps":[{"mpId":2505,"mpName":"Георги Иванов Андонов","role":"partner","isCurrent":false}]},{"slug":"Амарид-ООД","displayName":"Амарид ООД","registeredOffice":"София (столица)","mps":[{"mpId":5075,"mpName":"Костадин Георгиев Ангелов","role":"declared_stake","isCurrent":true}]},{"slug":"АНБ-ИНФРА-ИНЖЕНЕРИНГ","displayName":"АНБ ИНФРА ИНЖЕНЕРИНГ","registeredOffice":"БЪЛГАРИЯ, гр. София, 1000","mps":[{"mpId":4879,"mpName":"Танер Мехмед Али","role":"partner","isCurrent":true}]},{"slug":"Анви-Интернешънъл-Едюкейшън-енд-Травелс","displayName":"Анви Интернешънъл Едюкейшън енд Травелс","registeredOffice":"БЪЛГАРИЯ, гр. София, 1202","mps":[{"mpId":3466,"mpName":"Димитър Андреев Делчев","role":"manager","isCurrent":true}]},{"slug":"Анда-Сторидж","displayName":"Анда Сторидж","registeredOffice":"БЪЛГАРИЯ, гр. София, 1700","mps":[{"mpId":1056,"mpName":"Гюнер Фариз Сербест","role":"partner","isCurrent":true}]},{"slug":"Анимекс-ЕООД","displayName":"Анимекс ЕООД","registeredOffice":"София (столица)","mps":[{"mpId":4295,"mpName":"Настимир Ананиев Ананиев","role":"declared_stake","isCurrent":true}]},{"slug":"АРЖЕНТИНСКО-БЪЛГАРСКА-ТЪРГОВСКА-КАМАРА","displayName":"АРЖЕНТИНСКО-БЪЛГАРСКА ТЪРГОВСКА КАМАРА","registeredOffice":"БЪЛГАРИЯ, гр. София, 1124","mps":[{"mpId":590,"mpName":"Марина Пенчева Василева","role":"ngo_board","isCurrent":true}]},{"slug":"АРКО-БИЛД","displayName":"АРКО-БИЛД","registeredOffice":"БЪЛГАРИЯ, гр. София, 1616","mps":[{"mpId":655,"mpName":"Димитър Милков Ламбовски","role":"manager","isCurrent":true}]},{"slug":"Арнолд-Фууд-Пловдив","displayName":"Арнолд Фууд Пловдив","registeredOffice":"БЪЛГАРИЯ, гр. София, 1000","mps":[{"mpId":2426,"mpName":"Борислав Сабинов Иглев","role":"partner","isCurrent":true}]},{"slug":"Арнолд-Фууд-София","displayName":"Арнолд Фууд София","registeredOffice":"БЪЛГАРИЯ, гр. София, 1000","mps":[{"mpId":2426,"mpName":"Борислав Сабинов Иглев","role":"manager","isCurrent":true}]},{"slug":"Арнолд-Фууд-Спартак","displayName":"Арнолд Фууд Спартак","registeredOffice":"БЪЛГАРИЯ, гр. София, 1000","mps":[{"mpId":2426,"mpName":"Борислав Сабинов Иглев","role":"manager","isCurrent":true}]},{"slug":"Археос-Билд","displayName":"Археос Билд","registeredOffice":"БЪЛГАРИЯ, гр. София, 1421","mps":[{"mpId":4523,"mpName":"Вяра Методиева Тодева","role":"manager","isCurrent":true}]},{"slug":"АС-АТ-ЕООД","displayName":"АС-АТ ЕООД","registeredOffice":"София (столица)","mps":[{"mpId":5013,"mpName":"Пламен Ангелов Петков","role":"declared_stake","isCurrent":true}]},{"slug":"Асендинг-АД","displayName":"Асендинг АД","registeredOffice":"СОФИЯ","mps":[{"mpId":5007,"mpName":"Красимира Петкова Нинова-Катинчарова","role":"declared_stake","isCurrent":true}]},{"slug":"АСОЦИАЦИЯ-ЗА-ФИЛОСОФИЯ-НА-ПРАВОТО-И-СОЦИАЛНО-ПОЛИТИЧЕСКА-ФИЛОСОФИЯ-БЪЛГАРИЯ","displayName":"АСОЦИАЦИЯ ЗА ФИЛОСОФИЯ НА ПРАВОТО И СОЦИАЛНО-ПОЛИТИЧЕСКА ФИЛОСОФИЯ - БЪЛГАРИЯ","registeredOffice":"БЪЛГАРИЯ, гр. София, 1504","mps":[{"mpId":191,"mpName":"Даниел Василев Вълчев","role":"ngo_board","isCurrent":true}]},{"slug":"АСОЦИАЦИЯ-НА-БИЗНЕС-ЕКСПЕРТИТЕ-В-БЪЛГАРИЯ","displayName":"АСОЦИАЦИЯ НА БИЗНЕС ЕКСПЕРТИТЕ В БЪЛГАРИЯ","registeredOffice":"БЪЛГАРИЯ, гр. София, 1421","mps":[{"mpId":5006,"mpName":"Ивелин Людмилов Михайлов","role":"actual_owner","isCurrent":false}]},{"slug":"Асоциация-на-българската-наргиле-индустрия","displayName":"Асоциация на българската наргиле индустрия","registeredOffice":"БЪЛГАРИЯ, гр. София, 1517","mps":[{"mpId":5071,"mpName":"Миролюб Адамов Адамов","role":"ngo_board","isCurrent":true}]},{"slug":"Асоциация-на-доставчиците-на-дългосрочни-грижи","displayName":"Асоциация на доставчиците на дългосрочни грижи","registeredOffice":"БЪЛГАРИЯ, гр. София, 1504","mps":[{"mpId":234,"mpName":"Ива Петрова Станкова","role":"ngo_board","isCurrent":true}]},{"slug":"АСОЦИАЦИЯ-ПАМЕТ-ЗА-УТРЕ","displayName":"АСОЦИАЦИЯ ПАМЕТ ЗА УТРЕ","registeredOffice":"БЪЛГАРИЯ, гр. София, 1421","mps":[{"mpId":2954,"mpName":"Лиляна Друмева Радева","role":"ngo_board","isCurrent":true}]},{"slug":"Аутлет-Плочки","displayName":"Аутлет Плочки","registeredOffice":"БЪЛГАРИЯ, гр. София, 1138","mps":[{"mpId":5013,"mpName":"Пламен Ангелов Петков","role":"manager","isCurrent":true}]},{"slug":"Бадинка-ООД","displayName":"Бадинка ООД","registeredOffice":"София (столица)","mps":[{"mpId":3736,"mpName":"Пламен Петров Шалъфов","role":"declared_stake","isCurrent":true}]},{"slug":"БАНК-ТЕХ-СИС","displayName":"БАНК ТЕХ СИС","registeredOffice":"БЪЛГАРИЯ, гр. София, 1111","mps":[{"mpId":5329,"mpName":"Юлиан Георгиев Димитров","role":"sole_owner","isCurrent":true}]},{"slug":"Банкярд-ЕООД","displayName":"Банкярд ЕООД","registeredOffice":"София (столица)","mps":[{"mpId":5072,"mpName":"Йордан Ивов Терзийски","role":"declared_stake","isCurrent":true}]},{"slug":"БГ-Татко-ООД","displayName":"БГ Татко ООД","registeredOffice":"София (столица)","mps":[{"mpId":5173,"mpName":"Любен Любенов Дилов","role":"declared_stake","isCurrent":true}]},{"slug":"БЕЛИМО-БЪЛГАРИЯ","displayName":"БЕЛИМО БЪЛГАРИЯ","registeredOffice":"БЪЛГАРИЯ, гр. София, 1612","mps":[{"mpId":4992,"mpName":"Биляна Георгиева Иванова","role":"partner","isCurrent":true}]},{"slug":"БЕНДИТО","displayName":"БЕНДИТО","registeredOffice":"БЪЛГАРИЯ, гр. София, 1618","mps":[{"mpId":138,"mpName":"Долорес Борисова Арсенова","role":"director","isCurrent":true}]},{"slug":"Бизнес-Център-Естера","displayName":"Бизнес Център Естера","registeredOffice":"БЪЛГАРИЯ, гр. София, 1618","mps":[{"mpId":945,"mpName":"Цветан Костов Костов","role":"director","isCurrent":true}]},{"slug":"БИЛД-22","displayName":"БИЛД 22","registeredOffice":"БЪЛГАРИЯ, гр. София, 1729","mps":[{"mpId":3177,"mpName":"Тодор Василев Василев","role":"director","isCurrent":true}]},{"slug":"БИЛДБРОС","displayName":"БИЛДБРОС","registeredOffice":"БЪЛГАРИЯ, гр. София, 9000","mps":[{"mpId":3177,"mpName":"Тодор Василев Василев","role":"manager","isCurrent":true}]},{"slug":"БИТОЛЯ-1","displayName":"БИТОЛЯ 1","registeredOffice":"БЪЛГАРИЯ, гр. София, 1387","mps":[{"mpId":2448,"mpName":"Иван Костадинов Станков","role":"partner","isCurrent":true}]},{"slug":"БЛИТЦ-ЕР","displayName":"БЛИТЦ ЕР","registeredOffice":"БЪЛГАРИЯ, гр. София, 1000","mps":[{"mpId":1117,"mpName":"Петко Валентинов Петков","role":"partner","isCurrent":true}]},{"slug":"Блу-Баг","displayName":"Блу Баг","registeredOffice":"БЪЛГАРИЯ, гр. София, 1528","mps":[{"mpId":3914,"mpName":"Инна Владимирова Иванова","role":"partner","isCurrent":true}]},{"slug":"БОРЕКС-ТРАНС","displayName":"БОРЕКС ТРАНС","registeredOffice":"БЪЛГАРИЯ, гр. София, 1000","mps":[{"mpId":4934,"mpName":"Даниел Тихомиров Александров","role":"director","isCurrent":true}]},{"slug":"БОЯНА-БИЛД-ИНВЕСТ","displayName":"БОЯНА БИЛД ИНВЕСТ","registeredOffice":"БЪЛГАРИЯ, гр. София, 1700","mps":[{"mpId":5113,"mpName":"Георги Иванов Георгиев","role":"manager","isCurrent":true}]},{"slug":"БРАВЕКС","displayName":"БРАВЕКС","registeredOffice":"БЪЛГАРИЯ, гр. София, 1000","mps":[{"mpId":5113,"mpName":"Георги Иванов Георгиев","role":"manager","isCurrent":true}]},{"slug":"БРАВО-ПРОПЪРТИ-ФОНД","displayName":"БРАВО ПРОПЪРТИ ФОНД","registeredOffice":"БЪЛГАРИЯ, гр. София, 1407","mps":[{"mpId":5260,"mpName":"Константин Василев Проданов","role":"director","isCurrent":true}]},{"slug":"БРАВО-ХОУМ","displayName":"БРАВО ХОУМ","registeredOffice":"БЪЛГАРИЯ, гр. София, 1407","mps":[{"mpId":5260,"mpName":"Константин Василев Проданов","role":"director","isCurrent":true}]},{"slug":"БрандБилд","displayName":"БрандБилд","registeredOffice":"БЪЛГАРИЯ, гр. София, 1360","mps":[{"mpId":3537,"mpName":"Иван Йорданов Димитров","role":"partner","isCurrent":true}]},{"slug":"Брандеву-ЕООД","displayName":"Брандеву ЕООД","registeredOffice":"София (столица)","mps":[{"mpId":5072,"mpName":"Йордан Ивов Терзийски","role":"declared_stake","isCurrent":true}]},{"slug":"БРАНШОВА-КАМАРА-&quot;ПЛОДОВЕ-И-ЗЕЛЕНЧУЦИ&quot;","displayName":"БРАНШОВА КАМАРА &quot;ПЛОДОВЕ И ЗЕЛЕНЧУЦИ&quot;","registeredOffice":"БЪЛГАРИЯ, гр. София, 1421","mps":[{"mpId":5269,"mpName":"Тодор Любенов Джиков","role":"ngo_board","isCurrent":true}]},{"slug":"Брейн-Къмпъни-ЕООД","displayName":"Брейн Къмпъни ЕООД","registeredOffice":"София (столица)","mps":[{"mpId":5173,"mpName":"Любен Любенов Дилов","role":"declared_stake","isCurrent":true}]},{"slug":"БРИДЖ-КЪНЕКТ-ИНВЕСТ","displayName":"БРИДЖ КЪНЕКТ ИНВЕСТ","registeredOffice":"БЪЛГАРИЯ, гр. София, 1612","mps":[{"mpId":3661,"mpName":"Виктор Гасан Насър","role":"manager","isCurrent":true}]},{"slug":"БУЛГАРТЕЛ","displayName":"БУЛГАРТЕЛ","registeredOffice":"БЪЛГАРИЯ, гр. София","mps":[{"mpId":909,"mpName":"Емил Димитров Гущеров","role":"director","isCurrent":true}]}]}