{"obshtina":"BGS04","page":2,"totalPages":2,"count":67,"companies":[{"slug":"Бургаска-образователна-компания-ООД","displayName":"Бургаска образователна компания ООД","registeredOffice":"Бургас","mps":[{"mpId":3551,"mpName":"Златомира Димитрова Карагеоргиева-Мострова","role":"declared_stake","isCurrent":true}]},{"slug":"БУРГАСКА-ТЪРГОВСКО-ПРОМИШЛЕНА-ПАЛАТА","displayName":"БУРГАСКА ТЪРГОВСКО-ПРОМИШЛЕНА ПАЛАТА","registeredOffice":"БЪЛГАРИЯ, Бургас, 8000","mps":[{"mpId":42,"mpName":"Йордан Димитров Костадинов","role":"ngo_board","isCurrent":true}]},{"slug":"БУРГАСКИ-ИЗГРЕВ","displayName":"БУРГАСКИ ИЗГРЕВ","registeredOffice":"БЪЛГАРИЯ, гр. Бургас, 8000","mps":[{"mpId":3725,"mpName":"Марин Шишев Шишев","role":"ngo_representative","isCurrent":true}]},{"slug":"ВИВ-87","displayName":"ВИВ 87","registeredOffice":"БЪЛГАРИЯ, гр. Бургас, 8125","mps":[{"mpId":4783,"mpName":"Христина Иванова Георгиева","role":"manager","isCurrent":true}]},{"slug":"ГЕЙМ-ХОУМ-88-М","displayName":"ГЕЙМ ХОУМ 88 М","registeredOffice":"БЪЛГАРИЯ, гр. Бургас, 8000","mps":[{"mpId":2753,"mpName":"Ангел Илиев Исаев","role":"partner","isCurrent":false}]},{"slug":"Етерични-масла-и-билки","displayName":"Етерични масла и билки","registeredOffice":"БЪЛГАРИЯ, гр. Бургас, 8000","mps":[{"mpId":2376,"mpName":"Костадин Иванов Марков","role":"partner","isCurrent":true}]},{"slug":"Индустриален-и-логистичен-парк-Бургас","displayName":"Индустриален и логистичен парк - Бургас","registeredOffice":"БЪЛГАРИЯ, гр. Бургас, 8000","mps":[{"mpId":2750,"mpName":"Николай Асенов Тишев","role":"director","isCurrent":true}]},{"slug":"Инициатива-БГ","displayName":"Инициатива БГ","registeredOffice":"БЪЛГАРИЯ, гр. Бургас, 8000","mps":[{"mpId":4173,"mpName":"Даниела Стоянова Божинова","role":"ngo_board","isCurrent":true}]},{"slug":"Инофлекс-ООД","displayName":"Инофлекс ООД","registeredOffice":"Бургас","mps":[{"mpId":4714,"mpName":"Исмаил Юсмен Осман","role":"declared_stake","isCurrent":true}]},{"slug":"Пауър-Мейл-ООД","displayName":"Пауър Мейл ООД","registeredOffice":"Бургас","mps":[{"mpId":3552,"mpName":"Димитър Михайлов Ташев","role":"declared_stake","isCurrent":true}]},{"slug":"ПОСОКА-БУРГАС","displayName":"ПОСОКА БУРГАС","registeredOffice":"БЪЛГАРИЯ, гр. Бургас, 8000","mps":[{"mpId":5179,"mpName":"Пламен Александров Карашев","role":"ngo_board","isCurrent":true}]},{"slug":"Протект-нау","displayName":"Протект нау","registeredOffice":"гр. Бургас","mps":[{"mpId":4610,"mpName":"Звезделина Камелиева Каравелова","role":"declared_stake","isCurrent":true}]},{"slug":"Сдружение-РОТАРИ-КЛУБ-БУРГАС-ПРИМОРИЕ","displayName":"Сдружение РОТАРИ КЛУБ БУРГАС - ПРИМОРИЕ","registeredOffice":"БЪЛГАРИЯ, гр. Бургас, 8000","mps":[{"mpId":42,"mpName":"Йордан Димитров Костадинов","role":"ngo_board","isCurrent":true}]},{"slug":"Фабре-Кемикъл-ООД","displayName":"Фабре Кемикъл ООД","registeredOffice":"Бургас","mps":[{"mpId":4714,"mpName":"Исмаил Юсмен Осман","role":"declared_stake","isCurrent":true}]},{"slug":"Форос-солна-офсет","displayName":"Форос солна офсет","registeredOffice":"Бургас","mps":[{"mpId":4739,"mpName":"Димитър Стойков Николов","role":"declared_stake","isCurrent":true}]},{"slug":"ФУТБОЛЕН-КЛУБ-&quot;НЕФТОХИМИК-БУРГАС-1962","displayName":"ФУТБОЛЕН КЛУБ &quot;НЕФТОХИМИК БУРГАС 1962","registeredOffice":"БЪЛГАРИЯ, гр. Бургас, 8000","mps":[{"mpId":4721,"mpName":"Андрей Стоянов Рунчев","role":"ngo_board","isCurrent":true}]},{"slug":"ФУТБОЛЕН-КЛУБ-&quot;ЧЕРНОМОРЕЦ-1919&quot;-БУРГАС","displayName":"ФУТБОЛЕН КЛУБ &quot;ЧЕРНОМОРЕЦ 1919&quot; БУРГАС","registeredOffice":"БЪЛГАРИЯ, гр. Бургас, 8000","mps":[{"mpId":2376,"mpName":"Костадин Иванов Марков","role":"ngo_board","isCurrent":true}]}]}