{"obshtina":"BGS04","page":1,"totalPages":2,"count":67,"companies":[{"slug":"Дитекс-прайм","displayName":"Дитекс прайм","registeredOffice":"Бургас","mps":[{"mpId":5147,"mpName":"Димитър Георгиев Найденов","role":"manager","isCurrent":true},{"mpId":5147,"mpName":"Димитър Георгиев Найденов","role":"sole_owner","isCurrent":true},{"mpId":5147,"mpName":"Димитър Георгиев Найденов","role":"declared_stake","isCurrent":true}]},{"slug":"Битекс","displayName":"Битекс","registeredOffice":"Бургас","mps":[{"mpId":5147,"mpName":"Димитър Георгиев Найденов","role":"declared_stake","isCurrent":true}]},{"slug":"Дитекс-пропърти-ЕООД","displayName":"Дитекс пропърти ЕООД","registeredOffice":"Бургас","mps":[{"mpId":5147,"mpName":"Димитър Георгиев Найденов","role":"manager","isCurrent":true},{"mpId":5147,"mpName":"Димитър Георгиев Найденов","role":"partner","isCurrent":false},{"mpId":5147,"mpName":"Димитър Георгиев Найденов","role":"sole_owner","isCurrent":false},{"mpId":5147,"mpName":"Димитър Георгиев Найденов","role":"declared_stake","isCurrent":true}]},{"slug":"Дореми-плюс","displayName":"Дореми плюс","registeredOffice":"Бургас","mps":[{"mpId":5147,"mpName":"Димитър Георгиев Найденов","role":"declared_stake","isCurrent":true}]},{"slug":"Зенит-комерс","displayName":"Зенит комерс","registeredOffice":"Бургас","mps":[{"mpId":5147,"mpName":"Димитър Георгиев Найденов","role":"manager","isCurrent":true},{"mpId":5147,"mpName":"Димитър Георгиев Найденов","role":"declared_stake","isCurrent":true}]},{"slug":"Неомакс-09","displayName":"Неомакс 09","registeredOffice":"Бургас","mps":[{"mpId":5147,"mpName":"Димитър Георгиев Найденов","role":"declared_stake","isCurrent":true}]},{"slug":"Хипстър-бийч-лайф","displayName":"Хипстър бийч лайф","registeredOffice":"Бургас","mps":[{"mpId":5147,"mpName":"Димитър Георгиев Найденов","role":"declared_stake","isCurrent":true}]},{"slug":"АУРЕУС-ГЛОБАЛ-КЪМПАНИ","displayName":"АУРЕУС ГЛОБАЛ КЪМПАНИ","registeredOffice":"БЪЛГАРИЯ, гр. Бургас, 8000","mps":[{"mpId":5179,"mpName":"Пламен Александров Карашев","role":"manager","isCurrent":true},{"mpId":5179,"mpName":"Пламен Александров Карашев","role":"partner","isCurrent":false},{"mpId":5179,"mpName":"Пламен Александров Карашев","role":"sole_owner","isCurrent":false}]},{"slug":"Дитекс","displayName":"Дитекс","registeredOffice":"Бургас","mps":[{"mpId":5147,"mpName":"Димитър Георгиев Найденов","role":"declared_stake","isCurrent":true}]},{"slug":"Лидер-Технолоджис-ЕООД","displayName":"Лидер Технолоджис ЕООД","registeredOffice":"Бургас","mps":[{"mpId":4171,"mpName":"Константин Живков Бачийски","role":"declared_stake","isCurrent":true}]},{"slug":"Мкмд-инженеринг-ООД","displayName":"Мкмд инженеринг ООД","registeredOffice":"Бургас","mps":[{"mpId":2941,"mpName":"Иван Стефанов Вълков","role":"manager","isCurrent":true},{"mpId":2941,"mpName":"Иван Стефанов Вълков","role":"partner","isCurrent":true},{"mpId":2941,"mpName":"ИВАН СТЕФАНОВ ВЪЛКОВ","role":"declared_stake","isCurrent":true}]},{"slug":"Поморие-Девелъпмънт-ЕООД","displayName":"Поморие Девелъпмънт ЕООД","registeredOffice":"Бургас","mps":[{"mpId":3552,"mpName":"Димитър Михайлов Ташев","role":"manager","isCurrent":true},{"mpId":3552,"mpName":"Димитър Михайлов Ташев","role":"partner","isCurrent":true},{"mpId":3552,"mpName":"Димитър Михайлов Ташев","role":"declared_stake","isCurrent":true}]},{"slug":"Санета","displayName":"Санета","registeredOffice":"Бургас","mps":[{"mpId":5147,"mpName":"Димитър Георгиев Найденов","role":"declared_stake","isCurrent":true}]},{"slug":"Стеди-Вет-ЕООД","displayName":"Стеди-Вет ЕООД","registeredOffice":"Бургас","mps":[{"mpId":2973,"mpName":"Стойно Митев Стойнов","role":"manager","isCurrent":true},{"mpId":2973,"mpName":"Стойно Митев Стойнов","role":"sole_owner","isCurrent":true},{"mpId":2973,"mpName":"СТОЙНО МИТЕВ СТОЙНОВ","role":"declared_stake","isCurrent":true}]},{"slug":"Сънмакс","displayName":"Сънмакс","registeredOffice":"Бургас","mps":[{"mpId":5147,"mpName":"Димитър Георгиев Найденов","role":"declared_stake","isCurrent":true}]},{"slug":"АДЖИС-БИЛД-88","displayName":"АДЖИС БИЛД 88","registeredOffice":"БЪЛГАРИЯ, гр. Бургас, 8000","mps":[{"mpId":2753,"mpName":"Ангел Илиев Исаев","role":"manager","isCurrent":true},{"mpId":2753,"mpName":"Ангел Илиев Исаев","role":"sole_owner","isCurrent":true}]},{"slug":"АДЖИС-ИНВЕСТ","displayName":"АДЖИС ИНВЕСТ","registeredOffice":"БЪЛГАРИЯ, гр. Бургас, 8000","mps":[{"mpId":2753,"mpName":"Ангел Илиев Исаев","role":"manager","isCurrent":true},{"mpId":2753,"mpName":"Ангел Илиев Исаев","role":"sole_owner","isCurrent":true}]},{"slug":"Ай-Пи-Ем-Кафе","displayName":"Ай Пи Ем Кафе","registeredOffice":"БЪЛГАРИЯ, гр. Бургас, 8000","mps":[{"mpId":745,"mpName":"Иван Павлов Павлов","role":"sole_owner","isCurrent":true},{"mpId":745,"mpName":"Иван Павлов Павлов","role":"manager","isCurrent":true}]},{"slug":"АКВА-СИСТЕМС-10","displayName":"АКВА СИСТЕМС 10","registeredOffice":"БЪЛГАРИЯ, гр. Бургас, 8000","mps":[{"mpId":2376,"mpName":"Костадин Иванов Марков","role":"representative","isCurrent":true},{"mpId":2376,"mpName":"Костадин Иванов Марков","role":"director","isCurrent":true}]},{"slug":"АЛБА-РЕЗИДЪНС","displayName":"АЛБА РЕЗИДЪНС","registeredOffice":"БЪЛГАРИЯ, гр. Бургас, 8000","mps":[{"mpId":3148,"mpName":"Красимир Христов Николов","role":"manager","isCurrent":true},{"mpId":3148,"mpName":"Красимир Христов Николов","role":"partner","isCurrent":true}]},{"slug":"АНТАРЕС-2021","displayName":"АНТАРЕС 2021","registeredOffice":"БЪЛГАРИЯ, гр. Бургас, 8000","mps":[{"mpId":4430,"mpName":"Ивайло Ангелов Иванов","role":"sole_owner","isCurrent":true},{"mpId":4430,"mpName":"Ивайло Ангелов Иванов","role":"manager","isCurrent":true}]},{"slug":"АХЕЛ-03","displayName":"АХЕЛ 03","registeredOffice":"БЪЛГАРИЯ, гр. Бургас, 8000","mps":[{"mpId":2753,"mpName":"Ангел Илиев Исаев","role":"manager","isCurrent":true},{"mpId":2753,"mpName":"Ангел Илиев Исаев","role":"sole_owner","isCurrent":true}]},{"slug":"БИО-БОКС-2025","displayName":"БИО БОКС 2025","registeredOffice":"БЪЛГАРИЯ, гр. Бургас, 8000","mps":[{"mpId":1526,"mpName":"Георги Симеонов Горанов","role":"manager","isCurrent":true},{"mpId":1526,"mpName":"Георги Симеонов Горанов","role":"sole_owner","isCurrent":true}]},{"slug":"Божинов-Инвестмънт-Груп-ООД","displayName":"Божинов Инвестмънт Груп ООД","registeredOffice":"Бургас","mps":[{"mpId":4173,"mpName":"Даниела Стоянова Божинова","role":"declared_stake","isCurrent":true}]},{"slug":"Бургас-2032","displayName":"Бургас - 2032","registeredOffice":"БЪЛГАРИЯ, гр. Бургас, 8000","mps":[{"mpId":2741,"mpName":"Диана Димова Саватева","role":"ngo_representative","isCurrent":true},{"mpId":2741,"mpName":"Диана Димова Саватева","role":"ngo_board","isCurrent":true}]},{"slug":"БУРГАС-ФУУД-ТРЕЙДИНГ","displayName":"БУРГАС ФУУД ТРЕЙДИНГ","registeredOffice":"БЪЛГАРИЯ, гр. Бургас, 8000","mps":[{"mpId":2952,"mpName":"Георги Николов Вергиев","role":"manager","isCurrent":true},{"mpId":2952,"mpName":"Георги Николов Вергиев","role":"partner","isCurrent":true}]},{"slug":"Винес-Хоумс","displayName":"Винес Хоумс","registeredOffice":"БЪЛГАРИЯ, гр. Бургас, 8000","mps":[{"mpId":5176,"mpName":"Витко Здравков Вълчев","role":"partner","isCurrent":true},{"mpId":5176,"mpName":"Витко Здравков Вълчев","role":"manager","isCurrent":true}]},{"slug":"ВОКС-22","displayName":"ВОКС 22","registeredOffice":"БЪЛГАРИЯ, гр. Бургас, 8000","mps":[{"mpId":5176,"mpName":"Витко Здравков Вълчев","role":"sole_owner","isCurrent":true},{"mpId":5176,"mpName":"Витко Здравков Вълчев","role":"manager","isCurrent":true}]},{"slug":"ВЪЛКОВ-И-СИНОВЕ","displayName":"ВЪЛКОВ И СИНОВЕ","registeredOffice":"БЪЛГАРИЯ, гр. Бургас, 8000","mps":[{"mpId":2941,"mpName":"Иван Стефанов Вълков","role":"partner","isCurrent":true},{"mpId":2941,"mpName":"Иван Стефанов Вълков","role":"manager","isCurrent":true}]},{"slug":"Д.С.-Сървис-Консултинг","displayName":"Д.С. Сървис Консултинг","registeredOffice":"БЪЛГАРИЯ, гр. Бургас, 8000","mps":[{"mpId":22,"mpName":"Яни Димитров Янев","role":"manager","isCurrent":true},{"mpId":22,"mpName":"Яни Димитров Янев","role":"sole_owner","isCurrent":true}]},{"slug":"ДЖИ-ЕНД-АЙ-КАРС","displayName":"ДЖИ ЕНД АЙ КАРС","registeredOffice":"БЪЛГАРИЯ, гр. Бургас, 8009","mps":[{"mpId":3410,"mpName":"Георги Стоянов Кадиев","role":"manager","isCurrent":true},{"mpId":3410,"mpName":"Георги Стоянов Кадиев","role":"partner","isCurrent":true}]},{"slug":"ДЖИМЕКС-КОНСУЛТ-2025","displayName":"ДЖИМЕКС КОНСУЛТ 2025","registeredOffice":"БЪЛГАРИЯ, гр. Бургас, 8000","mps":[{"mpId":1526,"mpName":"Георги Симеонов Горанов","role":"manager","isCurrent":true},{"mpId":1526,"mpName":"Георги Симеонов Горанов","role":"sole_owner","isCurrent":true}]},{"slug":"ДИЛАН-АУТО","displayName":"ДИЛАН АУТО","registeredOffice":"БЪЛГАРИЯ, гр. Бургас, 8000","mps":[{"mpId":3328,"mpName":"Дилян Господинов Господинов","role":"manager","isCurrent":true},{"mpId":3328,"mpName":"Дилян Господинов Господинов","role":"sole_owner","isCurrent":true}]},{"slug":"ДОКТОР-ХЮСЕИН-АБУ-МЕЛИХ","displayName":"ДОКТОР ХЮСЕИН АБУ МЕЛИХ","registeredOffice":"БЪЛГАРИЯ, гр. Бургас, 8000","mps":[{"mpId":2366,"mpName":"Семир Хусеин Абу Мелих","role":"ngo_representative","isCurrent":true},{"mpId":2366,"mpName":"Семир Хусеин Абу Мелих","role":"ngo_board","isCurrent":true}]},{"slug":"Ел-Чардж","displayName":"Ел Чардж","registeredOffice":"БЪЛГАРИЯ, гр. Бургас, 8000","mps":[{"mpId":5176,"mpName":"Витко Здравков Вълчев","role":"partner","isCurrent":true},{"mpId":5176,"mpName":"Витко Здравков Вълчев","role":"manager","isCurrent":true}]},{"slug":"Калиде","displayName":"Калиде","registeredOffice":"БЪЛГАРИЯ, гр. Бургас, 8000","mps":[{"mpId":1526,"mpName":"Георги Симеонов Горанов","role":"sole_owner","isCurrent":true},{"mpId":1526,"mpName":"Георги Симеонов Горанов","role":"manager","isCurrent":true}]},{"slug":"Лукс-Гардън","displayName":"Лукс Гардън","registeredOffice":"БЪЛГАРИЯ, гр. Бургас, 8000","mps":[{"mpId":5300,"mpName":"Мирослав Николаев Иванов","role":"manager","isCurrent":true},{"mpId":5300,"mpName":"Мирослав Николаев Иванов","role":"sole_owner","isCurrent":true}]},{"slug":"МИСИЯ-БУДИТЕЛИ","displayName":"МИСИЯ БУДИТЕЛИ","registeredOffice":"БЪЛГАРИЯ, гр. Бургас, 8000","mps":[{"mpId":5179,"mpName":"Пламен Александров Карашев","role":"ngo_representative","isCurrent":true},{"mpId":5179,"mpName":"Пламен Александров Карашев","role":"ngo_board","isCurrent":true}]},{"slug":"МР-ХОУМС","displayName":"МР ХОУМС","registeredOffice":"БЪЛГАРИЯ, гр. Бургас, 8000","mps":[{"mpId":1526,"mpName":"Георги Симеонов Горанов","role":"sole_owner","isCurrent":true},{"mpId":1526,"mpName":"Георги Симеонов Горанов","role":"manager","isCurrent":true}]},{"slug":"Нуклео-Грийнс","displayName":"Нуклео Грийнс","registeredOffice":"БЪЛГАРИЯ, гр. Бургас, 8000","mps":[{"mpId":5176,"mpName":"Витко Здравков Вълчев","role":"partner","isCurrent":true},{"mpId":5176,"mpName":"Витко Здравков Вълчев","role":"manager","isCurrent":true}]},{"slug":"проект-консулт-оод-в-ликвидация","displayName":"проект консулт оод в ликвидация","registeredOffice":"Бургас","mps":[{"mpId":3551,"mpName":"Златомира Димитрова Карагеоргиева-Мострова","role":"declared_stake","isCurrent":true}]},{"slug":"СДРУЖЕНИЕ-УЧИЛИЩНО-НАСТОЯТЕЛСТВО-ПРИ-ОСНОВНО-УЧИЛИЩЕ-ХРИСТО-БОТЕВ-КВ.САРАФОВО-ГР.БУРГАС","displayName":"СДРУЖЕНИЕ \"УЧИЛИЩНО НАСТОЯТЕЛСТВО ПРИ ОСНОВНО УЧИЛИЩЕ \"ХРИСТО БОТЕВ\"\"-КВ.САРАФОВО ГР.БУРГАС","registeredOffice":"БЪЛГАРИЯ, гр. Бургас, 8000","mps":[{"mpId":2941,"mpName":"Иван Стефанов Вълков","role":"ngo_representative","isCurrent":true},{"mpId":2941,"mpName":"Иван Стефанов Вълков","role":"ngo_board","isCurrent":true}]},{"slug":"СДРУЖЕНИЕ-&quot;АГЕНЦИЯ-ЗА-РЕГИОНАЛНО-РАЗВИТИЕ-И-ИНОВАЦИИ&quot;","displayName":"СДРУЖЕНИЕ &quot;АГЕНЦИЯ ЗА РЕГИОНАЛНО РАЗВИТИЕ И ИНОВАЦИИ&quot;","registeredOffice":"БЪЛГАРИЯ, Бургас, 8000","mps":[{"mpId":186,"mpName":"Минчо Викторов Спасов","role":"liquidator","isCurrent":true},{"mpId":186,"mpName":"Минчо Викторов Спасов","role":"ngo_board","isCurrent":true}]},{"slug":"СИТИ-ПЛАСТ-2003","displayName":"СИТИ ПЛАСТ 2003","registeredOffice":"БЪЛГАРИЯ, гр. Бургас, 8000","mps":[{"mpId":2373,"mpName":"Дурхан Мехмед Мустафа","role":"manager","isCurrent":true},{"mpId":2373,"mpName":"Дурхан Мехмед Мустафа","role":"sole_owner","isCurrent":true}]},{"slug":"Стеди-Вет-2-ЕООД","displayName":"Стеди-Вет 2 ЕООД","registeredOffice":"Бургас","mps":[{"mpId":2973,"mpName":"Стойно Митев Стойнов","role":"manager","isCurrent":true},{"mpId":2973,"mpName":"СТОЙНО МИТЕВ СТОЙНОВ","role":"declared_stake","isCurrent":true}]},{"slug":"Фонд-за-развитие-на-летище-Бургас","displayName":"Фонд за развитие на летище Бургас","registeredOffice":"БЪЛГАРИЯ, гр. Бургас, 8000","mps":[{"mpId":1075,"mpName":"Иван Атанасов Алексиев","role":"ngo_representative","isCurrent":true},{"mpId":1075,"mpName":"Иван Атанасов Алексиев","role":"ngo_board","isCurrent":true}]},{"slug":"ЛЯТНА-АКАДЕМИЯ-НА-ИЗКУСТВАТА","displayName":"\"ЛЯТНА АКАДЕМИЯ НА ИЗКУСТВАТА\"","registeredOffice":"БЪЛГАРИЯ, гр. Бургас, 8000","mps":[{"mpId":587,"mpName":"Венко Митков Александров","role":"ngo_board","isCurrent":true}]},{"slug":"Театро-бийч-ООД","displayName":"\"Театро бийч\" ООД","registeredOffice":"Бургас","mps":[{"mpId":3026,"mpName":"Антон Йорданов Адамов","role":"declared_stake","isCurrent":true}]},{"slug":"Амию-ЕООД","displayName":"Амию ЕООД","registeredOffice":"Бургас","mps":[{"mpId":4714,"mpName":"Исмаил Юсмен Осман","role":"declared_stake","isCurrent":true}]},{"slug":"БЕО","displayName":"БЕО","registeredOffice":"БЪЛГАРИЯ, гр. Бургас, 8000","mps":[{"mpId":3725,"mpName":"Марин Шишев Шишев","role":"manager","isCurrent":true}]}]}