{
  "obshtina": "PDV22",
  "page": 2,
  "totalPages": 2,
  "count": 78,
  "companies": [
    {
      "slug": "оренда-тур-еоод",
      "displayName": "оренда тур еоод",
      "registeredOffice": "пловдив",
      "mps": [
        {
          "mpId": 4826,
          "mpName": "Борислав Климентов Петков",
          "role": "declared_stake",
          "isCurrent": true
        }
      ]
    },
    {
      "slug": "ПиДжейТи-Фешън-ООД",
      "displayName": "ПиДжейТи Фешън ООД",
      "registeredOffice": "Пловдив",
      "mps": [
        {
          "mpId": 2847,
          "mpName": "Георги Ченков Търновалийски",
          "role": "declared_stake",
          "isCurrent": true
        }
      ]
    },
    {
      "slug": "ПРОПЪРТИ-ГРУП-ТУР-ЕООД",
      "displayName": "Пропърти груп тур ЕООД",
      "registeredOffice": "Пловдив",
      "mps": [
        {
          "mpId": 4805,
          "mpName": "Красимир Димчев Дончев",
          "role": "declared_stake",
          "isCurrent": true
        }
      ]
    },
    {
      "slug": "Сити-трейд-център-ЕООД",
      "displayName": "Сити трейд център ЕООД",
      "registeredOffice": "Пловдив",
      "mps": [
        {
          "mpId": 3631,
          "mpName": "ДАНИ СТЕФАНОВА КАНАЗИРЕВА",
          "role": "declared_stake",
          "isCurrent": true
        }
      ]
    },
    {
      "slug": "Сюжет-ООД",
      "displayName": "Сюжет ООД",
      "registeredOffice": "Пловдив",
      "mps": [
        {
          "mpId": 2847,
          "mpName": "Георги Ченков Търновалийски",
          "role": "declared_stake",
          "isCurrent": true
        }
      ]
    },
    {
      "slug": "Терикс-10-ЕООД",
      "displayName": "Терикс 10 ЕООД",
      "registeredOffice": "Пловдив",
      "mps": [
        {
          "mpId": 3631,
          "mpName": "ДАНИ СТЕФАНОВА КАНАЗИРЕВА",
          "role": "declared_stake",
          "isCurrent": true
        }
      ]
    },
    {
      "slug": "Терикс-11-ЕООД",
      "displayName": "Терикс 11 ЕООД",
      "registeredOffice": "Пловдив",
      "mps": [
        {
          "mpId": 3631,
          "mpName": "ДАНИ СТЕФАНОВА КАНАЗИРЕВА",
          "role": "declared_stake",
          "isCurrent": true
        }
      ]
    },
    {
      "slug": "Терикс-12-ЕООД",
      "displayName": "Терикс 12 ЕООД",
      "registeredOffice": "Пловдив",
      "mps": [
        {
          "mpId": 3631,
          "mpName": "ДАНИ СТЕФАНОВА КАНАЗИРЕВА",
          "role": "declared_stake",
          "isCurrent": true
        }
      ]
    },
    {
      "slug": "Терикс-13-ЕООД",
      "displayName": "Терикс 13 ЕООД",
      "registeredOffice": "Пловдив",
      "mps": [
        {
          "mpId": 3631,
          "mpName": "ДАНИ СТЕФАНОВА КАНАЗИРЕВА",
          "role": "declared_stake",
          "isCurrent": true
        }
      ]
    },
    {
      "slug": "Терикс-15-ЕООД",
      "displayName": "Терикс 15 ЕООД",
      "registeredOffice": "Пловдив",
      "mps": [
        {
          "mpId": 3631,
          "mpName": "ДАНИ СТЕФАНОВА КАНАЗИРЕВА",
          "role": "declared_stake",
          "isCurrent": true
        }
      ]
    },
    {
      "slug": "Терикс-3-ЕООД",
      "displayName": "Терикс 3 ЕООД",
      "registeredOffice": "Пловдив",
      "mps": [
        {
          "mpId": 3631,
          "mpName": "ДАНИ СТЕФАНОВА КАНАЗИРЕВА",
          "role": "declared_stake",
          "isCurrent": true
        }
      ]
    },
    {
      "slug": "Терикс-4-ЕООД",
      "displayName": "Терикс 4 ЕООД",
      "registeredOffice": "Пловдив",
      "mps": [
        {
          "mpId": 3631,
          "mpName": "ДАНИ СТЕФАНОВА КАНАЗИРЕВА",
          "role": "declared_stake",
          "isCurrent": true
        }
      ]
    },
    {
      "slug": "Терикс-5-ЕООД",
      "displayName": "Терикс 5 ЕООД",
      "registeredOffice": "Пловдив",
      "mps": [
        {
          "mpId": 3631,
          "mpName": "ДАНИ СТЕФАНОВА КАНАЗИРЕВА",
          "role": "declared_stake",
          "isCurrent": true
        }
      ]
    },
    {
      "slug": "Терикс-6-ЕООД",
      "displayName": "Терикс 6 ЕООД",
      "registeredOffice": "Пловдив",
      "mps": [
        {
          "mpId": 3631,
          "mpName": "ДАНИ СТЕФАНОВА КАНАЗИРЕВА",
          "role": "declared_stake",
          "isCurrent": true
        }
      ]
    },
    {
      "slug": "Терикс-7-ЕООД",
      "displayName": "Терикс 7 ЕООД",
      "registeredOffice": "Пловдив",
      "mps": [
        {
          "mpId": 3631,
          "mpName": "ДАНИ СТЕФАНОВА КАНАЗИРЕВА",
          "role": "declared_stake",
          "isCurrent": true
        }
      ]
    },
    {
      "slug": "Терикс-8-ЕООД",
      "displayName": "Терикс 8 ЕООД",
      "registeredOffice": "Пловдив",
      "mps": [
        {
          "mpId": 3631,
          "mpName": "ДАНИ СТЕФАНОВА КАНАЗИРЕВА",
          "role": "declared_stake",
          "isCurrent": true
        }
      ]
    },
    {
      "slug": "Терикс-9-ЕООД",
      "displayName": "Терикс 9 ЕООД",
      "registeredOffice": "Пловдив",
      "mps": [
        {
          "mpId": 3631,
          "mpName": "ДАНИ СТЕФАНОВА КАНАЗИРЕВА",
          "role": "declared_stake",
          "isCurrent": true
        }
      ]
    },
    {
      "slug": "Терикс-билдинг-2010-ЕООД",
      "displayName": "Терикс билдинг 2010 ЕООД",
      "registeredOffice": "Пловдив",
      "mps": [
        {
          "mpId": 3631,
          "mpName": "ДАНИ СТЕФАНОВА КАНАЗИРЕВА",
          "role": "declared_stake",
          "isCurrent": true
        }
      ]
    },
    {
      "slug": "Терикс-билдинг-ЕООД",
      "displayName": "Терикс билдинг ЕООД",
      "registeredOffice": "Пловдив",
      "mps": [
        {
          "mpId": 3631,
          "mpName": "ДАНИ СТЕФАНОВА КАНАЗИРЕВА",
          "role": "declared_stake",
          "isCurrent": true
        }
      ]
    },
    {
      "slug": "Терикс-вендинг-ЕООД",
      "displayName": "Терикс вендинг ЕООД",
      "registeredOffice": "Пловдив",
      "mps": [
        {
          "mpId": 3631,
          "mpName": "ДАНИ СТЕФАНОВА КАНАЗИРЕВА",
          "role": "declared_stake",
          "isCurrent": true
        }
      ]
    },
    {
      "slug": "Терикс-ЕООД",
      "displayName": "Терикс ЕООД",
      "registeredOffice": "Пловдив",
      "mps": [
        {
          "mpId": 3631,
          "mpName": "ДАНИ СТЕФАНОВА КАНАЗИРЕВА",
          "role": "declared_stake",
          "isCurrent": true
        }
      ]
    },
    {
      "slug": "Терикс-ъкаунт-ЕООД",
      "displayName": "Терикс ъкаунт ЕООД",
      "registeredOffice": "Пловдив",
      "mps": [
        {
          "mpId": 3631,
          "mpName": "ДАНИ СТЕФАНОВА КАНАЗИРЕВА",
          "role": "declared_stake",
          "isCurrent": true
        }
      ]
    },
    {
      "slug": "Техно-ел-ЕООД",
      "displayName": "Техно ел ЕООД",
      "registeredOffice": "Пловдив",
      "mps": [
        {
          "mpId": 3631,
          "mpName": "ДАНИ СТЕФАНОВА КАНАЗИРЕВА",
          "role": "declared_stake",
          "isCurrent": true
        }
      ]
    },
    {
      "slug": "Техноинженеринг-оод",
      "displayName": "Техноинженеринг оод",
      "registeredOffice": "Пловдив",
      "mps": [
        {
          "mpId": 2834,
          "mpName": "Менда Кирилова Стоянова",
          "role": "declared_stake",
          "isCurrent": true
        }
      ]
    },
    {
      "slug": "Феър-Тийм-ЕООД",
      "displayName": "Феър Тийм ЕООД",
      "registeredOffice": "Пловдив",
      "mps": [
        {
          "mpId": 3351,
          "mpName": "Мария Василева Капон",
          "role": "declared_stake",
          "isCurrent": true
        }
      ]
    },
    {
      "slug": "Фил-Комерс-Е-оод",
      "displayName": "Фил-Комерс Е оод",
      "registeredOffice": "Пловдив",
      "mps": [
        {
          "mpId": 2834,
          "mpName": "Менда Кирилова Стоянова",
          "role": "declared_stake",
          "isCurrent": true
        }
      ]
    },
    {
      "slug": "Фил-Комерс-оод",
      "displayName": "Фил-Комерс оод",
      "registeredOffice": "Пловдив",
      "mps": [
        {
          "mpId": 2834,
          "mpName": "Менда Кирилова Стоянова",
          "role": "declared_stake",
          "isCurrent": true
        }
      ]
    },
    {
      "slug": "ФОКУС-БГ-ЕООД",
      "displayName": "Фокус бг ЕООД",
      "registeredOffice": "Пловдив",
      "mps": [
        {
          "mpId": 2833,
          "mpName": "Спас Георгиев Гърневски",
          "role": "declared_stake",
          "isCurrent": true
        }
      ]
    }
  ]
}