{
  "obshtina": "PDV22",
  "page": 1,
  "totalPages": 2,
  "count": 78,
  "companies": [
    {
      "slug": "ПАЛЕРМО-2021",
      "displayName": "Палермо 2021",
      "registeredOffice": "БЪЛГАРИЯ, гр. Пловдив, 4004",
      "mps": [
        {
          "mpId": 2545,
          "mpName": "Здравко Димитров Димитров",
          "role": "manager",
          "isCurrent": true
        },
        {
          "mpId": 2545,
          "mpName": "Здравко Димитров Димитров",
          "role": "partner",
          "isCurrent": true
        },
        {
          "mpId": 4465,
          "mpName": "Николай Георгиев Марков",
          "role": "partner",
          "isCurrent": true
        }
      ]
    },
    {
      "slug": "Чеси-Инс-Брокер-ООД",
      "displayName": "\"Чеси Инс Брокер\" ООД",
      "registeredOffice": "Пловдив",
      "mps": [
        {
          "mpId": 5092,
          "mpName": "Богомил Иванов Петков",
          "role": "manager",
          "isCurrent": true
        },
        {
          "mpId": 4802,
          "mpName": "Иван Богомилов Петков",
          "role": "manager",
          "isCurrent": true
        },
        {
          "mpId": 4802,
          "mpName": "Иван Богомилов Петков",
          "role": "declared_stake",
          "isCurrent": true
        }
      ]
    },
    {
      "slug": "ВАНЕСА-27",
      "displayName": "Ванеса 27",
      "registeredOffice": "БЪЛГАРИЯ, гр. Пловдив, 4002",
      "mps": [
        {
          "mpId": 2665,
          "mpName": "Мария Йорданова Илиева",
          "role": "manager",
          "isCurrent": true
        },
        {
          "mpId": 2665,
          "mpName": "Мария Йорданова Илиева",
          "role": "partner",
          "isCurrent": true
        }
      ]
    },
    {
      "slug": "Грийн-Голд-Интернешънъл",
      "displayName": "Грийн Голд Интернешънъл",
      "registeredOffice": "БЪЛГАРИЯ, гр. Пловдив, 4027",
      "mps": [
        {
          "mpId": 2558,
          "mpName": "Мартин Стоянов Иванов",
          "role": "manager",
          "isCurrent": true
        },
        {
          "mpId": 2558,
          "mpName": "Мартин Стоянов Иванов",
          "role": "partner",
          "isCurrent": true
        }
      ]
    },
    {
      "slug": "ДЕНТАЛЕН-ЦЕНТЪР-ВИТА-Г",
      "displayName": "Дентален център вита г",
      "registeredOffice": "БЪЛГАРИЯ, гр. Пловдив, 4000",
      "mps": [
        {
          "mpId": 2838,
          "mpName": "Георги Йорданов Йорданов",
          "role": "manager",
          "isCurrent": true
        },
        {
          "mpId": 2838,
          "mpName": "Георги Йорданов Йорданов",
          "role": "partner",
          "isCurrent": false
        }
      ]
    },
    {
      "slug": "ЮГ-МАРКЕТ",
      "displayName": "ЮГ Маркет",
      "registeredOffice": "БЪЛГАРИЯ, гр. Пловдив, 4003",
      "mps": [
        {
          "mpId": 224,
          "mpName": "Теодора Георгиева Якимова-Дренска",
          "role": "representative",
          "isCurrent": true
        },
        {
          "mpId": 224,
          "mpName": "Теодора Георгиева Якимова-Дренска",
          "role": "director",
          "isCurrent": true
        }
      ]
    },
    {
      "slug": "агри-дрон-еоод",
      "displayName": "агри дрон еоод",
      "registeredOffice": "пловдив",
      "mps": [
        {
          "mpId": 4826,
          "mpName": "Борислав Климентов Петков",
          "role": "manager",
          "isCurrent": true
        },
        {
          "mpId": 4826,
          "mpName": "Борислав Климентов Петков",
          "role": "sole_owner",
          "isCurrent": true
        },
        {
          "mpId": 4826,
          "mpName": "Борислав Климентов Петков",
          "role": "declared_stake",
          "isCurrent": true
        }
      ]
    },
    {
      "slug": "СМАРТ-ЧОЙС-ПРОПЪРТИ-ООД",
      "displayName": "Смарт чойс пропърти ООД",
      "registeredOffice": "Пловдив",
      "mps": [
        {
          "mpId": 4805,
          "mpName": "Красимир Димчев Дончев",
          "role": "manager",
          "isCurrent": true
        },
        {
          "mpId": 4805,
          "mpName": "Красимир Димчев Дончев",
          "role": "sole_owner",
          "isCurrent": true
        },
        {
          "mpId": 4805,
          "mpName": "Красимир Димчев Дончев",
          "role": "declared_stake",
          "isCurrent": true
        }
      ]
    },
    {
      "slug": "АГРОКОПТЕР-ЕВРОПА",
      "displayName": "Агрокоптер европа",
      "registeredOffice": "БЪЛГАРИЯ, гр. Пловдив, 4000",
      "mps": [
        {
          "mpId": 4826,
          "mpName": "Борислав Климентов Петков",
          "role": "manager",
          "isCurrent": true
        },
        {
          "mpId": 4826,
          "mpName": "Борислав Климентов Петков",
          "role": "sole_owner",
          "isCurrent": true
        }
      ]
    },
    {
      "slug": "АРХИТИЙМ-ДИЗАЙН",
      "displayName": "Архитийм дизайн",
      "registeredOffice": "БЪЛГАРИЯ, гр. Пловдив, 4000",
      "mps": [
        {
          "mpId": 5300,
          "mpName": "Мирослав Николаев Иванов",
          "role": "manager",
          "isCurrent": true
        },
        {
          "mpId": 5300,
          "mpName": "Мирослав Николаев Иванов",
          "role": "sole_owner",
          "isCurrent": true
        }
      ]
    },
    {
      "slug": "К.И.Д.-ФУУД-1926",
      "displayName": "К.И.Д. Фууд 1926",
      "registeredOffice": "БЪЛГАРИЯ, гр. Пловдив, 4002",
      "mps": [
        {
          "mpId": 3148,
          "mpName": "Красимир Христов Николов",
          "role": "manager",
          "isCurrent": true
        },
        {
          "mpId": 3148,
          "mpName": "Красимир Христов Николов",
          "role": "sole_owner",
          "isCurrent": true
        }
      ]
    },
    {
      "slug": "Каменица-Офис-парк-АД",
      "displayName": "Каменица Офис парк АД",
      "registeredOffice": "Пловдив",
      "mps": [
        {
          "mpId": 3620,
          "mpName": "Иван Борисов Тотев",
          "role": "actual_owner",
          "isCurrent": true
        },
        {
          "mpId": 3620,
          "mpName": "ИВАН БОРИСОВ ТОТЕВ",
          "role": "declared_stake",
          "isCurrent": true
        }
      ]
    },
    {
      "slug": "ЛИТЕРАТУРНА-АГЕНЦИЯ-СОФИЯ",
      "displayName": "Литературна агенция софия",
      "registeredOffice": "БЪЛГАРИЯ, гр. Пловдив, 4004",
      "mps": [
        {
          "mpId": 4800,
          "mpName": "Манол Костадинов Пейков",
          "role": "manager",
          "isCurrent": true
        },
        {
          "mpId": 4800,
          "mpName": "Манол Костадинов Пейков",
          "role": "sole_owner",
          "isCurrent": true
        }
      ]
    },
    {
      "slug": "МАРТИН-ДИМИТРОВ-2021",
      "displayName": "Мартин Димитров 2021",
      "registeredOffice": "БЪЛГАРИЯ, гр. Пловдив, 4000",
      "mps": [
        {
          "mpId": 5245,
          "mpName": "Мартин Димитров Димитров",
          "role": "manager",
          "isCurrent": true
        },
        {
          "mpId": 5245,
          "mpName": "Мартин Димитров Димитров",
          "role": "sole_owner",
          "isCurrent": true
        }
      ]
    },
    {
      "slug": "СЛАВАС-2",
      "displayName": "Славас 2",
      "registeredOffice": "БЪЛГАРИЯ, гр. Пловдив, 4000",
      "mps": [
        {
          "mpId": 3256,
          "mpName": "Светослав Георгиев Георгиев",
          "role": "manager",
          "isCurrent": true
        },
        {
          "mpId": 3256,
          "mpName": "Светослав Георгиев Георгиев",
          "role": "sole_owner",
          "isCurrent": true
        }
      ]
    },
    {
      "slug": "Солар-КИС",
      "displayName": "Солар Кис",
      "registeredOffice": "БЪЛГАРИЯ, гр. Пловдив, 4003",
      "mps": [
        {
          "mpId": 854,
          "mpName": "Стоян Иванов Иванов",
          "role": "manager",
          "isCurrent": true
        },
        {
          "mpId": 854,
          "mpName": "Стоян Иванов Иванов",
          "role": "sole_owner",
          "isCurrent": true
        }
      ]
    },
    {
      "slug": "БЕНДИДА-21",
      "displayName": "Бендида 21",
      "registeredOffice": "БЪЛГАРИЯ, гр. Пловдив, 4003",
      "mps": [
        {
          "mpId": 5005,
          "mpName": "Стилиана Иванова Бобчева",
          "role": "partner",
          "isCurrent": true
        }
      ]
    },
    {
      "slug": "ДАТА-ИНТЕНСИВ",
      "displayName": "Дата интенсив",
      "registeredOffice": "БЪЛГАРИЯ, гр. Пловдив, 4000",
      "mps": [
        {
          "mpId": 3625,
          "mpName": "Йордан Янков Маджунков",
          "role": "manager",
          "isCurrent": true
        }
      ]
    },
    {
      "slug": "ДЖЕЙ-МЕНИДЖМЪНТ",
      "displayName": "Джей мениджмънт",
      "registeredOffice": "БЪЛГАРИЯ, гр. Пловдив, 4003",
      "mps": [
        {
          "mpId": 5197,
          "mpName": "Йордан Йовчев Йовчев",
          "role": "partner",
          "isCurrent": true
        }
      ]
    },
    {
      "slug": "ДжиЕсТи-Медиа",
      "displayName": "ДжиЕсТи Медиа",
      "registeredOffice": "БЪЛГАРИЯ, гр. Пловдив, 4002",
      "mps": [
        {
          "mpId": 909,
          "mpName": "Емил Димитров Гущеров",
          "role": "manager",
          "isCurrent": true
        }
      ]
    },
    {
      "slug": "Екс-Ес-Консулт",
      "displayName": "Екс Ес Консулт",
      "registeredOffice": "БЪЛГАРИЯ, гр. Пловдив, 4002",
      "mps": [
        {
          "mpId": 5192,
          "mpName": "Христо Симеонов Симеонов",
          "role": "partner",
          "isCurrent": true
        }
      ]
    },
    {
      "slug": "МАЙ-ПАРТНЕРС",
      "displayName": "МАЙ Партнерс",
      "registeredOffice": "БЪЛГАРИЯ, гр. Пловдив, 4015",
      "mps": [
        {
          "mpId": 2400,
          "mpName": "Иван Кирилов Иванов",
          "role": "partner",
          "isCurrent": true
        }
      ]
    },
    {
      "slug": "СТИЛУКС",
      "displayName": "Стилукс",
      "registeredOffice": "БЪЛГАРИЯ, гр. Пловдив, 4000",
      "mps": [
        {
          "mpId": 819,
          "mpName": "Петър Димитров Попов",
          "role": "partner",
          "isCurrent": true
        }
      ]
    },
    {
      "slug": "ЮГ-МАРКЕТ-ФОНД-МЕНИДЖМЪНТ",
      "displayName": "ЮГ Маркет фонд мениджмънт",
      "registeredOffice": "БЪЛГАРИЯ, гр. Пловдив, 4003",
      "mps": [
        {
          "mpId": 224,
          "mpName": "Теодора Георгиева Якимова-Дренска",
          "role": "procurator",
          "isCurrent": true
        }
      ]
    },
    {
      "slug": "Омега-2005-МГ-ЕООД",
      "displayName": "\"Омега 2005 Мг\" ЕООД",
      "registeredOffice": "Пловдив",
      "mps": [
        {
          "mpId": 4809,
          "mpName": "МАНОЛ ТРИФОНОВ ГЕНОВ",
          "role": "declared_stake",
          "isCurrent": true
        }
      ]
    },
    {
      "slug": "Ралекс-ООД",
      "displayName": "\"Ралекс\" ООД",
      "registeredOffice": "Пловдив",
      "mps": [
        {
          "mpId": 4809,
          "mpName": "МАНОЛ ТРИФОНОВ ГЕНОВ",
          "role": "declared_stake",
          "isCurrent": true
        }
      ]
    },
    {
      "slug": "БАРДУКОВ-ООД",
      "displayName": "Бардуков ООД",
      "registeredOffice": "Пловдив",
      "mps": [
        {
          "mpId": 3047,
          "mpName": "НИКОЛА ХРИСТОВ КРЪСТЕВ",
          "role": "declared_stake",
          "isCurrent": true
        }
      ]
    },
    {
      "slug": "ДАИКС-ООД",
      "displayName": "Даикс ООД",
      "registeredOffice": "Пловдив",
      "mps": [
        {
          "mpId": 2946,
          "mpName": "ЕЛЕНА СТЕФАНОВА ПЕШЕВА",
          "role": "declared_stake",
          "isCurrent": true
        }
      ]
    },
    {
      "slug": "ДАИКСС-ЕООД",
      "displayName": "Даиксс ЕООД",
      "registeredOffice": "Пловдив",
      "mps": [
        {
          "mpId": 2946,
          "mpName": "ЕЛЕНА СТЕФАНОВА ПЕШЕВА",
          "role": "declared_stake",
          "isCurrent": true
        }
      ]
    },
    {
      "slug": "Декодизайн-Груп-ООД",
      "displayName": "Декодизайн Груп ООД",
      "registeredOffice": "Пловдив",
      "mps": [
        {
          "mpId": 3351,
          "mpName": "Мария Василева Капон",
          "role": "declared_stake",
          "isCurrent": true
        }
      ]
    },
    {
      "slug": "ДЖИ-ПИ-ЕС-СИСТЕМИ-БЪЛГАРИЯ-ООД",
      "displayName": "ДЖИ Пи ЕС системи българия ООД",
      "registeredOffice": "Пловдив",
      "mps": [
        {
          "mpId": 2946,
          "mpName": "ЕЛЕНА СТЕФАНОВА ПЕШЕВА",
          "role": "declared_stake",
          "isCurrent": true
        }
      ]
    },
    {
      "slug": "Нупсън-ООД",
      "displayName": "Нупсън ООД",
      "registeredOffice": "Пловдив",
      "mps": [
        {
          "mpId": 3351,
          "mpName": "Мария Василева Капон",
          "role": "declared_stake",
          "isCurrent": true
        }
      ]
    },
    {
      "slug": "ТаксКонсулт-оод",
      "displayName": "ТаксКонсулт оод",
      "registeredOffice": "Пловдив",
      "mps": [
        {
          "mpId": 2834,
          "mpName": "Менда Кирилова Стоянова",
          "role": "declared_stake",
          "isCurrent": true
        }
      ]
    },
    {
      "slug": "Тракия-ЕДУ",
      "displayName": "Тракия Еду",
      "registeredOffice": "Пловдив",
      "mps": [
        {
          "mpId": 4262,
          "mpName": "Росен Добрев Костурков",
          "role": "declared_stake",
          "isCurrent": true
        }
      ]
    },
    {
      "slug": "Фернет-България-ООД",
      "displayName": "Фернет България ООД",
      "registeredOffice": "Пловдив",
      "mps": [
        {
          "mpId": 3351,
          "mpName": "Мария Василева Капон",
          "role": "declared_stake",
          "isCurrent": true
        }
      ]
    },
    {
      "slug": "ЮГ-МАРКЕТ-2",
      "displayName": "ЮГ Маркет",
      "registeredOffice": "БЪЛГАРИЯ, гр. Пловдив, 4003",
      "mps": [
        {
          "mpId": 224,
          "mpName": "Теодора Георгиева Якимова-Дренска",
          "role": "representative",
          "isCurrent": true
        },
        {
          "mpId": 224,
          "mpName": "Теодора Георгиева Якимова-Дренска",
          "role": "director",
          "isCurrent": true
        }
      ]
    },
    {
      "slug": "БИО-ПАК-БГ-ООД",
      "displayName": "БИО Пак бг ООД",
      "registeredOffice": "Пловдив",
      "mps": [
        {
          "mpId": 3348,
          "mpName": "ПЕНЧО МАЛИНОВ МАЛИНОВ",
          "role": "declared_stake",
          "isCurrent": true
        }
      ]
    },
    {
      "slug": "Валари-ООД",
      "displayName": "Валари ООД",
      "registeredOffice": "Пловдив",
      "mps": [
        {
          "mpId": 3552,
          "mpName": "Димитър Михайлов Ташев",
          "role": "declared_stake",
          "isCurrent": true
        }
      ]
    },
    {
      "slug": "Вендинг-индустри-ЕООД",
      "displayName": "Вендинг индустри ЕООД",
      "registeredOffice": "Пловдив",
      "mps": [
        {
          "mpId": 3631,
          "mpName": "ДАНИ СТЕФАНОВА КАНАЗИРЕВА",
          "role": "declared_stake",
          "isCurrent": true
        }
      ]
    },
    {
      "slug": "Вита-трейдинг-ЕООД",
      "displayName": "Вита трейдинг ЕООД",
      "registeredOffice": "Пловдив",
      "mps": [
        {
          "mpId": 2838,
          "mpName": "ГЕОРГИ ЙОРДАНОВ ЙОРДАНОВ",
          "role": "declared_stake",
          "isCurrent": true
        }
      ]
    },
    {
      "slug": "Вита-фармаси-ЕООД",
      "displayName": "Вита фармаси ЕООД",
      "registeredOffice": "Пловдив",
      "mps": [
        {
          "mpId": 2838,
          "mpName": "ГЕОРГИ ЙОРДАНОВ ЙОРДАНОВ",
          "role": "declared_stake",
          "isCurrent": true
        }
      ]
    },
    {
      "slug": "ГЛОБАЛ-ЧОЙС-ЕООД",
      "displayName": "Глобал чойс ЕООД",
      "registeredOffice": "Пловдив",
      "mps": [
        {
          "mpId": 4805,
          "mpName": "Красимир Димчев Дончев",
          "role": "declared_stake",
          "isCurrent": true
        }
      ]
    },
    {
      "slug": "Глобофарм-ЕООД",
      "displayName": "Глобофарм ЕООД",
      "registeredOffice": "Пловдив",
      "mps": [
        {
          "mpId": 2838,
          "mpName": "ГЕОРГИ ЙОРДАНОВ ЙОРДАНОВ",
          "role": "declared_stake",
          "isCurrent": true
        }
      ]
    },
    {
      "slug": "Голдмайнд",
      "displayName": "Голдмайнд",
      "registeredOffice": "Пловдив",
      "mps": [
        {
          "mpId": 5101,
          "mpName": "Георги Николаев Георгиев",
          "role": "declared_stake",
          "isCurrent": true
        }
      ]
    },
    {
      "slug": "ИСИТ-ДОКУМЕНТИ-ООД",
      "displayName": "Исит документи ООД",
      "registeredOffice": "Пловдив",
      "mps": [
        {
          "mpId": 5193,
          "mpName": "Йордан Яворов Иванов",
          "role": "declared_stake",
          "isCurrent": true
        }
      ]
    },
    {
      "slug": "ИСИТ-ООД",
      "displayName": "Исит ООД",
      "registeredOffice": "Пловдив",
      "mps": [
        {
          "mpId": 5193,
          "mpName": "Йордан Яворов Иванов",
          "role": "declared_stake",
          "isCurrent": true
        }
      ]
    },
    {
      "slug": "К-И-Инвест-Холдинг-ЕООД",
      "displayName": "К-И Инвест Холдинг ЕООД",
      "registeredOffice": "Пловдив",
      "mps": [
        {
          "mpId": 3700,
          "mpName": "ВЛАДИМИР МАРИНОВ МАРИНОВ",
          "role": "declared_stake",
          "isCurrent": true
        }
      ]
    },
    {
      "slug": "Меге-инвесмънт-еоод",
      "displayName": "Меге инвесмънт еоод",
      "registeredOffice": "Пловдив",
      "mps": [
        {
          "mpId": 2834,
          "mpName": "Менда Кирилова Стоянова",
          "role": "declared_stake",
          "isCurrent": true
        }
      ]
    },
    {
      "slug": "ММ-93-Изола-ООД",
      "displayName": "Мм 93 Изола ООД",
      "registeredOffice": "Пловдив",
      "mps": [
        {
          "mpId": 2838,
          "mpName": "ГЕОРГИ ЙОРДАНОВ ЙОРДАНОВ",
          "role": "declared_stake",
          "isCurrent": true
        }
      ]
    },
    {
      "slug": "оренда-777-еоод",
      "displayName": "оренда 777 еоод",
      "registeredOffice": "пловдив",
      "mps": [
        {
          "mpId": 4826,
          "mpName": "Борислав Климентов Петков",
          "role": "declared_stake",
          "isCurrent": true
        }
      ]
    }
  ]
}