{
  "obshtina": "RSE27",
  "page": 1,
  "totalPages": 2,
  "count": 53,
  "companies": [
    {
      "slug": "УД-БУЛ-ЕООД",
      "displayName": "\"УД БУЛ\" ЕООД",
      "registeredOffice": "Русе",
      "mps": [
        {
          "mpId": 5152,
          "mpName": "РУМЕН ДИМИТРОВ ХРИСТОВ",
          "role": "declared_stake",
          "isCurrent": true
        }
      ]
    },
    {
      "slug": "Удекс-ЕООД",
      "displayName": "\"Удекс\" ЕООД",
      "registeredOffice": "Русе",
      "mps": [
        {
          "mpId": 5152,
          "mpName": "РУМЕН ДИМИТРОВ ХРИСТОВ",
          "role": "declared_stake",
          "isCurrent": true
        }
      ]
    },
    {
      "slug": "Деметра-ЗС-ЕООД",
      "displayName": "Деметра ЗС ЕООД",
      "registeredOffice": "С. СМИРНЕНСКИ",
      "mps": [
        {
          "mpId": 3457,
          "mpName": "БЮРХАН ИЛИЯЗОВ АБАЗОВ",
          "role": "declared_stake",
          "isCurrent": true
        }
      ]
    },
    {
      "slug": "Интерактивен-Дизайн-ООД",
      "displayName": "Интерактивен Дизайн ООД",
      "registeredOffice": "Русе",
      "mps": [
        {
          "mpId": 4817,
          "mpName": "Иван Белчев Белчев",
          "role": "declared_stake",
          "isCurrent": true
        }
      ]
    },
    {
      "slug": "Есте-08-ЕООД",
      "displayName": "Есте 08 ЕООД",
      "registeredOffice": "Русе",
      "mps": [
        {
          "mpId": 3222,
          "mpName": "ПЛАМЕН ДУЛЧЕВ НУНЕВ",
          "role": "declared_stake",
          "isCurrent": true
        }
      ]
    },
    {
      "slug": "Естее-ЕООД",
      "displayName": "Естее ЕООД",
      "registeredOffice": "Русе",
      "mps": [
        {
          "mpId": 3222,
          "mpName": "ПЛАМЕН ДУЛЧЕВ НУНЕВ",
          "role": "declared_stake",
          "isCurrent": true
        }
      ]
    },
    {
      "slug": "МЕД-ИН-ООД",
      "displayName": "МЕД ИН ООД",
      "registeredOffice": "Русе",
      "mps": [
        {
          "mpId": 3228,
          "mpName": "АЛИСЕ КЯМИЛОВА МУРТЕЗОВА",
          "role": "declared_stake",
          "isCurrent": true
        }
      ]
    },
    {
      "slug": "Аарон-ООД",
      "displayName": "Аарон ООД",
      "registeredOffice": "Русе",
      "mps": [
        {
          "mpId": 3914,
          "mpName": "Инна Владимирова Иванова",
          "role": "declared_stake",
          "isCurrent": true
        }
      ]
    },
    {
      "slug": "Заря-прогрес-ЕООД",
      "displayName": "Заря прогрес ЕООД",
      "registeredOffice": "Русе",
      "mps": [
        {
          "mpId": 3228,
          "mpName": "АЛИСЕ КЯМИЛОВА МУРТЕЗОВА",
          "role": "declared_stake",
          "isCurrent": true
        }
      ]
    },
    {
      "slug": "Лега-Консулт-ООД",
      "displayName": "Лега Консулт ООД",
      "registeredOffice": "Русе",
      "mps": [
        {
          "mpId": 3957,
          "mpName": "Рена Енчева Стефанова",
          "role": "declared_stake",
          "isCurrent": true
        }
      ]
    },
    {
      "slug": "Лока-Интернешънъл-ООД",
      "displayName": "Лока Интернешънъл ООД",
      "registeredOffice": "Русе",
      "mps": [
        {
          "mpId": 3914,
          "mpName": "Инна Владимирова Иванова",
          "role": "declared_stake",
          "isCurrent": true
        }
      ]
    },
    {
      "slug": "Последни-Нюз",
      "displayName": "Последни Нюз",
      "registeredOffice": "БЪЛГАРИЯ, гр. Русе, 7000",
      "mps": [
        {
          "mpId": 3787,
          "mpName": "Калин Ивайлов Иванов",
          "role": "manager",
          "isCurrent": true
        },
        {
          "mpId": 3787,
          "mpName": "Калин Ивайлов Иванов",
          "role": "partner",
          "isCurrent": true
        },
        {
          "mpId": 3957,
          "mpName": "Рена Енчева Стефанова",
          "role": "partner",
          "isCurrent": true
        }
      ]
    },
    {
      "slug": "РЕГИОНАЛНА-АСОЦИАЦИЯ-ЗА-РАЗВИТИЕ-НА-КОННИЯ-СПОРТ",
      "displayName": "РЕГИОНАЛНА АСОЦИАЦИЯ ЗА РАЗВИТИЕ НА КОННИЯ СПОРТ",
      "registeredOffice": "БЪЛГАРИЯ, гр. Русе, 7000",
      "mps": [
        {
          "mpId": 2560,
          "mpName": "Свилен Филипов Иванов",
          "role": "actual_owner",
          "isCurrent": true
        },
        {
          "mpId": 2560,
          "mpName": "Свилен Филипов Иванов",
          "role": "ngo_representative",
          "isCurrent": true
        },
        {
          "mpId": 2560,
          "mpName": "Свилен Филипов Иванов",
          "role": "ngo_board",
          "isCurrent": true
        }
      ]
    },
    {
      "slug": "ВДБ-Хандел",
      "displayName": "ВДБ Хандел",
      "registeredOffice": "БЪЛГАРИЯ, гр. Русе, 7000",
      "mps": [
        {
          "mpId": 833,
          "mpName": "Йордан Петров Борисов",
          "role": "manager",
          "isCurrent": true
        },
        {
          "mpId": 833,
          "mpName": "Йордан Петров Борисов",
          "role": "sole_owner",
          "isCurrent": true
        }
      ]
    },
    {
      "slug": "ДИБАЛДИ",
      "displayName": "ДИБАЛДИ",
      "registeredOffice": "БЪЛГАРИЯ, гр. Русе, 7000",
      "mps": [
        {
          "mpId": 3324,
          "mpName": "Ивелин Стоянов Стоянов",
          "role": "manager",
          "isCurrent": true
        },
        {
          "mpId": 3324,
          "mpName": "Ивелин Стоянов Стоянов",
          "role": "sole_owner",
          "isCurrent": true
        }
      ]
    },
    {
      "slug": "Екологично-сдружение-Дишай,-Русе",
      "displayName": "Екологично сдружение Дишай, Русе",
      "registeredOffice": "БЪЛГАРИЯ, гр. Русе, 7000",
      "mps": [
        {
          "mpId": 4817,
          "mpName": "Иван Белчев Белчев",
          "role": "ngo_representative",
          "isCurrent": true
        },
        {
          "mpId": 4817,
          "mpName": "Иван Белчев Белчев",
          "role": "ngo_board",
          "isCurrent": true
        }
      ]
    },
    {
      "slug": "Инвест-веселинови-ООД",
      "displayName": "Инвест веселинови ООД",
      "registeredOffice": "РУСЕ",
      "mps": [
        {
          "mpId": 2864,
          "mpName": "ИСКРЕН ВАСИЛЕВ ВЕСЕЛИНОВ",
          "role": "declared_stake",
          "isCurrent": true
        }
      ]
    },
    {
      "slug": "КАЛИКАПИТАЛ",
      "displayName": "КАЛИКАПИТАЛ",
      "registeredOffice": "БЪЛГАРИЯ, гр. Русе, 7000",
      "mps": [
        {
          "mpId": 5112,
          "mpName": "Калин Георгиев Стоянов",
          "role": "manager",
          "isCurrent": true
        },
        {
          "mpId": 5112,
          "mpName": "Калин Георгиев Стоянов",
          "role": "sole_owner",
          "isCurrent": true
        }
      ]
    },
    {
      "slug": "КАРИНА-02",
      "displayName": "КАРИНА 02",
      "registeredOffice": "БЪЛГАРИЯ, гр. Русе, 7000",
      "mps": [
        {
          "mpId": 833,
          "mpName": "Йордан Петров Борисов",
          "role": "manager",
          "isCurrent": true
        },
        {
          "mpId": 833,
          "mpName": "Йордан Петров Борисов",
          "role": "sole_owner",
          "isCurrent": true
        }
      ]
    },
    {
      "slug": "МАГНУМ-21",
      "displayName": "МАГНУМ - 21",
      "registeredOffice": "БЪЛГАРИЯ, гр. Русе, 7000",
      "mps": [
        {
          "mpId": 3993,
          "mpName": "Георги Станчев Георгиев",
          "role": "manager",
          "isCurrent": true
        },
        {
          "mpId": 3993,
          "mpName": "Георги Станчев Георгиев",
          "role": "sole_owner",
          "isCurrent": true
        }
      ]
    },
    {
      "slug": "МЕДИКА-РУСЕ-БГ",
      "displayName": "МЕДИКА РУСЕ - БГ",
      "registeredOffice": "БЪЛГАРИЯ, гр. Русе, 7000",
      "mps": [
        {
          "mpId": 3228,
          "mpName": "Алисе Кямилова Муртезова",
          "role": "representative",
          "isCurrent": true
        },
        {
          "mpId": 3228,
          "mpName": "Алисе Кямилова Муртезова",
          "role": "director",
          "isCurrent": true
        }
      ]
    },
    {
      "slug": "МЕСТНА-ИНИЦИАТИВНА-РИБАРСКА-ГРУПА-РУСЕ-ИВАНОВО-БОРОВО",
      "displayName": "МЕСТНА ИНИЦИАТИВНА РИБАРСКА ГРУПА РУСЕ-ИВАНОВО-БОРОВО",
      "registeredOffice": "БЪЛГАРИЯ, гр. Русе, 7000",
      "mps": [
        {
          "mpId": 2863,
          "mpName": "Пенчо Пламенов Милков",
          "role": "ngo_representative",
          "isCurrent": true
        },
        {
          "mpId": 2863,
          "mpName": "Пенчо Пламенов Милков",
          "role": "ngo_board",
          "isCurrent": true
        }
      ]
    },
    {
      "slug": "МИСИЯ-ГРАДЕЖ",
      "displayName": "МИСИЯ ГРАДЕЖ",
      "registeredOffice": "БЪЛГАРИЯ, гр. Русе, 7000",
      "mps": [
        {
          "mpId": 229,
          "mpName": "Борислав Иванов Българинов",
          "role": "ngo_representative",
          "isCurrent": true
        },
        {
          "mpId": 229,
          "mpName": "Борислав Иванов Българинов",
          "role": "ngo_board",
          "isCurrent": true
        }
      ]
    },
    {
      "slug": "Проект-7000",
      "displayName": "Проект 7000",
      "registeredOffice": "БЪЛГАРИЯ, гр. Русе, 7000",
      "mps": [
        {
          "mpId": 3220,
          "mpName": "Митко Христов Кунчев",
          "role": "ngo_representative",
          "isCurrent": true
        },
        {
          "mpId": 3220,
          "mpName": "Митко Христов Кунчев",
          "role": "ngo_board",
          "isCurrent": true
        }
      ]
    },
    {
      "slug": "СДРУЖЕНИЕ-&quot;ПООЩРЯВАНЕ-И-ПОДПОМАГАНЕ-НА-ДЕТСКИ-ТАЛАНТИ-ВЕГА&quot;",
      "displayName": "СДРУЖЕНИЕ &quot;ПООЩРЯВАНЕ И ПОДПОМАГАНЕ НА ДЕТСКИ ТАЛАНТИ-ВЕГА&quot;",
      "registeredOffice": "БЪЛГАРИЯ, гр. Русе, 7000",
      "mps": [
        {
          "mpId": 4221,
          "mpName": "Ирена Тодорова Анастасова",
          "role": "ngo_representative",
          "isCurrent": true
        },
        {
          "mpId": 4221,
          "mpName": "Ирена Тодорова Анастасова",
          "role": "ngo_board",
          "isCurrent": true
        }
      ]
    },
    {
      "slug": "СДРУЖЕНИЕ-&quot;СПОРТЕН-КЛУБ-ПО-БАСКЕТБОЛ-ДУНАВ&quot;",
      "displayName": "СДРУЖЕНИЕ &quot;СПОРТЕН КЛУБ ПО БАСКЕТБОЛ - ДУНАВ&quot;",
      "registeredOffice": "БЪЛГАРИЯ, гр. Русе, 7000",
      "mps": [
        {
          "mpId": 1124,
          "mpName": "Петър Иванов Даскалов",
          "role": "ngo_board",
          "isCurrent": true
        },
        {
          "mpId": 3222,
          "mpName": "Пламен Дулчев Нунев",
          "role": "ngo_board",
          "isCurrent": true
        }
      ]
    },
    {
      "slug": "Сдружение-ОБЩЕСТВО-НА-ПРОМЯНАТА-РУСЕ",
      "displayName": "Сдружение ОБЩЕСТВО НА ПРОМЯНАТА - РУСЕ",
      "registeredOffice": "БЪЛГАРИЯ, гр. Русе, 7000",
      "mps": [
        {
          "mpId": 3787,
          "mpName": "Калин Ивайлов Иванов",
          "role": "ngo_representative",
          "isCurrent": true
        },
        {
          "mpId": 3787,
          "mpName": "Калин Ивайлов Иванов",
          "role": "ngo_board",
          "isCurrent": true
        }
      ]
    },
    {
      "slug": "Спорт-Сандрово",
      "displayName": "Спорт Сандрово",
      "registeredOffice": "БЪЛГАРИЯ, гр. Русе, 7000",
      "mps": [
        {
          "mpId": 3537,
          "mpName": "Иван Йорданов Димитров",
          "role": "manager",
          "isCurrent": true
        },
        {
          "mpId": 3537,
          "mpName": "Иван Йорданов Димитров",
          "role": "partner",
          "isCurrent": true
        }
      ]
    },
    {
      "slug": "ФЛОРЕШ",
      "displayName": "ФЛОРЕШ",
      "registeredOffice": "БЪЛГАРИЯ, гр. Русе, 7000",
      "mps": [
        {
          "mpId": 5013,
          "mpName": "Пламен Ангелов Петков",
          "role": "sole_owner",
          "isCurrent": true
        },
        {
          "mpId": 5013,
          "mpName": "Пламен Ангелов Петков",
          "role": "manager",
          "isCurrent": true
        }
      ]
    },
    {
      "slug": "Алексита-ООД",
      "displayName": "\"Алексита\" ООД",
      "registeredOffice": "Русе",
      "mps": [
        {
          "mpId": 2862,
          "mpName": "Георги Георгиев Стоилов",
          "role": "declared_stake",
          "isCurrent": true
        }
      ]
    },
    {
      "slug": "Симонели-ООД",
      "displayName": "\"Симонели\" ООД",
      "registeredOffice": "Русе",
      "mps": [
        {
          "mpId": 2862,
          "mpName": "Георги Георгиев Стоилов",
          "role": "declared_stake",
          "isCurrent": true
        }
      ]
    },
    {
      "slug": "&quot;УЧИЛИЩНО-НАСТОЯТЕЛСТВО-БЪДЕЩЕ-ЗА-ДЕЦАТА-НИ&quot;",
      "displayName": "&quot;УЧИЛИЩНО НАСТОЯТЕЛСТВО - БЪДЕЩЕ ЗА ДЕЦАТА НИ&quot;",
      "registeredOffice": "БЪЛГАРИЯ, гр. Русе, 7000",
      "mps": [
        {
          "mpId": 3228,
          "mpName": "Алисе Кямилова Муртезова",
          "role": "ngo_board",
          "isCurrent": true
        }
      ]
    },
    {
      "slug": "Асимпфрм-ИП-ЗК-медика-ЕООД",
      "displayName": "Асимпфрм ИП ЗК медика ЕООД",
      "registeredOffice": "Русе",
      "mps": [
        {
          "mpId": 3228,
          "mpName": "Алисе Кямилова Муртезова",
          "role": "declared_stake",
          "isCurrent": true
        }
      ]
    },
    {
      "slug": "ГОЦЕ-ДЕЛЧЕВ-2009",
      "displayName": "ГОЦЕ ДЕЛЧЕВ 2009",
      "registeredOffice": "БЪЛГАРИЯ, гр. Русе, 7000",
      "mps": [
        {
          "mpId": 2864,
          "mpName": "Искрен Василев Веселинов",
          "role": "trustee",
          "isCurrent": true
        }
      ]
    },
    {
      "slug": "ДКЦ-СВ.НАУМ-ООД",
      "displayName": "ДКЦ СВ.НАУМ ООД",
      "registeredOffice": "Русе",
      "mps": [
        {
          "mpId": 3228,
          "mpName": "Алисе Кямилова Муртезова",
          "role": "declared_stake",
          "isCurrent": true
        }
      ]
    },
    {
      "slug": "ДУНАВСКИ-ДИГИТАЛЕН-ИНОВАЦИОНЕН-ХЪБ-сдружение",
      "displayName": "ДУНАВСКИ ДИГИТАЛЕН ИНОВАЦИОНЕН ХЪБ - сдружение",
      "registeredOffice": "БЪЛГАРИЯ, гр. Русе, 7017",
      "mps": [
        {
          "mpId": 2863,
          "mpName": "Пенчо Пламенов Милков",
          "role": "ngo_board",
          "isCurrent": true
        }
      ]
    },
    {
      "slug": "ЕУРОПАПИР-БЪЛГАРИЯ",
      "displayName": "ЕУРОПАПИР-БЪЛГАРИЯ",
      "registeredOffice": "БЪЛГАРИЯ, гр. Русе, 7000",
      "mps": [
        {
          "mpId": 112,
          "mpName": "Силвия Николаева Алексиева",
          "role": "director",
          "isCurrent": true
        }
      ]
    },
    {
      "slug": "ИНВЕСТ-ВЕСЕЛИНОВИ",
      "displayName": "ИНВЕСТ-ВЕСЕЛИНОВИ",
      "registeredOffice": "БЪЛГАРИЯ, гр. Русе, 7005",
      "mps": [
        {
          "mpId": 2864,
          "mpName": "Искрен Василев Веселинов",
          "role": "partner",
          "isCurrent": true
        }
      ]
    },
    {
      "slug": "КОР-Трейдинг-ООД",
      "displayName": "КОР Трейдинг ООД",
      "registeredOffice": "Русе",
      "mps": [
        {
          "mpId": 3228,
          "mpName": "Алисе Кямилова Муртезова",
          "role": "declared_stake",
          "isCurrent": true
        }
      ]
    },
    {
      "slug": "Креатив-АМ-ЕООД",
      "displayName": "Креатив АМ ЕООД",
      "registeredOffice": "Русе",
      "mps": [
        {
          "mpId": 3228,
          "mpName": "Алисе Кямилова Муртезова",
          "role": "declared_stake",
          "isCurrent": true
        }
      ]
    },
    {
      "slug": "Мед-Ин-Русе",
      "displayName": "Мед Ин Русе",
      "registeredOffice": "БЪЛГАРИЯ, гр. Русе, 7006",
      "mps": [
        {
          "mpId": 3228,
          "mpName": "Алисе Кямилова Муртезова",
          "role": "partner",
          "isCurrent": true
        }
      ]
    },
    {
      "slug": "Медика-турс-ЕООД",
      "displayName": "Медика турс ЕООД",
      "registeredOffice": "Русе",
      "mps": [
        {
          "mpId": 3228,
          "mpName": "Алисе Кямилова Муртезова",
          "role": "declared_stake",
          "isCurrent": true
        }
      ]
    },
    {
      "slug": "МЦ-Медика-експерт-ЕООД",
      "displayName": "МЦ Медика експерт ЕООД",
      "registeredOffice": "Русе",
      "mps": [
        {
          "mpId": 3228,
          "mpName": "Алисе Кямилова Муртезова",
          "role": "declared_stake",
          "isCurrent": true
        }
      ]
    },
    {
      "slug": "Прециз-Агро-ООД",
      "displayName": "Прециз Агро ООД",
      "registeredOffice": "Русе",
      "mps": [
        {
          "mpId": 2967,
          "mpName": "Добрин Ненов Данев",
          "role": "declared_stake",
          "isCurrent": true
        }
      ]
    },
    {
      "slug": "Прециз-Агро-ФЕР",
      "displayName": "Прециз Агро ФЕР",
      "registeredOffice": "Русе",
      "mps": [
        {
          "mpId": 2967,
          "mpName": "Добрин Ненов Данев",
          "role": "declared_stake",
          "isCurrent": true
        }
      ]
    },
    {
      "slug": "Сбалфрм-медика-ООД",
      "displayName": "Сбалфрм медика ООД",
      "registeredOffice": "Русе",
      "mps": [
        {
          "mpId": 3228,
          "mpName": "Алисе Кямилова Муртезова",
          "role": "declared_stake",
          "isCurrent": true
        }
      ]
    },
    {
      "slug": "СДРУЖЕНИЕ-&quot;ЛАЙЪНС-КЛУБ-СЕКСАГИНТА-ПРИСТА-2006&quot;",
      "displayName": "СДРУЖЕНИЕ &quot;ЛАЙЪНС КЛУБ СЕКСАГИНТА ПРИСТА 2006&quot;",
      "registeredOffice": "БЪЛГАРИЯ, гр. Русе, 7000",
      "mps": [
        {
          "mpId": 693,
          "mpName": "Теодора Димитрова Константинова-Гайдова",
          "role": "ngo_board",
          "isCurrent": true
        }
      ]
    },
    {
      "slug": "Сдружение-СъГраждани",
      "displayName": "Сдружение СъГраждани",
      "registeredOffice": "БЪЛГАРИЯ, гр. Русе, 7000",
      "mps": [
        {
          "mpId": 4817,
          "mpName": "Иван Белчев Белчев",
          "role": "ngo_board",
          "isCurrent": true
        }
      ]
    },
    {
      "slug": "СПОРТНО,ТУРИСТИЧЕСКО-И-ПРИРОДОЗАЩИТНО-ДРУЖЕСТВО-АКАДЕМИК-РУСЕ",
      "displayName": "СПОРТНО,ТУРИСТИЧЕСКО И ПРИРОДОЗАЩИТНО ДРУЖЕСТВО-АКАДЕМИК-РУСЕ",
      "registeredOffice": "БЪЛГАРИЯ, гр. Русе, 7004",
      "mps": [
        {
          "mpId": 5113,
          "mpName": "Георги Иванов Георгиев",
          "role": "ngo_board",
          "isCurrent": true
        }
      ]
    },
    {
      "slug": "Статейс-ООД",
      "displayName": "Статейс ООД",
      "registeredOffice": "Русе",
      "mps": [
        {
          "mpId": 3643,
          "mpName": "Велико Митков Минков",
          "role": "declared_stake",
          "isCurrent": true
        }
      ]
    }
  ]
}