{
  "obshtina": "VAR06",
  "page": 1,
  "totalPages": 2,
  "count": 95,
  "companies": [
    {
      "slug": "Наба-Йистгруп-ООД",
      "displayName": "Наба Йистгруп ООД",
      "registeredOffice": "Варна",
      "mps": [
        {
          "mpId": 4734,
          "mpName": "Бранимир Николаев Балачев",
          "role": "partner",
          "isCurrent": true
        },
        {
          "mpId": 4734,
          "mpName": "Бранимир Николаев Балачев",
          "role": "declared_stake",
          "isCurrent": true
        }
      ]
    },
    {
      "slug": "Горичански-път-ООД",
      "displayName": "Горичански път ООД",
      "registeredOffice": "ВАРНА",
      "mps": [
        {
          "mpId": 4190,
          "mpName": "КАЛОЯН ТОНЕВ ИКОНОМОВ",
          "role": "declared_stake",
          "isCurrent": true
        }
      ]
    },
    {
      "slug": "Перинея-ООД",
      "displayName": "Перинея ООД",
      "registeredOffice": "ВАРНА",
      "mps": [
        {
          "mpId": 4190,
          "mpName": "КАЛОЯН ТОНЕВ ИКОНОМОВ",
          "role": "declared_stake",
          "isCurrent": true
        }
      ]
    },
    {
      "slug": "Перинея-Балчик-ООД",
      "displayName": "Перинея-Балчик ООД",
      "registeredOffice": "ВАРНА",
      "mps": [
        {
          "mpId": 4190,
          "mpName": "КАЛОЯН ТОНЕВ ИКОНОМОВ",
          "role": "declared_stake",
          "isCurrent": true
        }
      ]
    },
    {
      "slug": "Факла-ЕАД",
      "displayName": "Факла ЕАД",
      "registeredOffice": "ВАРНА",
      "mps": [
        {
          "mpId": 5006,
          "mpName": "Ивелин Людмилов Михайлов",
          "role": "representative",
          "isCurrent": true
        },
        {
          "mpId": 5006,
          "mpName": "Ивелин Людмилов Михайлов",
          "role": "director",
          "isCurrent": true
        },
        {
          "mpId": 5006,
          "mpName": "Ивелин Людмилов Михайлов",
          "role": "sole_owner",
          "isCurrent": true
        },
        {
          "mpId": 5007,
          "mpName": "Красимира Петкова Нинова-Катинчарова",
          "role": "declared_stake",
          "isCurrent": true
        }
      ]
    },
    {
      "slug": "Минерва-БГ-ООД",
      "displayName": "Минерва БГ ООД",
      "registeredOffice": "Варна",
      "mps": [
        {
          "mpId": 4738,
          "mpName": "Борислав Гуцанов Гуцанов",
          "role": "declared_stake",
          "isCurrent": true
        }
      ]
    },
    {
      "slug": "Инвест-солар-груп-ООД",
      "displayName": "\"Инвест солар груп\" ООД",
      "registeredOffice": "Варна",
      "mps": [
        {
          "mpId": 3443,
          "mpName": "Александър Благовестов Тодоров",
          "role": "sole_owner",
          "isCurrent": true
        },
        {
          "mpId": 3443,
          "mpName": "Александър Благовестов Тодоров",
          "role": "declared_stake",
          "isCurrent": true
        }
      ]
    },
    {
      "slug": "Театро-варна-ООД",
      "displayName": "\"Театро варна\" ООД",
      "registeredOffice": "Варна",
      "mps": [
        {
          "mpId": 3026,
          "mpName": "Антон Йорданов Адамов",
          "role": "partner",
          "isCurrent": true
        },
        {
          "mpId": 3026,
          "mpName": "Антон Йорданов Адамов",
          "role": "declared_stake",
          "isCurrent": true
        }
      ]
    },
    {
      "slug": "Аарон-ООД",
      "displayName": "Аарон ООД",
      "registeredOffice": "Русе",
      "mps": [
        {
          "mpId": 3914,
          "mpName": "Инна Владимирова Иванова",
          "role": "declared_stake",
          "isCurrent": true
        }
      ]
    },
    {
      "slug": "АМБУЛАТОРИЯ-ЗА-СПЕЦИАЛИЗИРАНА-МЕДИЦИНСКА-ПОМОЩ-ГРУПОВА-ПРАКТИКА-&quot;ОРТОЛАЙФ&quot;",
      "displayName": "АМБУЛАТОРИЯ ЗА СПЕЦИАЛИЗИРАНА МЕДИЦИНСКА ПОМОЩ - ГРУПОВА ПРАКТИКА &quot;ОРТОЛАЙФ&quot;",
      "registeredOffice": "БЪЛГАРИЯ, гр. Варна, 9000",
      "mps": [
        {
          "mpId": 854,
          "mpName": "Стоян Иванов Иванов",
          "role": "manager",
          "isCurrent": true
        },
        {
          "mpId": 854,
          "mpName": "Стоян Иванов Иванов",
          "role": "partner",
          "isCurrent": true
        }
      ]
    },
    {
      "slug": "БАР-ЛИДЕР",
      "displayName": "БАР - ЛИДЕР",
      "registeredOffice": "БЪЛГАРИЯ, гр. Варна, 9010",
      "mps": [
        {
          "mpId": 176,
          "mpName": "Георги Йорданов Димитров",
          "role": "manager",
          "isCurrent": true
        },
        {
          "mpId": 176,
          "mpName": "Георги Йорданов Димитров",
          "role": "partner",
          "isCurrent": true
        }
      ]
    },
    {
      "slug": "БАР-ПОРТ",
      "displayName": "БАР - ПОРТ",
      "registeredOffice": "БЪЛГАРИЯ, гр. Варна, 9000",
      "mps": [
        {
          "mpId": 176,
          "mpName": "Георги Йорданов Димитров",
          "role": "manager",
          "isCurrent": true
        },
        {
          "mpId": 176,
          "mpName": "Георги Йорданов Димитров",
          "role": "sole_owner",
          "isCurrent": true
        }
      ]
    },
    {
      "slug": "БМВ-ИНВЕСТ",
      "displayName": "БМВ ИНВЕСТ",
      "registeredOffice": "БЪЛГАРИЯ, гр. Варна, 9004",
      "mps": [
        {
          "mpId": 2679,
          "mpName": "Боряна Любенова Георгиева",
          "role": "manager",
          "isCurrent": true
        },
        {
          "mpId": 2679,
          "mpName": "Боряна Любенова Георгиева",
          "role": "partner",
          "isCurrent": true
        }
      ]
    },
    {
      "slug": "В-ЕЪР",
      "displayName": "В ЕЪР",
      "registeredOffice": "БЪЛГАРИЯ, гр. Варна, 9000",
      "mps": [
        {
          "mpId": 2562,
          "mpName": "Полина Кръстева Карастоянова",
          "role": "director",
          "isCurrent": true
        },
        {
          "mpId": 2562,
          "mpName": "Полина Кръстева Карастоянова",
          "role": "sole_owner",
          "isCurrent": true
        }
      ]
    },
    {
      "slug": "Варна-стар-ООД",
      "displayName": "Варна стар ООД",
      "registeredOffice": "Варна",
      "mps": [
        {
          "mpId": 2679,
          "mpName": "Боряна Любенова Георгиева",
          "role": "declared_stake",
          "isCurrent": true
        }
      ]
    },
    {
      "slug": "ГЛОРИ-ЛИЙВС",
      "displayName": "ГЛОРИ ЛИЙВС",
      "registeredOffice": "БЪЛГАРИЯ, гр. Варна, 9000",
      "mps": [
        {
          "mpId": 5218,
          "mpName": "Ивайло Христов Христов",
          "role": "manager",
          "isCurrent": true
        },
        {
          "mpId": 5218,
          "mpName": "Ивайло Христов Христов",
          "role": "partner",
          "isCurrent": true
        }
      ]
    },
    {
      "slug": "Гранд-Олд-Тийм",
      "displayName": "Гранд Олд Тийм",
      "registeredOffice": "БЪЛГАРИЯ, гр. Варна, 9000",
      "mps": [
        {
          "mpId": 4728,
          "mpName": "Светослав Тодоров Тодоров",
          "role": "manager",
          "isCurrent": true
        },
        {
          "mpId": 4728,
          "mpName": "Светослав Тодоров Тодоров",
          "role": "partner",
          "isCurrent": true
        }
      ]
    },
    {
      "slug": "Жидимекс-Акаунтинг-ООД",
      "displayName": "Жидимекс Акаунтинг ООД",
      "registeredOffice": "Варна",
      "mps": [
        {
          "mpId": 3415,
          "mpName": "Живка Михалева Железова",
          "role": "partner",
          "isCurrent": true
        },
        {
          "mpId": 3415,
          "mpName": "Живка Михалева Железова",
          "role": "declared_stake",
          "isCurrent": true
        }
      ]
    },
    {
      "slug": "Жидимекс-ЕООД",
      "displayName": "Жидимекс ЕООД",
      "registeredOffice": "Варна",
      "mps": [
        {
          "mpId": 3415,
          "mpName": "Живка Михалева Железова",
          "role": "partner",
          "isCurrent": true
        },
        {
          "mpId": 3415,
          "mpName": "Живка Михалева Железова",
          "role": "declared_stake",
          "isCurrent": true
        }
      ]
    },
    {
      "slug": "ИДЕЯ-КАСА-2020",
      "displayName": "ИДЕЯ КАСА 2020",
      "registeredOffice": "БЪЛГАРИЯ, гр. Варна, 9000",
      "mps": [
        {
          "mpId": 1536,
          "mpName": "Даниел Георгиев Георгиев",
          "role": "manager",
          "isCurrent": true
        },
        {
          "mpId": 1536,
          "mpName": "Даниел Георгиев Георгиев",
          "role": "sole_owner",
          "isCurrent": true
        }
      ]
    },
    {
      "slug": "КАМЧИЯ-ПРОПЪРТИС",
      "displayName": "КАМЧИЯ ПРОПЪРТИС",
      "registeredOffice": "БЪЛГАРИЯ, гр. Варна, 9000",
      "mps": [
        {
          "mpId": 51,
          "mpName": "Станчо Николов Тодоров",
          "role": "manager",
          "isCurrent": true
        },
        {
          "mpId": 51,
          "mpName": "Станчо Николов Тодоров",
          "role": "partner",
          "isCurrent": true
        }
      ]
    },
    {
      "slug": "ЛА-МЕР-МЕНИДЖМЪНТ",
      "displayName": "ЛА МЕР МЕНИДЖМЪНТ",
      "registeredOffice": "БЪЛГАРИЯ, гр. Варна, 9000",
      "mps": [
        {
          "mpId": 2385,
          "mpName": "Красимир Петров Петров",
          "role": "manager",
          "isCurrent": true
        },
        {
          "mpId": 2385,
          "mpName": "Красимир Петров Петров",
          "role": "partner",
          "isCurrent": true
        }
      ]
    },
    {
      "slug": "МЕТАЛЕКС-ИКОН",
      "displayName": "МЕТАЛЕКС ИКОН",
      "registeredOffice": "БЪЛГАРИЯ, гр. Варна, 9002",
      "mps": [
        {
          "mpId": 5111,
          "mpName": "Калоян Тошков Иванов",
          "role": "manager",
          "isCurrent": true
        },
        {
          "mpId": 5111,
          "mpName": "Калоян Тошков Иванов",
          "role": "partner",
          "isCurrent": true
        }
      ]
    },
    {
      "slug": "Море-2020-ООД",
      "displayName": "Море 2020 ООД",
      "registeredOffice": "Варна",
      "mps": [
        {
          "mpId": 2760,
          "mpName": "Иван Димов Иванов",
          "role": "declared_stake",
          "isCurrent": true
        }
      ]
    },
    {
      "slug": "Наба-Геймс-ООД",
      "displayName": "Наба Геймс ООД",
      "registeredOffice": "Варна",
      "mps": [
        {
          "mpId": 4734,
          "mpName": "Бранимир Николаев Балачев",
          "role": "declared_stake",
          "isCurrent": true
        }
      ]
    },
    {
      "slug": "Наба-Електроник-ООД",
      "displayName": "Наба Електроник ООД",
      "registeredOffice": "Варна",
      "mps": [
        {
          "mpId": 4734,
          "mpName": "Бранимир Николаев Балачев",
          "role": "declared_stake",
          "isCurrent": true
        }
      ]
    },
    {
      "slug": "РЕМАР-ТРЕЙД",
      "displayName": "РЕМАР ТРЕЙД",
      "registeredOffice": "БЪЛГАРИЯ, гр. Варна, 9000",
      "mps": [
        {
          "mpId": 3160,
          "mpName": "Рушен Мехмед Риза",
          "role": "manager",
          "isCurrent": true
        },
        {
          "mpId": 3160,
          "mpName": "Рушен Мехмед Риза",
          "role": "sole_owner",
          "isCurrent": true
        }
      ]
    },
    {
      "slug": "СОД-БЕРКУТ",
      "displayName": "СОД БЕРКУТ",
      "registeredOffice": "БЪЛГАРИЯ, гр. Варна, 9000",
      "mps": [
        {
          "mpId": 124,
          "mpName": "Митко Иванов Димитров",
          "role": "manager",
          "isCurrent": true
        },
        {
          "mpId": 124,
          "mpName": "Митко Иванов Димитров",
          "role": "partner",
          "isCurrent": true
        }
      ]
    },
    {
      "slug": "СП-КОНСУЛТ-БГ",
      "displayName": "СП КОНСУЛТ БГ",
      "registeredOffice": "БЪЛГАРИЯ, гр. Варна, 9006",
      "mps": [
        {
          "mpId": 2757,
          "mpName": "Стоян Христов Пасев",
          "role": "manager",
          "isCurrent": true
        },
        {
          "mpId": 2757,
          "mpName": "Стоян Христов Пасев",
          "role": "sole_owner",
          "isCurrent": true
        }
      ]
    },
    {
      "slug": "Спорт-Баланс-91",
      "displayName": "Спорт Баланс 91",
      "registeredOffice": "БЪЛГАРИЯ, гр. Варна, 9022",
      "mps": [
        {
          "mpId": 42,
          "mpName": "Йордан Димитров Костадинов",
          "role": "manager",
          "isCurrent": true
        },
        {
          "mpId": 42,
          "mpName": "Йордан Димитров Костадинов",
          "role": "sole_owner",
          "isCurrent": true
        }
      ]
    },
    {
      "slug": "УНИ-ЕЛЕКТРИК",
      "displayName": "УНИ ЕЛЕКТРИК",
      "registeredOffice": "БЪЛГАРИЯ, гр. Варна, 9000",
      "mps": [
        {
          "mpId": 940,
          "mpName": "Ивелин Николаев Николов",
          "role": "manager",
          "isCurrent": true
        },
        {
          "mpId": 940,
          "mpName": "Ивелин Николаев Николов",
          "role": "sole_owner",
          "isCurrent": true
        }
      ]
    },
    {
      "slug": "Чинар-Варна-ЕООД",
      "displayName": "Чинар Варна ЕООД",
      "registeredOffice": "Варна",
      "mps": [
        {
          "mpId": 2760,
          "mpName": "Иван Димов Иванов",
          "role": "declared_stake",
          "isCurrent": true
        }
      ]
    },
    {
      "slug": "Чинар-Дондуков-ООД",
      "displayName": "Чинар Дондуков ООД",
      "registeredOffice": "Варна",
      "mps": [
        {
          "mpId": 2760,
          "mpName": "Иван Димов Иванов",
          "role": "declared_stake",
          "isCurrent": true
        }
      ]
    },
    {
      "slug": "Вива-РА-ООД",
      "displayName": "\"Вива РА\" ООД",
      "registeredOffice": "Варна",
      "mps": [
        {
          "mpId": 3443,
          "mpName": "Александър Благовестов Тодоров",
          "role": "declared_stake",
          "isCurrent": true
        }
      ]
    },
    {
      "slug": "Вилидж-Фрутс",
      "displayName": "\"Вилидж Фрутс\"",
      "registeredOffice": "Варна",
      "mps": [
        {
          "mpId": 3373,
          "mpName": "Тодор Стаматов Тодоров",
          "role": "declared_stake",
          "isCurrent": true
        }
      ]
    },
    {
      "slug": "Моят-спорт-ООД",
      "displayName": "\"Моят спорт\" ООД",
      "registeredOffice": "Варна",
      "mps": [
        {
          "mpId": 3443,
          "mpName": "Александър Благовестов Тодоров",
          "role": "declared_stake",
          "isCurrent": true
        }
      ]
    },
    {
      "slug": "Ник-консулт-2016ЕООД",
      "displayName": "\"Ник консулт 2016\"ЕООД",
      "registeredOffice": "Варна",
      "mps": [
        {
          "mpId": 4384,
          "mpName": "Милена Славова Димова",
          "role": "declared_stake",
          "isCurrent": true
        }
      ]
    },
    {
      "slug": "Тризнаци",
      "displayName": "\"Тризнаци\"",
      "registeredOffice": "Варна",
      "mps": [
        {
          "mpId": 3373,
          "mpName": "Тодор Стаматов Тодоров",
          "role": "declared_stake",
          "isCurrent": true
        }
      ]
    },
    {
      "slug": "Адвокатско-дружество-Балачев-и-Ко",
      "displayName": "Адвокатско дружество Балачев и Ко",
      "registeredOffice": "Варна",
      "mps": [
        {
          "mpId": 4734,
          "mpName": "Бранимир Николаев Балачев",
          "role": "declared_stake",
          "isCurrent": true
        }
      ]
    },
    {
      "slug": "Алпина-фармъси-ООД",
      "displayName": "Алпина фармъси ООД",
      "registeredOffice": "Варна",
      "mps": [
        {
          "mpId": 2760,
          "mpName": "Иван Димов Иванов",
          "role": "declared_stake",
          "isCurrent": true
        }
      ]
    },
    {
      "slug": "АМБУЛАТОРИЯ-ЗА-СПЕЦИАЛИЗИРАНА-МЕДИЦИНСКА-ПОМОЩ-МЕДИЦИНСКИ-ЦЕНТЪР-МЕДЕКСПРЕС-2022",
      "displayName": "АМБУЛАТОРИЯ ЗА СПЕЦИАЛИЗИРАНА МЕДИЦИНСКА ПОМОЩ-МЕДИЦИНСКИ ЦЕНТЪР МЕДЕКСПРЕС 2022",
      "registeredOffice": "БЪЛГАРИЯ, гр. Варна, 9000",
      "mps": [
        {
          "mpId": 5009,
          "mpName": "Любиша   Блажевски",
          "role": "partner",
          "isCurrent": true
        }
      ]
    },
    {
      "slug": "Битов-ресторант-ООД",
      "displayName": "Битов ресторант ООД",
      "registeredOffice": "Варна",
      "mps": [
        {
          "mpId": 2760,
          "mpName": "Иван Димов Иванов",
          "role": "declared_stake",
          "isCurrent": true
        }
      ]
    },
    {
      "slug": "Болярски-ДОМ-АД",
      "displayName": "Болярски ДОМ АД",
      "registeredOffice": "ВАРНА",
      "mps": [
        {
          "mpId": 5007,
          "mpName": "Красимира Петкова Нинова-Катинчарова",
          "role": "declared_stake",
          "isCurrent": true
        }
      ]
    },
    {
      "slug": "Брадърс-Трейд-Тим-ООД",
      "displayName": "Брадърс Трейд Тим ООД",
      "registeredOffice": "Варна",
      "mps": [
        {
          "mpId": 4734,
          "mpName": "Бранимир Николаев Балачев",
          "role": "declared_stake",
          "isCurrent": true
        }
      ]
    },
    {
      "slug": "Бургас-Петролеум-Трейд-ЕООД",
      "displayName": "Бургас Петролеум Трейд ЕООД",
      "registeredOffice": "Варна",
      "mps": [
        {
          "mpId": 2659,
          "mpName": "Гергана Желязкова Стефанова",
          "role": "declared_stake",
          "isCurrent": true
        }
      ]
    },
    {
      "slug": "Величие-АД",
      "displayName": "Величие АД",
      "registeredOffice": "Варна",
      "mps": [
        {
          "mpId": 5007,
          "mpName": "Красимира Петкова Нинова-Катинчарова",
          "role": "declared_stake",
          "isCurrent": true
        }
      ]
    },
    {
      "slug": "Вешев-ЕООД",
      "displayName": "Вешев ЕООД",
      "registeredOffice": "Варна",
      "mps": [
        {
          "mpId": 4887,
          "mpName": "Веселин Миленов Вешев",
          "role": "declared_stake",
          "isCurrent": true
        }
      ]
    },
    {
      "slug": "Витагер-ЕООД",
      "displayName": "Витагер ЕООД",
      "registeredOffice": "Варна",
      "mps": [
        {
          "mpId": 2659,
          "mpName": "Гергана Желязкова Стефанова",
          "role": "declared_stake",
          "isCurrent": true
        }
      ]
    },
    {
      "slug": "ВМ-Имоти-2015-ООД",
      "displayName": "ВМ Имоти 2015 ООД",
      "registeredOffice": "Варна",
      "mps": [
        {
          "mpId": 2706,
          "mpName": "Веселин Найденов Марешки",
          "role": "declared_stake",
          "isCurrent": true
        }
      ]
    },
    {
      "slug": "ВМ-Ойл-ООД",
      "displayName": "ВМ Ойл ООД",
      "registeredOffice": "Варна",
      "mps": [
        {
          "mpId": 2706,
          "mpName": "Веселин Найденов Марешки",
          "role": "declared_stake",
          "isCurrent": true
        }
      ]
    }
  ]
}